Place,Name,Division,BodyweightKg,Squat1Kg,Squat2Kg,Squat3Kg,Best3SquatKg,Bench1Kg,Bench2Kg,Bench3Kg,Best3BenchKg,Bench4Kg,Deadlift1Kg,Deadlift2Kg,Deadlift3Kg,Best3DeadliftKg,Deadlift4Kg,TotalKg,WeightClassKg,Sex,CyrillicName,BirthYear,Tested,Equipment,Event
1,Viktoriya Demura,O,48,55,-65,-65,55,35,-40,-42.5,35,,95,-107.5,107.5,107.5,,197.5,48,F,Вікторія Демура,1985,Yes,Wraps,SBD
1,Tetyana Sharkova,T3,50,-65,-65,65,65,40,42.5,45,45,,75,80,85,85,,195,52,F,Тетяна Шаркова,1997,Yes,Wraps,SBD
1,Yuliya Konyushenko,J,51.7,90,-100,100,100,-45,45,-50,45,,95,105,110,110,,255,52,F,Юлія Конюшенко,1995,Yes,Wraps,SBD
1,Anastasiya Kalashnikova,O,49.8,-112.5,112.5,-115,112.5,60,62.5,65,65,,115,122.5,127.5,127.5,,305,52,F,Анастасія Калашнікова,1985,Yes,Wraps,SBD
2,Yuliya Sotnikova,O,51.6,80,-90,90,90,40,45,50,50,,130,140,-150,140,,280,52,F,Юлія Сотнікова,1991,Yes,Wraps,SBD
DQ,Olga Rumyantseva,O,49.9,95,100,-105,100,55,60,-62.5,60,,-100,-100,,,,,52,F,Ольга Румянцева,1985,Yes,Wraps,SBD
1,Anna Krivokon,T3,59.1,65,72.5,-75,72.5,50,52.5,55,55,,90,95,100,100,,227.5,60,F,Анна Кривоконь,1996,Yes,Wraps,SBD
1,Olga Yatina,J,60,90,-100,-100,90,55,60,-62.5,60,,90,100,110,110,,260,60,F,Ольга Ятина,1994,Yes,Wraps,SBD
1,Daryna Prysyazhna,O,54.5,102.5,107.5,-112.5,107.5,65,-70,-70,65,,110,117.5,120,120,,292.5,56,F,Дарина Присяжна,1989,Yes,Wraps,SBD
2,Yuliya Levankova,O,54.3,50,60,70,70,40,42.5,45,45,,110,122.5,-125,122.5,,237.5,56,F,Юлія Леванькова,1988,Yes,Wraps,SBD
1,Oleksandra Gorina,J,60,75,80,85,85,35,37.5,40,40,,85,-90,-90,85,,210,60,F,Олександра Горіна,1994,Yes,Wraps,SBD
1,Anastasiya Ryzhikh,O,58.9,-100,105,115,115,50,57.5,62.5,62.5,,122.5,135,140,140,,317.5,60,F,Анастасія Рижих,1989,Yes,Wraps,SBD
2,Natalya Kravchenko,O,59.4,90,100,105,105,60,65,-67.5,65,,120,125,127.5,127.5,,297.5,60,F,Наталья Кравченко,1977,Yes,Wraps,SBD
1,Tetyana Vinar,M1,59,90,100,105,105,-55,55,57.5,57.5,,100,110,115,115,,277.5,60,F,Тетяна Вінар,1975,Yes,Wraps,SBD
1,Yana Yonenko,T2,65.4,95,-100,100,100,55,60,-65,60,,115,125,135,135,,295,67.5,F,Яна Йоненко,1999,Yes,Wraps,SBD
1,Mariya Godis,T3,66.4,60,65,70,70,40,-45,-45,40,,90,100,105,105,,215,67.5,F,Марія Годись,1996,Yes,Wraps,SBD
1,Anna Kashperska,J,66.7,110,115,-120,115,75,-80,-80,75,,125,135,-145,135,,325,67.5,F,Анна Кашперська,1994,Yes,Wraps,SBD
1,Anastasiya Volokhova,T3,73,110,-120,-120,110,70,75,-80,75,,120,-125,125,125,,310,75,F,Анастасія Волохова,1996,Yes,Wraps,SBD
1,Tetyana Potapchuk,J,73,180,-190,-190,180,105,110,115,115,,170,-180,,170,,465,75,F,Тетяна Потапчук,1994,Yes,Wraps,SBD
1,Tetyana Potapchuk,O,73,180,-190,-190,180,105,110,115,115,,170,-180,,170,,465,75,F,Тетяна Потапчук,1994,Yes,Wraps,SBD
1,Maxym Popovych,J,59.5,130,140,-145,140,100,105,107.5,107.5,,155,170,182.5,182.5,,430,60,M,Максим Попович,1996,Yes,Wraps,SBD
1,Andriy Ivanov,T2,64.9,80,-90,-90,80,55,-60,62.5,62.5,,90,100,105,105,,247.5,67.5,M,Андрій Іванов,2000,Yes,Wraps,SBD
1,Mykhaylo Tsiomashko,T3,62.9,90,100,105,105,70,,72.5,72.5,,110,120,125,125,,302.5,67.5,M,Михайло Ціомашко,1997,Yes,Wraps,SBD
1,Sergiy Lebedev,J,66,135,145,160,160,100,-110,110,110,,170,190,-215,190,,460,67.5,M,Сергій Лебедєв,1993,Yes,Wraps,SBD
1,Petro Tyshchenko,O,67.5,180,190,-195,190,150,157.5,160,160,,220,230,240,240,,590,67.5,M,Петро Тищенко,1984,Yes,Wraps,SBD
2,Yevgen Bokiy,O,67.2,180,-195,-195,180,125,132.5,138,138,,185,200,-205,200,,518,67.5,M,Євген Бокій,1976,Yes,Wraps,SBD
1,Yevgen Bokiy,M1,67.2,180,-195,-195,180,125,132.5,138,138,,185,200,-205,200,,518,67.5,M,Євген Бокій,1976,Yes,Wraps,SBD
1,Miroslav Dryagin,T3,71.5,162.5,170,175,175,107.5,112.5,115,115,,175,180,185,185,,475,75,M,Мирослав Дрягін,1997,Yes,Wraps,SBD
2,Volodymyr Mavrenkov,T3,74,110,125,-140,125,100,105,-110,105,,-150,160,170,170,,400,75,M,Володимир Мавренков,1997,Yes,Wraps,SBD
DD,Oleksandr Lukachinets,T3,73.8,-180,180,-185,180,125,130,135,135,,210,220,,220,,,75,M,Олександр Лукачинець,1997,Yes,Wraps,SBD
1,Vadim Shkarupa,J,73.5,175,-182.5,-182.5,175,120,127.5,135,135,,185,200,-215,200,,510,75,M,Вадим Шкарупа,1992,Yes,Wraps,SBD
2,Artem Tislenko,J,71.4,160,172.5,-180,172.5,115,122.5,127.5,127.5,,175,185,195,195,,495,75,M,Артем Тисленко,1993,Yes,Wraps,SBD
3,Denys Martynyuk,J,71.6,140,150,-160,150,85,90,-95,90,,170,185,-195,185,,425,75,M,Денис Мартинюк,1995,Yes,Wraps,SBD
DQ,Dmytro Shpak,J,69.7,-160,-160,-160,,,,,,,,,,,,,75,M,Дмитро Шпак,1995,Yes,Wraps,SBD
1,Valeriy Rud',O,72.9,200,-210,210,210,140,150,155,155,,200,215,-235,215,,580,75,M,Валерій Рудь,1987,Yes,Wraps,SBD
2,Erik Kupriev,O,74.5,170,180,185,185,95,102.5,107.5,107.5,,232.5,250,265,265,,557.5,75,M,Ерік Купрієв,1992,Yes,Wraps,SBD
3,Vladyslav Prodan,O,73.5,170,180,185,185,140,147.5,152.5,152.5,,187.5,200,205,205,,542.5,75,M,Владислав Продан,1990,Yes,Wraps,SBD
4,Arthur Mylin,O,74.5,140,150,-160,150,115,122.5,-130,122.5,,-150,150,-165,150,,422.5,75,M,Артур Милін,1989,Yes,Wraps,SBD
DQ,Vyacheslav Mironenko,O,74,-155,155,170,170,-117.5,-117.5,-117.5,,,,,,,,,75,M,Вячеслав Мироненко,1990,Yes,Wraps,SBD
1,Vadim Kovalchuk,T2,78.9,105,110,120,120,80,85,87.5,87.5,,120,130,132.5,132.5,,340,82.5,M,Вадим Ковальчук,1999,Yes,Wraps,SBD
1,Roman Tristan,T3,79.7,165,175,185,185,115,-125,-125,115,,215,230,-250,230,,530,82.5,M,Роман Тристан,1997,Yes,Wraps,SBD
2,Kyrylo Kalinichenko,T3,81.9,150,-160,-160,150,105,110,-115,110,,180,-200,200,200,,460,82.5,M,Кирило Калініченко,1997,Yes,Wraps,SBD
3,Mykyta Filonenko,T3,78.8,110,120,130,130,105,-115,115,115,,150,160,170,170,,415,82.5,M,Микита Філоненко,1998,Yes,Wraps,SBD
1,Sergiy Potapov,J,82.2,180,195,205,205,115,120,130,130,,210,230,245,245,,580,82.5,M,Сергій Потапов,1996,Yes,Wraps,SBD
2,Dmitro Bragin,J,81,180,187.5,200,200,125,130,135,135,,190,200,-207.5,200,,535,82.5,M,Дмитро Брагін,1993,Yes,Wraps,SBD
3,Illya Voroshilov,J,80.8,150,160,175,175,120,130,140,140,,170,185,200,200,,515,82.5,M,Ілля Ворошилов,1994,Yes,Wraps,SBD
4,Andriy Pustovoy,O,81.5,150,165,-175,165,130,140,-145,140,,160,175,185,185,,490,82.5,M,Андрій Пустовой,1991,Yes,Wraps,SBD
1,Vitaliy Lukachinets,O,81.6,-200,200,210,210,130,135,140,140,,220,230,,230,,580,82.5,M,Віталій Лукачинець,1991,Yes,Wraps,SBD
2,Sergiy Mazur,O,80.9,160,170,180,180,-110,110,120,120,,200,215,225,225,,525,82.5,M,Сергій Мазур,1981,Yes,Wraps,SBD
3,Oleg Pustovoy,O,81.3,170,182.5,-190,182.5,130,-137.5,137.5,137.5,,180,190,200,200,,520,82.5,M,Олег Пустовой,1987,Yes,Wraps,SBD
4,Oleksandr Yatsenko,O,81.5,-160,160,-165,160,105,110,-115,110,,205,215,225,225,,495,82.5,M,Олександр Яценко,1981,Yes,Wraps,SBD
5,Dmitro Kuksov,O,80.9,130,140,-150,140,120,125,,125,,185,-200,-200,185,,450,82.5,M,Дмитро Куксов,1990,Yes,Wraps,SBD
1,Bogdan Byalobrzheskiy,T2,89.4,120,130,140,140,90,95,-100,95,,180,200,,200,,435,90,M,Богдан Бялобржеський,1998,Yes,Wraps,SBD
1,Kostyantyn Varlan,T3,84.4,160,170,175,175,112.5,122.5,,122.5,,195,205,215,215,,512.5,90,M,Костянтин Варлан,1996,Yes,Wraps,SBD
1,Roman Shapovalov,J,87.4,210,220,-225,220,140,145,150,150,,230,240,252.5,252.5,,622.5,90,M,Роман Шаповалов,1994,Yes,Wraps,SBD
2,Oleg Derlyuk,J,88.8,200,215,231,231,120,130,135,135,,230,250,-260,250,,616,90,M,Олег Дерлюк,1992,Yes,Wraps,SBD
3,Stanislav Smazhko,J,90,210,220,227.5,227.5,140,145,-147.5,145,,220,230,-235,230,,602.5,90,M,Станіслав Смажко,1994,Yes,Wraps,SBD
4,Mykhaylo Dzhun,J,86.4,-205,210,-220,210,130,-140,-150,130,,230,250,260,260,,600,90,M,Михайло Джунь,1994,Yes,Wraps,SBD
5,Oleksey Kizyma,J,89.1,200,210,-220,210,130,-135,135,135,,210,230,-245,230,,575,90,M,Олексій Кізима,1995,Yes,Wraps,SBD
DQ,Roman Doroshenko,J,89.4,-210,210,-220,210,140,150,160,160,,-240,-240,,,,,90,M,Роман Дорошенко,1992,Yes,Wraps,SBD
DD,Dmitro Kukharenko,O,88.4,172.5,-185,195,195,127.5,135,145,145,,227.5,235,-240,235,,,90,M,Дмитро Кухаренко,1991,Yes,Wraps,SBD
1,Mark Parfenyuk,T2,99.3,140,152.5,160,160,102.5,110,-115,110,,160,180,190,190,,460,100,M,Марк Парфенюк,1999,Yes,Wraps,SBD
1,Valentyn Gerasymchuk,T3,96.7,160,170,-180,170,110,117.5,-125,117.5,,200,215,,215,,502.5,100,M,Валентин Герасимчук,1998,Yes,Wraps,SBD
1,Stanislav Poznyak,J,99.8,190,205,-220,205,155,165,170,170,,260,270,,270,,645,100,M,Станіслав Позняк,1993,Yes,Wraps,SBD
2,Oleksiy Parnak,J,90.8,170,185,,185,135,140,145,145,,160,180,-200,180,,510,100,M,Олексій Парнак,1993,Yes,Wraps,SBD
3,Petro Vodop'yan,J,98.1,135,145,150,150,100,110,120,120,,140,150,162.5,162.5,,432.5,100,M,Петро Водоп'ян,1994,Yes,Wraps,SBD
1,Stanislav Poznyak,O,99.8,190,205,-220,205,155,165,170,170,,260,270,,270,,645,100,M,Станіслав Позняк,1993,Yes,Wraps,SBD
2,Volodymyr Ogloblin,O,100,210,-220,222.5,222.5,110,-115,,110,,250,-260,-260,250,,582.5,100,M,Володимир Оглоблін,1965,Yes,Wraps,SBD
3,Sergiy Danilov,O,100,170,185,192.5,192.5,150,155,157.5,157.5,,200,220,-250,220,,570,100,M,Сергій Данілов,1987,Yes,Wraps,SBD
4,Andriy Kachur,O,91,-160,-160,160,160,140,-150,150,150,,200,215,225,225,,535,100,M,Андрій Качур,1992,Yes,Wraps,SBD
5,Roman Dukhin,O,97.5,150,-170,170,170,90,-95,-95,90,,150,160,170,170,,430,100,M,Роман Духін,1988,Yes,Wraps,SBD
1,Dmitro Strelnikov,M1,97.5,-160,-160,160,160,-115,115,125,125,,170,180,-190,180,,465,100,M,Дмитро Стрельніков,1975,Yes,Wraps,SBD
1,Volodymyr Ogloblin,M3,100,210,-220,222.5,222.5,110,-115,,110,,250,-260,-260,250,,582.5,100,M,Володимир Оглоблін,1965,Yes,Wraps,SBD
1,Dmitro Sagaydak,T3,110,180,195,210,210,120,130,-135,130,,240,260,275,275,,615,110,M,Дмитро Сагайдак,1997,Yes,Wraps,SBD
1,Oleksandr Kucher,O,103,210,220,230,230,190,205,215,215,,200,215,230,230,,675,110,M,Олександр Кучер,1985,Yes,Wraps,SBD
1,Vladislav Shevchenko,T3,116.5,220,230,240,240,150,-160,160,160,,240,260,270,270,,670,125,M,Владислав Шевченко,1997,Yes,Wraps,SBD
1,Sergiy Zhabitenko,M4,116.8,180,-190,,180,125,-135,,125,,-200,200,-247.5,200,,505,125,M,Сергій Жабітенко,1959,Yes,Wraps,SBD
1,Liliya Pidgurska,O,65.8,-40,40,50,50,30,40,-42.5,40,,70,80,85,85,,175,67.5,F,Лілія Підгурська,1990,No,Wraps,SBD
1,Anatoliy Starostenko,T2,61.4,-135,135,142.5,142.5,95,100,-105,100,,180,-185,,180,,422.5,67.5,M,Анатолій Старостенко,1999,No,Wraps,SBD
1,Mykola Bilozerov,O,70.9,185,195,-205,195,115,-125,-125,115,,227.5,-242.5,-242.5,227.5,,537.5,75,M,Николай Белозеров,1982,No,Wraps,SBD
1,Artur Dubinin,O,76.7,180,190,200,200,130,135,,135,,220,230,-240,230,,565,82.5,M,Артур Дубінін,1987,No,Wraps,SBD
2,Yevgen Konovalov,O,79.7,160,165,-170,165,-140,140,145,145,,210,220,-225,220,,530,82.5,M,Євген Коновалов,1987,No,Wraps,SBD
1,Nazar Podkopay,T2,89.9,150,160,170,170,110,-117.5,-117.5,110,,160,170,180,180,,460,90,M,Назар Подкопай,1998,No,Wraps,SBD
1,Vitaliy Bondarenko,J,88.2,195,205,217.5,217.5,155,165,170,170,,225,240,-250,240,,627.5,90,M,Віталій Бондаренко,1996,No,Wraps,SBD
2,Eldar Efimenko,J,86,190,202.5,212.5,212.5,132.5,140,145,145,,215,225,230,230,,587.5,90,M,Ельдар Єфименко,1992,No,Wraps,SBD
1,Oleksii Melnyk,O,88.5,270,285,292.5,292.5,175,185,192.5,192.5,,285,300,305,305,,790,90,M,Олексій Мельник,1990,No,Wraps,SBD
2,Grigoriy Avakyan,O,90,230,250,260,260,150,160,-170,160,,250,270,280,280,,700,90,M,Григорій Авакян,1989,No,Wraps,SBD
1,Oleksandr Denisov,J,95.9,280,295,305,305,180,190,200,200,,-290,290,-322.5,290,,795,100,M,Олександр Денисов,1992,No,Wraps,SBD
2,Sergiy Safonov,J,93.5,170,185,195,195,130,-145,-145,130,,190,210,225,225,,550,100,M,Сергій Сафонов,1995,No,Wraps,SBD
1,Oleksandr Denisov,O,95.9,280,295,305,305,180,190,200,200,,-290,290,-322.5,290,,795,100,M,Олександр Денисов,1992,No,Wraps,SBD
2,Kirilo Gershtentsveyg,O,97,245,255,-260,255,162.5,170,172.5,172.5,,270,-290,-290,270,,697.5,100,M,Кирило Герштенцвейг,1990,No,Wraps,SBD
1,Viktor Rublyov,O,98.3,200,220,230,230,170,180,-185,180,,240,255,260,260,,670,100,M,Віктор Рубльов,1975,No,Wraps,SBD
1,Viktor Rublyov,M1,98.3,200,220,230,230,170,180,-185,180,,240,255,260,260,,670,100,M,Віктор Рубльов,1975,No,Wraps,SBD
1,Andriy Muravskiy,T3,104.2,200,-215,-220,200,140,155,-170,155,,210,-230,,210,,565,110,M,Андрій Муравський,1998,No,Wraps,SBD
1,Denis Nikitenko,J,106.4,-240,240,255,255,165,175,-180,175,,240,260,270,270,,700,110,M,Денис Никитенко,1992,No,Wraps,SBD
2,Oleksiy Tkachuk,J,110,185,205,215,215,125,135,-140,135,,220,240,-260,240,,590,110,M,Олексій Ткачук,1996,No,Wraps,SBD
1,Denis Nikitenko,O,106.4,-240,240,255,255,165,175,-180,175,,240,260,270,270,,700,110,M,Денис Никитенко,1992,No,Wraps,SBD
1,Andriy Bobylev,O,108,200,220,235,235,170,180,-185,180,,250,265,275,275,,690,110,M,Андрій Бобилєв,1976,No,Wraps,SBD
1,Stanislav Samusenko,J,110.8,120,160,-200,160,-100,120,-140,120,,150,200,-230,200,,480,125,M,Станіслав Самусенко,1994,No,Wraps,SBD
1,Roman Sirmanov,O,130.6,290,310,-325,310,180,190,200,200,,310,332.5,-340,332.5,,842.5,140,M,Роман Сірманов,1987,No,Wraps,SBD
1,Katerina Chorna,T3,55.3,95,-102.5,102.5,102.5,-65,65,-70,65,,90,97.5,112.5,112.5,,280,56,F,Катерина Чорна,1997,Yes,Multi-ply,SBD
1,Glib Leschenko,T3,74.9,-270,-280,280,280,150,160,-165,160,,210,-220,220,220,,660,75,M,Гліб Лещенко,1997,Yes,Multi-ply,SBD
1,Svetlana Dergaputskaya,O,66.1,130,140,-150,140,117.5,-122.5,122.5,122.5,,120,130,135,135,,397.5,67.5,F,Светлана Дергапутская,1978,No,Multi-ply,SBD
1,Kyrylo Ostapishin,O,88.1,330,350,365,365,210,217.5,225,225,,270,-280,280,280,,870,90,M,Кирило Остапішин,1985,No,Multi-ply,SBD
2,Pavlo Ischenko,O,90,310,320,-330,320,210,-220,-220,210,,280,300,-320,300,,830,90,M,Павло Іщенко,1991,No,Multi-ply,SBD
3,Dmytro Onatskiy,O,86.2,280,-300,-300,280,160,170,,170,,250,-260,260,260,,710,90,M,Дмитро Онацький,1980,No,Multi-ply,SBD
1,Dmytro Kharchenko,O,95.5,-350,360,375,375,232.5,240,247.5,247.5,,285,300,-310,300,,922.5,100,M,Дмитро Харченко,1991,No,Multi-ply,SBD
1,Yaroslav Apalkov,J,157.4,350,370,390,390,225,,,225,,320,350,-360,350,,965,140+,M,Ярослав Апальков,1993,No,Multi-ply,SBD
1,Olga Kotelnikova,T2,43,,,,,32.5,35,37.5,37.5,,,,,,,37.5,44,F,Ольга Котельникова,1999,Yes,Raw,B
1,Anastasiya Trofimenko,J,47.6,,,,,45,-50,-50,45,,,,,,,45,48,F,Анастасія Трофименко,1993,Yes,Raw,B
1,Tetyana Sharkova,T3,50,,,,,40,42.5,45,45,,,,,,,45,52,F,Тетяна Шаркова,1997,Yes,Raw,B
1,Olga Rumyantseva,O,49.9,,,,,55,60,-62.5,60,,,,,,,60,52,F,Ольга Румянцева,1985,Yes,Raw,B
1,Anastasiya Zhovnir,J,55,,,,,40,45,-50,45,,,,,,,45,56,F,Анастасія Жовнір,1995,Yes,Raw,B
1,Alla Fedorova,O,56,,,,,57.5,62.5,65,65,,,,,,,65,56,F,Алла Федорова,1989,Yes,Raw,B
2,Tetyana Muzichenko,O,55.9,,,,,55,60,62.5,62.5,,,,,,,62.5,56,F,Тетяна Музиченко,1988,Yes,Raw,B
1,Renata Bambatgireeva,T1,60,,,,,55,60,-65,60,,,,,,,60,60,F,Рената Бамбатгіреєва,2001,Yes,Raw,B
1,Anna Konovalova,J,58.4,,,,,25,32.5,40,40,,,,,,,40,60,F,Анна Коновалова,1995,Yes,Raw,B
1,Mariya Prokopova,O,60,,,,,60,65,67.5,67.5,,,,,,,67.5,60,F,Марія Прокопова,1984,Yes,Raw,B
2,Viktoriya Fedorova,O,59.3,,,,,57.5,60,62.5,62.5,,,,,,,62.5,60,F,Вікторія Федорова,1982,Yes,Raw,B
G,Olena Ryzhkova,O,59.8,,,,,55,57.5,-60,57.5,,,,,,,57.5,60,F,Олена Рижкова,1980,Yes,Raw,B
1,Yana Yonenko,T2,65.4,,,,,55,60,-65,60,,,,,,,60,67.5,F,Яна Йоненко,1999,Yes,Raw,B
1,Anna Kashperska,J,66.7,,,,,75,-80,-80,75,,,,,,,75,67.5,F,Анна Кашперська,1994,Yes,Raw,B
1,Natalya Mavdryk,O,66.7,,,,,80,85,87.5,87.5,,,,,,,87.5,67.5,F,Наталя Мавдрик,1984,Yes,Raw,B
2,Irina Koropets,O,67.3,,,,,67.5,70,72.5,72.5,,,,,,,72.5,67.5,F,Ірина Коропець,1981,Yes,Raw,B
3,Yevgeniya Cheprunenko,O,66.5,,,,,60,70,-75,70,,,,,,,70,67.5,F,Євгенія Чепруненко,1978,Yes,Raw,B
1,Elizaveta Esina,T2,74,,,,,60,65,70,70,,,,,,,70,75,F,Єлізавета Єсіна,1999,Yes,Raw,B
1,Anastasiya Volokhova,T3,73,,,,,70,75,-80,75,,,,,,,75,75,F,Анастасія Волохова,1996,Yes,Raw,B
1,Oleksandr Sitko,T2,56,,,,,65,70,72.5,72.5,,,,,,,72.5,56,M,Олександр Ситько,1999,Yes,Raw,B
1,Bogdan Pustovgar,T3,55,,,,,75,80,85,85,,,,,,,85,56,M,Богдан Пустовгар,1997,Yes,Raw,B
1,Volodymyr Tyutyushkin,T1,58.2,,,,,90,97.5,-100,97.5,,,,,,,97.5,60,M,Володимир Тютюшкін,2001,Yes,Raw,B
DQ,Dmytro Boronnikov,T1,59,,,,,-65,,,,,,,,,,,60,M,Дмитро Боронніков,2002,Yes,Raw,B
1,Yegor Kurochkin,T2,59.8,,,,,-75,75,80,80,,,,,,,80,60,M,Єгор Курочкін,1999,Yes,Raw,B
1,Yuriy Kupa,T3,58.6,,,,,70,75,80,80,,,,,,,80,60,M,Юрій Купа,1997,Yes,Raw,B
1,Viktor Rebinchak,J,58.2,,,,,95,100,-105,100,,,,,,,100,60,M,Віктор Ребінчак,1995,Yes,Raw,B
1,Maxym Kukovytskyy,T1,67.5,,,,,90,95,105,105,,,,,,,105,67.5,M,Максим Куковицький,2001,Yes,Raw,B
1,Taras Avramenko,T2,67.2,,,,,90,100,-110,100,,,,,,,100,67.5,M,Тарас Авраменко,2000,Yes,Raw,B
1,Bogdan Dobrodziy,T3,66,,,,,100,110,-115,110,,,,,,,110,67.5,M,Богдан Добродзий,1997,Yes,Raw,B
1,Yevgen Bokiy,O,67.2,,,,,125,132.5,138,138,,,,,,,138,67.5,M,Євген Бокій,1976,Yes,Raw,B
1,Yevgen Bokiy,M1,67.2,,,,,125,132.5,138,138,,,,,,,138,67.5,M,Євген Бокій,1976,Yes,Raw,B
1,Evgen Bobchenko,T2,74.5,,,,,90,100,105,105,,,,,,,105,75,M,Євген Бобченко,1999,Yes,Raw,B
2,Ivan Skladchikov,T2,72.5,,,,,70,75,80,80,,,,,,,80,75,M,Іван Складчіков,1999,Yes,Raw,B
1,Yevgen Tymko,T3,74,,,,,150,160,165,165,,,,,,,165,75,M,Євген Тимко,1996,Yes,Raw,B
2,Yaroslav Pushkar,T3,73.6,,,,,145,155,162.5,162.5,,,,,,,162.5,75,M,Ярослав Пушкарь,1997,Yes,Raw,B
3,Mykyta Tulupov,T3,74.6,,,,,95,100,102.5,102.5,,,,,,,102.5,75,M,Микита Тулупов,1996,Yes,Raw,B
1,Viktor Kalynovskyy,J,72,,,,,150,160,167.5,167.5,,,,,,,167.5,75,M,Віктор Калиновський,1995,Yes,Raw,B
2,Dmytro Nagornyak,J,74,,,,,130,137.5,-140,137.5,,,,,,,137.5,75,M,Дмитро Нагорняк,1996,Yes,Raw,B
3,Oleksandr Grygorenko,J,74.9,,,,,120,125,-132.5,125,,,,,,,125,75,M,Олександр Григоренко,1993,Yes,Raw,B
1,Oleksandr Volkov,O,74.9,,,,,150,160,165,165,,,,,,,165,75,M,Олександр Волков,1985,Yes,Raw,B
2,Vladyslav Prodan,O,73.5,,,,,140,147.5,152.5,152.5,,,,,,,152.5,75,M,Владислав Продан,1990,Yes,Raw,B
3,Artem Lala,O,73.3,,,,,125,137.5,,137.5,,,,,,,137.5,75,M,Артем Лала,1986,Yes,Raw,B
4,Yuriy Vasilenko,O,74.6,,,,,-127.5,127.5,-130,127.5,,,,,,,127.5,75,M,Юрій Василенко,1987,Yes,Raw,B
1,Igor Starchenko,T1,82.5,,,,,90,95,100,100,,,,,,,100,82.5,M,Ігор Старченко,2001,Yes,Raw,B
1,Artem Perzhanitsa,T2,78.9,,,,,105,110,115,115,,,,,,,115,82.5,M,Артем Пержаниця,1999,Yes,Raw,B
2,Oleksiy Kuznetsov,T2,81.5,,,,,100,110,115,115,,,,,,,115,82.5,M,Олексій Кузнецов,1999,Yes,Raw,B
3,Oleksandr Zabolotnyy,T2,78.6,,,,,95,100,105,105,,,,,,,105,82.5,M,Олександр Заболотний,1999,Yes,Raw,B
1,Kyrylo Kalinichenko,T3,81,,,,,105,110,-115,110,,,,,,,110,82.5,M,Кирило Калініченко,1997,Yes,Raw,B
1,Yaroslav Telker,O,82.5,,,,,150,162.5,167.5,167.5,,,,,,,167.5,82.5,M,Ярослав Телькер,1988,Yes,Raw,B
2,Vadim Marinich,O,79.6,,,,,155,160,165,165,,,,,,,165,82.5,M,Вадим Маринич,1981,Yes,Raw,B
3,Ivan Krivoshey,O,82.3,,,,,155,160,162.5,162.5,,,,,,,162.5,82.5,M,Іван Кривошей,1983,Yes,Raw,B
4,Evgeniy Boyko,O,81.8,,,,,150,155,160,160,,,,,,,160,82.5,M,Євгеній Бойко,1988,Yes,Raw,B
5,Oleg Viksich,O,82,,,,,135,140,-150,140,,,,,,,140,82.5,M,Олег Віксіч,1989,Yes,Raw,B
1,Mykola Popov,M5,81.2,,,,,90,95,-100,95,,,,,,,95,82.5,M,Микола Попов,1954,Yes,Raw,B
1,Danilo Lopatin,T3,89,,,,,150,-160,-160,150,,,,,,,150,90,M,Данило Лопатін,1997,Yes,Raw,B
2,Vladislav Dronyak,T3,89,,,,,110,120,-130,120,,,,,,,120,90,M,Владислав Дроняк,1997,Yes,Raw,B
1,Oleksandr Pashkovskiy,J,83.8,,,,,120,135,145,145,,,,,,,145,90,M,Олександр Пашковський,1994,Yes,Raw,B
1,Oleksandr Kovalenko,O,86.7,,,,,202.5,207.5,210,210,,,,,,,210,90,M,Олександр Коваленко,1991,Yes,Raw,B
2,Dmytro Shatokhin,O,86.4,,,,,152.5,160,-162.5,160,,,,,,,160,90,M,Дмитро Шатохін,1977,Yes,Raw,B
3,Andriy Yuris,O,89,,,,,150,160,-165,160,,,,,,,160,90,M,Андрій Юріс,1981,Yes,Raw,B
4,Oleksandr Dolzhenko,O,88.2,,,,,140,150,155,155,,,,,,,155,90,M,Олександр Долженко,1977,Yes,Raw,B
5,Oleksandr Gromov,O,87.8,,,,,140,150,-160,150,,,,,,,150,90,M,Олександр Громов,1980,Yes,Raw,B
6,Kostyantyn Simonov,O,86.7,,,,,135,-140,140,140,,,,,,,140,90,M,Костянтин Симонов,1989,Yes,Raw,B
1,Maksim Omelchenko,T3,99,,,,,140,152.5,160,160,,,,,,,160,100,M,Максим Омельченко,1996,Yes,Raw,B
1,Dmytro Bozhenko,J,94.4,,,,,145,152.5,-167.5,152.5,,,,,,,152.5,100,M,Дмитро Боженко,1992,Yes,Raw,B
1,Oleksandr Reva,O,98.5,,,,,177.5,182.5,190,190,,,,,,,190,100,M,Олександр Рева,1982,Yes,Raw,B
2,Oleksiy Peregon,O,96.8,,,,,-170,175,180,180,,,,,,,180,100,M,Олексій Перегон,1979,Yes,Raw,B
3,Yuriy Ivonin,O,95.5,,,,,140,-152.5,152.5,152.5,,,,,,,152.5,100,M,Юрій Івонін,1976,Yes,Raw,B
4,Sergiy Syzko,O,96,,,,,145,-152.5,-152.5,145,,,,,,,145,100,M,Сергій Сизько,1982,Yes,Raw,B
1,Kostyantyn Ezyk,O,106.4,,,,,190,202.5,212.5,212.5,,,,,,,212.5,110,M,Костянтин Єзик,1991,Yes,Raw,B
2,Sergiy Lukyanov,O,108.4,,,,,200,207.5,212.5,212.5,215,,,,,,212.5,110,M,Сергій Лук'Янов,1960,Yes,Raw,B
3,Yevgen Godyna,O,110,,,,,180,200,-210,200,,,,,,,200,110,M,Євген Година,1987,Yes,Raw,B
4,Oleksandr Tertichniy,O,110,,,,,182.5,187.5,192.5,192.5,,,,,,,192.5,110,M,Олександр Тертичний,1968,Yes,Raw,B
1,Oleksandr Tertichniy,M2,110,,,,,182.5,187.5,192.5,192.5,,,,,,,192.5,110,M,Олександр Тертичний,1968,Yes,Raw,B
2,Anatoliy Tiroshko,M2,107.8,,,,,140,145,147.5,147.5,,,,,,,147.5,110,M,Анатолій Тирошко,1966,Yes,Raw,B
1,Sergiy Lukyanov,M4,108.4,,,,,200,207.5,212.5,212.5,215,,,,,,212.5,110,M,Сергій Лук'Янов,1960,Yes,Raw,B
1,Vladislav Shevchenko,T3,116.5,,,,,150,-160,160,160,,,,,,,160,125,M,Владислав Шевченко,1997,Yes,Raw,B
1,Gennadiy Larin,O,110.3,,,,,155,170,175,175,,,,,,,175,125,M,Геннадій Ларін,1973,Yes,Raw,B
2,Sergiy Shumskyy,O,114.2,,,,,155,165,170,170,,,,,,,170,125,M,Сергій Шумський,1985,Yes,Raw,B
1,Gennadiy Larin,M1,110.3,,,,,155,170,175,175,,,,,,,175,125,M,Геннадій Ларін,1973,Yes,Raw,B
1,Oleksandr Stryga,M2,115,,,,,180,192.5,202.5,202.5,,,,,,,202.5,125,M,Олександр Стрига,1967,Yes,Raw,B
2,Surupasha Bambatgireev,M2,113.6,,,,,175,182.5,185,185,,,,,,,185,125,M,Сурупаша Бамбатгіреєв,1966,Yes,Raw,B
1,Vadym Filippov,M1,136.3,,,,,145,150,155,155,,,,,,,155,140,M,Вадим Філіппов,1973,Yes,Raw,B
1,Vitaliya Tonisheva,O,46.8,,,,,35,37.5,40,40,,,,,,,40,48,F,Віталія Тонишева,1990,No,Raw,B
1,Yulia Shenkarenko,O,67.2,,,,,120,-130,-130,120,,,,,,,120,67.5,F,Юлія Шенкаренко,1986,No,Raw,B
1,Maxym Novichenko,J,40,,,,,110,120,125,125,127.5,,,,,,125,52,M,Максим Новиченко,1993,No,Raw,B
1,Maxym Novichenko,O,40,,,,,110,120,125,125,127.5,,,,,,125,52,M,Максим Новиченко,1993,No,Raw,B
1,Oleksandr Zhariy,O,62.6,,,,,117.5,122.5,127.5,127.5,,,,,,,127.5,67.5,M,Олександр Жарий,1972,No,Raw,B
1,Oleksandr Zhariy,M1,62.6,,,,,117.5,122.5,127.5,127.5,,,,,,,127.5,67.5,M,Олександр Жарий,1972,No,Raw,B
1,Ivan Nemkovich,T2,73,,,,,80,85,90,90,,,,,,,90,75,M,Іван Нємкович,1999,No,Raw,B
1,Evgen Ribalka,O,74.8,,,,,155,160,165,165,,,,,,,165,75,M,Євген Рибалка,1987,No,Raw,B
2,Anton Gaydaenko,O,75,,,,,147.5,157.5,162.5,162.5,,,,,,,162.5,75,M,Антон Гайдаєнко,1986,No,Raw,B
3,Andriy Kudryavtsev,O,72.1,,,,,145,152.5,160,160,,,,,,,160,75,M,Андрій Кудрявцев,1974,No,Raw,B
1,Andriy Kudryavtsev,M1,72.1,,,,,145,152.5,160,160,,,,,,,160,75,M,Андрій Кудрявцев,1974,No,Raw,B
1,Anton Pokhilevich,J,81.1,,,,,145,-155,-155,145,,,,,,,145,82.5,M,Антон Похилевич,1992,No,Raw,B
1,Yuriy Osadchenko,M3,82.2,,,,,165,170,-175,170,,,,,,,170,82.5,M,Юрій Осадченко,1961,No,Raw,B
1,Evgen Litvinenko,J,90,,,,,150,160,170,170,,,,,,,170,90,M,Євген Литвиненко,1992,No,Raw,B
1,Aleksandr Scherbakov,O,89.4,,,,,217.5,225,230,230,,,,,,,230,90,M,,1966,No,Raw,B
2,Artem Kots,O,86.8,,,,,165,170,172.5,172.5,,,,,,,172.5,90,M,Артем Коц,1987,No,Raw,B
3,Andriy Lesin,O,87.9,,,,,160,167.5,172.5,172.5,,,,,,,172.5,90,M,Андрій Лесін,1987,No,Raw,B
1,Aleksandr Scherbakov,M2,89.4,,,,,217.5,225,230,230,,,,,,,230,90,M,,1966,No,Raw,B
1,Vladislav Matyushenko,T3,98.5,,,,,-160,160,-165,160,,,,,,,160,100,M,Владислав Матюшенко,1996,No,Raw,B
1,Oleksandr Pysmenyuk,O,95.4,,,,,200,220,-225,220,,,,,,,220,100,M,Олександр Письменюк,1986,No,Raw,B
2,Anatoliy Bolotnyy,O,96.9,,,,,180,195,202.5,202.5,,,,,,,202.5,100,M,Анатолій Болотний,1977,No,Raw,B
3,Dmitro Fatiy,O,95.6,,,,,177.5,182.5,187.5,187.5,,,,,,,187.5,100,M,Дмитро Фатій,1986,No,Raw,B
1,Oleg Volkov,M1,97.1,,,,,175,185,195,195,,,,,,,195,100,M,Олег Волков,1973,No,Raw,B
1,Yan Letuchiy,T3,103.5,,,,,170,175,180,180,,,,,,,180,110,M,Ян Летучий,1996,No,Raw,B
DQ,Kostyantin Shmergalskiy,J,109.2,,,,,-190,-190,-190,,,,,,,,,110,M,Костянтин Шмергальський,1995,No,Raw,B
1,Vitaliy Stashenko,O,103.7,,,,,192.5,202.5,210,210,,,,,,,210,110,M,Віталій Сташенко,1978,No,Raw,B
2,Artem Medvedev,O,102.3,,,,,160,170,175,175,,,,,,,175,110,M,Артем Медведєв,1990,No,Raw,B
3,Egor Shenkarenko,O,105.5,,,,,170,-180,-180,170,,,,,,,170,110,M,Єгор Шенкаренко,1985,No,Raw,B
1,Oleksiy Syzonenko,O,115.8,,,,,230,235,-240,235,,,,,,,235,125,M,Олексій Сизоненко,1988,No,Raw,B
1,Oleg Gridyakin,M1,116.4,,,,,240,245,-250,245,,,,,,,245,125,M,Олег Гридякін,1974,No,Raw,B
2,Dmitro Chernish,M1,123.8,,,,,180,-190,-195,180,,,,,,,180,125,M,Дмитро Черниш,1976,No,Raw,B
1,Oleksandr Kostyrya,M3,111,,,,,170,175,180,180,,,,,,,180,125,M,Олександр Костиря,1963,No,Raw,B
1,Viktor Kochmar,O,141,,,,,190,200,,200,,,,,,,200,140+,M,Віктор Кочмар,1970,No,Raw,B
1,Viktor Kochmar,M2,141,,,,,190,200,,200,,,,,,,200,140+,M,Віктор Кочмар,1970,No,Raw,B
1,Oksana Prikhodko,O,54.8,,,,,95,105,115,115,,,,,,,115,56,F,Оксана Приходько,1991,Yes,Multi-ply,B
1,Vladislav Borovik,T3,74.1,,,,,100,110,115,115,,,,,,,115,75,M,Владислав Боровик,1998,Yes,Multi-ply,B
1,Dmytro Khimanich,T2,81.2,,,,,112.5,117.5,120,120,,,,,,,120,82.5,M,Дмитро Хіманич,1998,Yes,Multi-ply,B
1,Kyrylo Sharoyko,T3,90,,,,,195,207.5,220,220,,,,,,,220,90,M,Кирило Шаройко,1998,Yes,Multi-ply,B
1,Vladislav Gurtovenko,J,99.8,,,,,225,235,-240.5,235,,,,,,,235,100,M,Владислав Гуртовенко,1995,Yes,Multi-ply,B
1,Borys Kovbasyuk,M2,96.8,,,,,-215,215,235,235,,,,,,,235,100,M,Борис Ковбасюк,1966,Yes,Multi-ply,B
1,Sergiy Mozgovyy,O,106.3,,,,,210,220,230,230,,,,,,,230,110,M,Сергій Мозговий,1983,Yes,Multi-ply,B
1,Roman Pelykh,O,75,,,,,235,-245,252.5,252.5,,,,,,,252.5,75,M,Роман Пелих,1985,No,Multi-ply,B
1,Sergiy Naleykin,O,78,,,,,260,270,280,280,,,,,,,280,82.5,M,Сергій Налейкін,1981,No,Multi-ply,B
1,Rostislav Lepekha,J,87.1,,,,,190,-200,-200,190,,,,,,,190,90,M,Ростислав Лепеха,1993,No,Multi-ply,B
1,Dmitriy Lomeyko,O,89.3,,,,,265,275,-285,275,,,,,,,275,90,M,Дмитро Ломейко,1983,No,Multi-ply,B
2,Pavlo Ischenko,O,90,,,,,205,215,222.5,222.5,,,,,,,222.5,90,M,Павло Іщенко,1991,No,Multi-ply,B
DQ,Aleksandr Soborov,O,85.9,,,,,-240,-260,-285,,,,,,,,,90,M,,1984,No,Multi-ply,B
1,Volodymyr Pinchuk,T2,93.3,,,,,180,-190,190,190,,,,,,,190,100,M,Володимир Пінчук,1999,No,Multi-ply,B
1,Denys Kovalyov,O,94.5,,,,,225,235,242.5,242.5,,,,,,,242.5,100,M,Денис Ковальов,1978,No,Multi-ply,B
1,Yevgen Savchenko,O,108.9,,,,,340,350,357.5,357.5,,,,,,,357.5,110,M,Євген Савченко,1989,No,Multi-ply,B
2,Sergiy Ivanov,O,107.9,,,,,-330,330,-355,330,,,,,,,330,110,M,Сергій Іванов,1990,No,Multi-ply,B
1,Andriy Lomnitskiy,O,120,,,,,285,-300,-300,285,,,,,,,285,125,M,Андрій Ломницький,1980,No,Multi-ply,B
2,Andriy Petrushko,O,117.5,,,,,210,-220,220,220,,,,,,,220,125,M,Андрій Петрушко,1984,No,Multi-ply,B
1,Oleksandr Blagovidov,M2,124.4,,,,,250,260,-270,260,,,,,,,260,125,M,Олександр Благовидов,1971,No,Multi-ply,B
1,Vitaliy Chorniy,O,135,,,,,300,315,-330,315,,,,,,,315,140,M,Віталій Чорний,1984,No,Multi-ply,B
1,Dmytro Sharoyko,O,141.8,,,,,335,345,350,350,,,,,,,350,140+,M,Дмитро Шаройко,1972,No,Multi-ply,B
1,Dmytro Sharoyko,M1,141.8,,,,,335,345,350,350,,,,,,,350,140+,M,Дмитро Шаройко,1972,No,Multi-ply,B
1,Taisiya Ruban,O,48,,,,,,,,,,100,105,110,110,,110,48,F,Таїсія Рубан,1988,Yes,Raw,D
2,Viktoriya Demura,O,48,,,,,,,,,,95,-107.5,107.5,107.5,,107.5,48,F,Вікторія Демура,1985,Yes,Raw,D
1,Yuliya Sotnikova,O,51.6,,,,,,,,,,130,140,-150,140,,140,52,F,Юлія Сотнікова,1991,Yes,Raw,D
2,Yevgeniya Rubanova,O,52,,,,,,,,,,90,100,105,105,,105,52,F,Євгенія Рубанова,1990,Yes,Raw,D
DQ,Olga Rumyantseva,O,49.9,,,,,,,,,,-100,-100,,,,,52,F,Ольга Румянцева,1985,Yes,Raw,D
1,Anastasiya Savchin,T3,56,,,,,,,,,,90,97.5,105,105,-106,105,56,F,Анастасія Савчин,1996,Yes,Raw,D
DQ,Anastasiya Zhovnir,J,55,,,,,,,,,,-82.5,-82.5,-82.5,,,,56,F,Анастасія Жовнір,1995,Yes,Raw,D
1,Alla Ryazanova,O,54,,,,,,,,,,105,122.5,-127.5,122.5,,122.5,56,F,Алла Рязанова,1979,Yes,Raw,D
2,Yuliya Levankova,O,54.3,,,,,,,,,,110,122.5,-125,122.5,,122.5,56,F,Юлія Леванькова,1988,Yes,Raw,D
1,Mariya Kravchenko,J,59,,,,,,,,,,125,130,135,135,,135,60,F,Марія Кравченко,1994,Yes,Raw,D
1,Anastasiya Ryzhikh,O,58.9,,,,,,,,,,122.5,135,140,140,,140,60,F,Анастасія Рижих,1989,Yes,Raw,D
2,Natalya Kravchenko,O,59.4,,,,,,,,,,120,125,127.5,127.5,,127.5,60,F,Наталья Кравченко,1977,Yes,Raw,D
1,Yana Yonenko,T2,65.4,,,,,,,,,,115,125,135,135,,135,67.5,F,Яна Йоненко,1999,Yes,Raw,D
1,Mariya Godis,T3,66.4,,,,,,,,,,90,100,105,105,,105,67.5,F,Марія Годись,1996,Yes,Raw,D
1,Anna Kashperska,J,66.7,,,,,,,,,,125,135,-145,135,,135,67.5,F,Анна Кашперська,1994,Yes,Raw,D
1,Elizaveta Esina,T2,74,,,,,,,,,,105,115,125,125,,125,75,F,Єлізавета Єсіна,1999,Yes,Raw,D
1,Bogdan Pustovgar,T3,55,,,,,,,,,,125,132.5,-142.5,132.5,,132.5,56,M,Богдан Пустовгар,1997,Yes,Raw,D
1,Mikhaylo Kashubin,O,60,,,,,,,,,,180,,,180,,180,60,M,Михайло Кашубін,1986,Yes,Raw,D
DQ,Maksim Guryanov,T1,66,,,,,,,,,,-160,-160,-160,,,,67.5,M,Максим Гурьянов,2000,Yes,Raw,D
1,Sergiy Lebedev,J,66,,,,,,,,,,170,190,-215,190,,190,67.5,M,Сергій Лебедєв,1993,Yes,Raw,D
1,Yevgen Bokiy,O,67.2,,,,,,,,,,185,200,-205,200,,200,67.5,M,Євген Бокій,1976,Yes,Raw,D
1,Yevgen Bokiy,M1,67.2,,,,,,,,,,185,200,-205,200,,200,67.5,M,Євген Бокій,1976,Yes,Raw,D
1,Ivan Skladchikov,T2,72.7,,,,,,,,,,120,130,135,135,,135,75,M,Іван Складчіков,1999,Yes,Raw,D
1,Yevgeniy Kalko,J,74.7,,,,,,,,,,-235,235,240,240,,240,75,M,Євгеній Калько,1993,Yes,Raw,D
2,Denys Martynyuk,J,71.6,,,,,,,,,,170,185,-195,185,,185,75,M,Денис Мартинюк,1995,Yes,Raw,D
3,Oleg Ilїn,J,74.4,,,,,,,,,,50,60,75,75,,75,75,M,Олег Ильин,1993,Yes,Raw,D
1,Yevgeniy Kalko,O,74.7,,,,,,,,,,-235,235,240,240,,240,75,M,Євгеній Калько,1993,Yes,Raw,D
2,Vyacheslav Mironenko,O,74,,,,,,,,,,192.5,202.5,215,215,,215,75,M,Вячеслав Мироненко,1990,Yes,Raw,D
3,Maksim Ivanov,O,74,,,,,,,,,,180,190,-202.5,190,,190,75,M,Максим Иванов,1984,Yes,Raw,D
4,Evgeniy Tanunin,O,74.8,,,,,,,,,,190,-202.5,-202.5,190,,190,75,M,Евгений Танунин,1990,Yes,Raw,D
5,Konstantin Kovalenko,O,73.2,,,,,,,,,,177.5,-190,-190,177.5,,177.5,75,M,Константин Коваленко,1990,Yes,Raw,D
1,Artem Perzhanitsa,T2,78.9,,,,,,,,,,150,170,-185,170,,170,82.5,M,Артем Пержаниця,1999,Yes,Raw,D
1,Aleksandr Pashkovets,T3,79,,,,,,,,,,207.5,215,217.5,217.5,,217.5,82.5,M,Александр Пашковец,1997,Yes,Raw,D
2,Kyrylo Kalinichenko,T3,81.9,,,,,,,,,,180,-200,200,200,,200,82.5,M,Кирило Калініченко,1997,Yes,Raw,D
1,Sergiy Potapov,J,82.2,,,,,,,,,,210,230,245,245,,245,82.5,M,Сергій Потапов,1996,Yes,Raw,D
1,Sergiy Mazur,O,80.9,,,,,,,,,,200,215,225,225,,225,82.5,M,Сергій Мазур,1981,Yes,Raw,D
2,Oleksandr Yatsenko,O,81.5,,,,,,,,,,205,215,225,225,,225,82.5,M,Олександр Яценко,1981,Yes,Raw,D
3,Dmitro Kuksov,O,80.9,,,,,,,,,,185,-200,-200,185,,185,82.5,M,Дмитро Куксов,1990,Yes,Raw,D
1,Valeriy Melnichenko,T2,88.8,,,,,,,,,,185,195,205,205,,205,90,M,Валерий Мельниченко,1998,Yes,Raw,D
2,Bogdan Byalobrzheskiy,T2,89.4,,,,,,,,,,180,200,,200,,200,90,M,Богдан Бялобржеський,1998,Yes,Raw,D
1,Boris Ternovoy,T3,88.8,,,,,,,,,,185,195,-205,195,,195,90,M,Борис Терновой,1997,Yes,Raw,D
1,Vladislav Osipchuk,J,87.7,,,,,,,,,,195,202.5,207.5,207.5,,207.5,90,M,Владислав Осипчук,1994,Yes,Raw,D
1,Oleg Banasyuk,O,88.2,,,,,,,,,,195,222.5,,222.5,,222.5,90,M,Олег Банасюк,1986,Yes,Raw,D
2,Pavlo Padalka,O,85.7,,,,,,,,,,200,-222.5,-222.5,200,,200,90,M,Павло Падалка,1987,Yes,Raw,D
1,Stanislav Afanasev,M1,85,,,,,,,,,,165,-175,-175,165,,165,90,M,Станіслав Афанасьєв,1972,Yes,Raw,D
1,Aleksandr Muzyka,T1,93.9,,,,,,,,,,210,225,232.5,232.5,,232.5,100,M,Александр Музыка,2001,Yes,Raw,D
1,Nikolay Scherbak,J,96.5,,,,,,,,,,250,267.5,-270,267.5,,267.5,100,M,Николай Щербак,1993,Yes,Raw,D
1,Nikolay Scherbak,O,96.5,,,,,,,,,,250,267.5,-270,267.5,,267.5,100,M,Николай Щербак,1993,Yes,Raw,D
2,Pavlo Slichenko,O,95.5,,,,,,,,,,230,240,250,250,,250,100,M,Павло Сліченко,1982,Yes,Raw,D
3,Volodymyr Ogloblin,O,100,,,,,,,,,,250,-260,-260,250,,250,100,M,Володимир Оглоблін,1965,Yes,Raw,D
DQ,Eduard Marchenko,O,91.5,,,,,,,,,,-280,-280,-280,,,,100,M,Эдуард Марченко,1992,Yes,Raw,D
1,Volodymyr Ogloblin,M3,100,,,,,,,,,,250,-260,-260,250,,250,100,M,Володимир Оглоблін,1965,Yes,Raw,D
1,Dmitro Sagaydak,T3,110,,,,,,,,,,240,260,275,275,,275,110,M,Дмитро Сагайдак,1997,Yes,Raw,D
1,Vladislav Shevchenko,T3,116.5,,,,,,,,,,240,260,270,270,,270,125,M,Владислав Шевченко,1997,Yes,Raw,D
1,Sergiy Zhabitenko,M4,116.8,,,,,,,,,,-200,200,-247.5,200,,200,125,M,Сергій Жабітенко,1959,Yes,Raw,D
1,Vitaliya Tonisheva,O,46.8,,,,,,,,,,-85,85,-100,85,,85,48,F,Віталія Тонишева,1990,No,Raw,D
1,Olga Yarmolyuk,O,55.8,,,,,,,,,,110,120,-130,120,,120,56,F,Ольга Ярмолюк,1989,No,Raw,D
1,Mykola Bilozerov,O,70.9,,,,,,,,,,227.5,-242.5,-242.5,227.5,,227.5,75,M,Николай Белозеров,1982,No,Raw,D
1,Yevgen Konovalov,O,79.7,,,,,,,,,,210,220,-225,220,,220,82.5,M,Євген Коновалов,1987,No,Raw,D
2,Borys Novoselov,O,78,,,,,,,,,,207.5,217.5,,217.5,,217.5,82.5,M,Борис Новосьолов,1992,No,Raw,D
1,Evgen Litvinenko,J,90,,,,,,,,,,250,265,-272.5,265,,265,90,M,Євген Литвиненко,1992,No,Raw,D
2,Eldar Efimenko,J,86,,,,,,,,,,215,225,230,230,,230,90,M,Ельдар Єфименко,1992,No,Raw,D
1,Oleksii Melnyk,O,88.5,,,,,,,,,,285,300,305,305,,305,90,M,Олексій Мельник,1990,No,Raw,D
2,Yaroslav Litvinenko,O,89.9,,,,,,,,,,-275,275,-285,275,,275,90,M,Ярослав Литвиненко,1976,No,Raw,D
3,Dmytro Vorobey,O,86,,,,,,,,,,240,260,-280,260,,260,90,M,Дмитро Воробей,1988,No,Raw,D
1,Artemiy Papin,J,92.9,,,,,,,,,,270,291,-295,291,,291,100,M,Артемій Папін,1994,No,Raw,D
1,Artemiy Papin,O,92.9,,,,,,,,,,270,291,-295,291,,291,100,M,Артемій Папін,1994,No,Raw,D
2,Kirilo Gershtentsveyg,O,97,,,,,,,,,,270,-290,-290,270,,270,100,M,Кирило Герштенцвейг,1990,No,Raw,D
3,Viktor Rublyov,O,98.3,,,,,,,,,,240,255,-260,255,,255,100,M,Віктор Рубльов,1975,No,Raw,D
1,Viktor Rublyov,M1,98.3,,,,,,,,,,240,255,-260,255,,255,100,M,Віктор Рубльов,1975,No,Raw,D
1,Kostyantin Shmergalskiy,J,109.2,,,,,,,,,,285,-295,-295,285,,285,110,M,Костянтин Шмергальський,1995,No,Raw,D
1,Ruslan Vinnyk,O,107.4,,,,,,,,,,270,290,-295,290,,290,110,M,Руслан Вінник,1980,No,Raw,D
2,Glib Zalogin,O,110,,,,,,,,,,270,-285,-285,270,,270,110,M,Гліб Залогін,1981,No,Raw,D
1,Vitaliy Alekseev,O,115,,,,,,,,,,350,-370,-370,350,,350,125,M,Віталій Алексеєв,1988,No,Raw,D
2,Konstantin Platonov,O,118,,,,,,,,,,300,310,-320,310,,310,125,M,Константин Платонов,1989,No,Raw,D
3,Andriy Goncharuk,O,120.6,,,,,,,,,,310,-320,,310,,310,125,M,Андрій Гончарук,1988,No,Raw,D
1,Roman Sirmanov,O,130.6,,,,,,,,,,310,332.5,-340,332.5,,332.5,140,M,Роман Сірманов,1987,No,Raw,D
1,Pavlo Ischenko,O,90,,,,,,,,,,280,300,-320,300,,300,90,M,Павло Іщенко,1991,No,Multi-ply,D
1,Yuriy Malygin,M2,102.3,,,,,,,,,,120,150,180,180,,180,110,M,Юрій Малигін,1967,No,Multi-ply,D
