Place,Name,Sex,Event,Division,WeightClassKg,Equipment,BirthYear,State,BodyweightKg,Squat1Kg,Squat2Kg,Squat3Kg,Best3SquatKg,Bench1Kg,Bench2Kg,Bench3Kg,Best3BenchKg,Deadlift1Kg,Deadlift2Kg,Deadlift3Kg,Best3DeadliftKg,TotalKg
1,Kylie Redman,F,B,R-O,72,Raw,1998,OH,72.00,,,,,87.5,92.5,95,95.0,,,,,95
1,Kylie Redman,F,B,R-T3,72,Raw,1998,OH,72.00,,,,,87.5,92.5,95,95.0,,,,,95
1,Jay Helms,M,B,M2a,59,Single-ply,1964,OH,58.30,,,,,-122.5,125,-137.5,125.0,,,,,125
1,Jason Ross,M,B,R-M1b,93,Raw,1969,OH,88.00,,,,,150,157.5,-165,157.5,,,,,157.5
1,Jessica Gazaille,F,SBD,R-JR,52,Raw,1995,OH,50.40,97.5,105,110,110.0,52.5,57.5,-60,57.5,127.5,137.5,145,145.0,312.5
1,Courtney Douglas,F,SBD,R-JR,72,Raw,1996,OH,70.90,135,145,147.5,147.5,62.5,67.5,-72.5,67.5,142.5,145,147.5,147.5,362.5
2,Aubrey Lyons,F,SBD,R-JR,72,Raw,1996,OH,63.80,100,110,122.5,122.5,55,60,-62.5,60.0,142.5,155,165,165.0,347.5
1,Alexis Shaffer,F,SBD,R-JR,84+,Raw,1994,OH,92.50,142.5,152.5,155,155.0,72.5,75,-82.5,75.0,165,-175,-175,165.0,395
1,Robin Shell,F,SBD,R-M1b,63,Raw,1971,OH,62.00,87.5,92.5,95,95.0,62.5,65,67.5,67.5,140,150,152.5,152.5,315
1,Robin Gay,F,SBD,R-M1b,72,Raw,1969,OH,69.90,120,125,-127.5,125.0,72.5,-75,-75,72.5,-120,120,-125,120.0,317.5
1,Marla Dean,F,SBD,R-M1b,84,Raw,1969,OH,81.40,92.5,95,97.5,97.5,52.5,55,57.5,57.5,120,125,130,130.0,285
1,Heather Gallagher,F,SBD,R-M2a,84+,Raw,1968,OH,88.10,-95,95,100,100.0,-60,62.5,67.5,67.5,125,130,137.5,137.5,305
1,Natalie Freed,F,SBD,R-O,47,Raw,1985,OH,45.70,85,90,95,95.0,62.5,65,67.5,67.5,125,132.5,137.5,137.5,300
1,Julie Fishman,F,SBD,R-O,52,Raw,1989,OH,50.50,107.5,112.5,-115,112.5,55,57.5,-60,57.5,137.5,142.5,145,145.0,315
1,Katrina Parsons,F,SBD,R-O,63,Raw,1979,OH,61.50,105,110,-112.5,110.0,62.5,65,67.5,67.5,145,147.5,155,155.0,332.5
2,Robin Shell,F,SBD,R-O,63,Raw,1971,OH,62.00,87.5,92.5,95,95.0,62.5,65,67.5,67.5,140,150,152.5,152.5,315
3,Nora Rege,F,SBD,R-O,63,Raw,1990,OH,62.70,117.5,122.5,-127.5,122.5,52.5,55,57.5,57.5,125,-147.5,-147.5,125.0,305
4,Ashley Crawford,F,SBD,R-O,63,Raw,1979,OH,60.60,77.5,82.5,87.5,87.5,47.5,50,-52.5,50.0,115,120,125,125.0,262.5
5,Gabrielle Lopez,F,SBD,R-O,63,Raw,1990,OH,59.10,92.5,-102.5,-102.5,92.5,47.5,55,-60,55.0,95,102.5,112.5,112.5,260
1,Courtney Douglas,F,SBD,R-O,72,Raw,1996,OH,70.90,135,145,147.5,147.5,62.5,67.5,-72.5,67.5,142.5,145,147.5,147.5,362.5
2,Veronica Chasser,F,SBD,R-O,72,Raw,1988,OH,70.20,115,132.5,-137.5,132.5,57.5,65,-72.5,65.0,130,142.5,152.5,152.5,350
3,Aubrey Lyons,F,SBD,R-O,72,Raw,1996,OH,63.80,100,110,122.5,122.5,55,60,-62.5,60.0,142.5,155,165,165.0,347.5
4,Robin Gay,F,SBD,R-O,72,Raw,1969,OH,69.90,120,125,-127.5,125.0,72.5,-75,-75,72.5,-120,120,-125,120.0,317.5
1,Kim Price,F,SBD,R-O,84,Raw,1983,OH,83.10,170,177.5,185,185.0,82.5,-85,85,85.0,182.5,192.5,200,200.0,470
2,Afua Adjei-Brenyah,F,SBD,R-O,84,Raw,1993,OH,78.60,-137.5,-137.5,137.5,137.5,95,100,-107.5,100.0,190,-200,-200,190.0,427.5
1,Alexis Shaffer,F,SBD,R-O,84+,Raw,1994,OH,92.50,142.5,152.5,155,155.0,72.5,75,-82.5,75.0,165,-175,-175,165.0,395
2,Jillian Phillips,F,SBD,R-O,84+,Raw,1989,OH,98.90,135,147.5,152.5,152.5,70,75,-82.5,75.0,160,-175,-175,160.0,387.5
3,Katrice Williams,F,SBD,R-O,84+,Raw,1987,OH,85.50,110,-112.5,-135,110.0,60,62.5,-67.5,62.5,130,140,-155,140.0,312.5
DQ,Amanda Doll,F,SBD,R-O,84+,Raw,1982,OH,117.50,157.5,162.5,167.5,167.5,-92.5,-92.5,-92.5,,152.5,155,157.5,157.5,
1,Gianna Williams,F,SBD,R-T2,57,Raw,2000,OH,55.50,50,55,57.5,57.5,32.5,35,-40,35.0,97.5,105,115,115.0,207.5
DQ,Markus Vest,M,SBD,R-JR,66,Raw,1996,OH,64.55,165,182.5,-187.5,182.5,-110,-117.5,-117.5,,200,212.5,217.5,217.5,
1,Bradley Rogers,M,SBD,R-JR,74,Raw,1995,OH,73.75,172.5,182.5,192.5,192.5,127.5,135,142.5,142.5,192.5,202.5,-210,202.5,537.5
2,Nick Sia,M,SBD,R-JR,74,Raw,1997,OH,73.10,155,160,-167.5,160.0,100,-105,-105,100.0,185,192.5,-197.5,192.5,452.5
1,Graham Coghlan,M,SBD,R-JR,83,Raw,1994,OH,82.20,227.5,242.5,-250,242.5,130,-140,-140,130.0,245,265,-272.5,265.0,637.5
2,Colt Bush,M,SBD,R-JR,83,Raw,1997,OH,80.75,100,115,125,125.0,75,80,85,85.0,165,182.5,-192.5,182.5,392.5
1,Parker Buhrman,M,SBD,R-JR,93,Raw,1995,OH,91.30,225,240,,240.0,147.5,155,-162.5,155.0,255,267.5,275,275.0,670
2,Joseph Ludewig,M,SBD,R-JR,93,Raw,1997,OH,89.20,180,187.5,195,195.0,115,120,-125,120.0,227.5,240,-247.5,240.0,555
1,Kenneth Boykin,M,SBD,R-JR,120,Raw,1994,OH,118.70,257.5,275,287.5,287.5,152.5,165,175,175.0,237.5,-247.5,252.5,252.5,715
1,Alan Parsons,M,SBD,R-M1a,105,Raw,1974,OH,101.60,135,140,147.5,147.5,130,137.5,142.5,142.5,165,175,185,185.0,475
1,Samuel Sullivan,M,SBD,R-M1a,120+,Raw,1975,OH,143.00,240,270,275,275.0,192.5,200,215,215.0,265,272.5,282.5,282.5,772.5
1,Ken Bray,M,SBD,R-M1b,83,Raw,1969,OH,78.25,195,197.5,207.5,207.5,125,130,-132.5,130.0,237.5,265,-275,265.0,602.5
1,Bob Eucker,M,SBD,R-M1b,105,Raw,1973,OH,103.20,-242.5,250,-255,250.0,155,165,-175,165.0,280,290,-300,290.0,705
1,James Ross,M,SBD,R-M2a,83,Raw,1967,OH,79.10,145,155,160,160.0,122.5,-130,-130,122.5,192.5,202.5,210,210.0,492.5
1,Mike Jarrett,M,SBD,R-M2a,93,Raw,1965,OH,92.70,227.5,250,262.5,262.5,115,120,-127.5,120.0,250,-265,,250.0,632.5
2,Craig Miladin,M,SBD,R-M2a,93,Raw,1967,OH,92.10,155,165,170,170.0,115,120,125,125.0,195,205,-210,205.0,500
DQ,Thomas Mazzotta,M,SBD,R-M2a,93,Raw,1967,OH,87.80,-165,-182.5,-197.5,,85,92.5,97.5,97.5,165,182.5,197.5,197.5,
DD,Victor Fazio,M,SBD,R-M2a,105,Raw,1965,OH,101.90,250,262.5,-270,262.5,125,135,-142.5,135.0,227.5,235,252.5,252.5,
1,Mark Wynn,M,SBD,R-M2a,105,Raw,1966,OH,99.30,157.5,182.5,207.5,207.5,122.5,137.5,-140,137.5,217.5,230,240,240.0,585
1,Bradford Olson,M,SBD,R-M2b,66,Raw,1962,OH,65.50,135,155,-165,155.0,110,-120,-120,110.0,180,-200,-200,180.0,445
1,Bruce Steingass,M,SBD,R-M3a,83,Raw,1957,OH,79.25,105,112.5,117.5,117.5,130,-132.5,-132.5,130.0,142.5,152.5,160,160.0,407.5
DQ,Dennis Reynolds,M,SBD,R-M3a,93,Raw,1956,OH,89.60,-107.5,-115,-115,,57.5,-65,65,65.0,107.5,115,122.5,122.5,
1,Christopher Destephen,M,SBD,R-O,74,Raw,1986,OH,72.05,220,227.5,230,230.0,125,-130,-130,125.0,252.5,-257.5,-257.5,252.5,607.5
2,Devin Gordon,M,SBD,R-O,74,Raw,1992,OH,71.55,185,195,205,205.0,115,122.5,127.5,127.5,220,232.5,242.5,242.5,575
3,Celso Dela Cruz,M,SBD,R-O,74,Raw,1987,OH,73.80,145,155,162.5,162.5,100,110,112.5,112.5,172.5,185,190,190.0,465
1,Jeff Hanselman,M,SBD,R-O,83,Raw,1989,OH,82.60,240,250,-257.5,250.0,150,-155,,150.0,290,300,-302.5,300.0,700
2,Joshua Koy,M,SBD,R-O,83,Raw,1986,OH,82.95,220,230,235,235.0,167.5,175,180,180.0,240,260,-267.5,260.0,675
3,Frank Desico,M,SBD,R-O,83,Raw,1990,OH,81.50,250,-255,-255,250.0,155,162.5,-167.5,162.5,210,220,235,235.0,647.5
4,Christopher Koy,M,SBD,R-O,83,Raw,1989,OH,82.80,207.5,220,227.5,227.5,125,135,137.5,137.5,240,257.5,-262.5,257.5,622.5
5,Christian Bartolomei,M,SBD,R-O,83,Raw,1986,OH,80.40,200,-205,205,205.0,135,-142.5,-142.5,135.0,230,240,-245,240.0,580
6,Thomas Dunkin,M,SBD,R-O,83,Raw,1993,OH,80.15,177.5,-185,-190,177.5,-122.5,122.5,-130,122.5,220,230,-237.5,230.0,530
DQ,Jay Dove,M,SBD,R-O,83,Raw,1994,OH,82.75,-255,-255,-255,,-152.5,,,,,,,,
1,Jamaar Pullie,M,SBD,R-O,93,Raw,1987,OH,91.90,227.5,237.5,245,245.0,-147.5,155,-157.5,155.0,242.5,257.5,-265,257.5,657.5
1,Brandon Gerber,M,SBD,R-O,105,Raw,1993,OH,104.70,232.5,245,255,255.0,152.5,160,167.5,167.5,260,280,-282.5,280.0,702.5
2,Dane Hammer,M,SBD,R-O,105,Raw,1994,OH,104.50,245,260,272.5,272.5,160,170,-180,170.0,237.5,250,-262.5,250.0,692.5
DD,Victor Fazio,M,SBD,R-O,105,Raw,1965,OH,101.90,250,262.5,-270,262.5,125,135,-142.5,135.0,227.5,235,252.5,252.5,
3,Brody Williams,M,SBD,R-O,105,Raw,1982,OH,102.80,190,205,215,215.0,130,137.5,-142.5,137.5,235,250,262.5,262.5,615
4,Terrance Dowhan,M,SBD,R-O,105,Raw,1993,OH,99.70,195,-212.5,-212.5,195.0,-115,120,125,125.0,222.5,250,-267.5,250.0,570
DQ,Logan Johnson,M,SBD,R-O,105,Raw,1994,OH,96.65,195,-205,205,205.0,-117.5,-117.5,,,207.5,212.5,-217.5,212.5,
1,C Iliff,M,SBD,R-O,120,Raw,1990,OH,119.50,290,305,320,320.0,190,200,205,205.0,295,310,-322.5,310.0,835
2,Tyler Cook,M,SBD,R-O,120,Raw,1991,OH,117.40,300,-310,310,310.0,185,-190,190,190.0,300,310,-335,310.0,810
3,Steven Kearney,M,SBD,R-O,120,Raw,1994,OH,119.60,257.5,267.5,-277.5,267.5,187.5,195,202.5,202.5,262.5,-272.5,-272.5,262.5,732.5
4,Kenneth Boykin,M,SBD,R-O,120,Raw,1994,OH,118.70,257.5,275,287.5,287.5,152.5,165,175,175.0,237.5,-247.5,252.5,252.5,715
5,William Greeley,M,SBD,R-O,120,Raw,1988,OH,119.00,-202.5,220,-227.5,220.0,147.5,155,-157.5,155.0,282.5,295,300,300.0,675
6,Vincent Cifani,M,SBD,R-O,120,Raw,1984,OH,110.70,222.5,237.5,247.5,247.5,135,145,-147.5,145.0,237.5,255,-262.5,255.0,647.5
7,Ben Parks,M,SBD,R-O,120,Raw,1982,OH,119.30,227.5,245,252.5,252.5,125,137.5,140,140.0,227.5,250,-255,250.0,642.5
8,Tim Sheak,M,SBD,R-O,120,Raw,1989,OH,116.20,215,230,,230.0,135,145,-155,145.0,250,265,-275,265.0,640
1,Nolan Bishop,M,SBD,R-T2,83,Raw,2000,OH,78.65,200,-215,-215,200.0,130,-140,-140,130.0,240,-255,-255,240.0,570
1,Logan Auerbach,M,SBD,R-Y2,48,Raw,2007,OH,45.70,42.5,47.5,52.5,52.5,37.5,40,42.5,42.5,75,85,-92.5,85.0,180
1,Marla Dean,F,BD,R-M1b,84,Raw,1969,OH,81.40,,,,,52.5,55,57.5,57.5,120,125,130,130.0,187.5
1,Kylie Redman,F,BD,R-O,72,Raw,1998,OH,72.00,,,,,87.5,92.5,95,95.0,125,127.5,,127.5,222.5
1,Kylie Redman,F,BD,R-T3,72,Raw,1998,OH,72.00,,,,,87.5,92.5,95,95.0,125,127.5,,127.5,222.5
1,LeJesus Posey,M,BD,R-M1a,93,Raw,1977,OH,83.30,,,,,137.5,140,142.5,142.5,160,180,192.5,192.5,335
DQ,Michael Campbell,M,BD,R-M2b,105,Raw,1960,OH,103.10,,,,,170,-182.5,-182.5,170.0,-205,-205,,,
