Division,WeightClassKg,Place,Name,Team,BodyweightKg,Best3SquatKg,Best3BenchKg,Best3DeadliftKg,TotalKg,Equipment,Event,Sex
Boys,52,1,Adrian Flores,San Antonio Holy Cross,50.85,138.35,63.5,154.22,356.07,Single-ply,SBD,M
Boys,52,2,Ricky Moreno,San Antonio Holy Cross,51.39,61.23,38.56,120.2,219.99,Single-ply,SBD,M
Boys,56,1,Raul Narvaez,Floresville,55.79,156.49,86.18,156.49,399.16,Single-ply,SBD,M
Boys,56,2,Joey Garcia,Marion,55.79,138.35,74.84,170.1,383.29,Single-ply,SBD,M
Boys,60,1,Manny Padilla,Natalia,59.42,192.78,88.45,170.1,451.32,Single-ply,SBD,M
Boys,60,2,Matthew Gauthier,Marion,59.33,147.42,97.52,197.31,442.25,Single-ply,SBD,M
Boys,60,3,Roman Ornelaz,San Antonio Holy Cross,59.56,158.76,81.65,185.97,426.38,Single-ply,SBD,M
Boys,60,4,Sebastian Flores,Blanco,58.88,154.22,99.79,167.83,421.84,Single-ply,SBD,M
Boys,60,5,Ryan Juarez,Natalia,59.38,127.01,77.11,154.22,358.34,Single-ply,SBD,M
Boys,60,6,Saul Valadez,Natalia,56.7,122.47,58.97,129.27,310.71,Single-ply,SBD,M
Boys,60,7,Vincent Villanueva,Floresville,56.65,111.13,61.23,131.54,303.91,Single-ply,SBD,M
Boys,60,8,Evy Curiel,Natalia,56.43,95.25,58.97,129.27,283.5,Single-ply,SBD,M
Boys,60,9,Juan Santos,San Antonio Holy Cross,59.19,86.18,45.36,115.67,247.21,Single-ply,SBD,M
Boys,67.5,1,Kevin Hernandez,Floresville,60.46,183.7,102.06,174.63,460.4,Single-ply,SBD,M
Boys,67.5,2,Justin Perez,San Antonio Holy Cross,65.54,174.63,79.38,199.58,453.59,Single-ply,SBD,M
Boys,67.5,3,John Gamez,San Antonio Brooks Academy,62.51,156.49,90.72,161.03,408.23,Single-ply,SBD,M
Boys,67.5,4,Christian Flores,Blanco,62.28,151.95,77.11,151.95,381.02,Single-ply,SBD,M
Boys,67.5,5,Isaac Bourg,Bandera,66.9,142.88,74.84,161.03,378.75,Single-ply,SBD,M
Boys,67.5,6,Diego Zapata,Natalia,64.86,151.95,74.84,147.42,374.21,Single-ply,SBD,M
Boys,67.5,7,Marco Burkman-Flaig,San Antonio Cole,65.91,147.42,77.11,145.15,369.68,Single-ply,SBD,M
Boys,67.5,8,Paco Vargas,Blanco,66.86,133.81,68.04,167.83,369.68,Single-ply,SBD,M
Boys,67.5,9,Brian Burnes,Bandera,63.14,136.08,65.77,142.88,344.73,Single-ply,SBD,M
Boys,67.5,10,John Slaughter,Bandera,63.64,108.86,83.91,142.88,335.66,Single-ply,SBD,M
Boys,67.5,11,Jonathan Mabs,Marion,66.9,108.86,61.23,122.47,292.57,Single-ply,SBD,M
Boys,67.5,12,Reese McDole,Natalia,66.36,97.52,56.7,106.59,260.82,Single-ply,SBD,M
Boys,67.5,DQ,Jacob Gonzales,Floresville,60.87,,,,,Single-ply,SBD,M
Boys,67.5,DQ,Jj Roman,Bandera,65.27,108.86,,,,Single-ply,SBD,M
Boys,75,1,Gilibaldo Garcia,San Antonio Brooks Academy,73.16,226.8,120.2,231.33,578.33,Single-ply,SBD,M
Boys,75,2,Edher Nava,Marion,74.16,170.1,108.86,181.44,460.4,Single-ply,SBD,M
Boys,75,3,Tyrell Dunlap,San Antonio Cole,74.62,170.1,99.79,188.24,458.13,Single-ply,SBD,M
Boys,75,4,Jessie Zimmel,Bandera,71.53,158.76,102.06,142.88,403.7,Single-ply,SBD,M
Boys,75,5,Matthew Contreras,Natalia,67.54,154.22,72.57,158.76,385.55,Single-ply,SBD,M
Boys,75,6,Aiden Keane,Bandera,71.71,136.08,74.84,136.08,347,Single-ply,SBD,M
Boys,75,7,Isaih Laduron,San Antonio Cole,70.53,124.74,54.43,129.27,308.44,Single-ply,SBD,M
Boys,75,8,Noah Jones,San Antonio Southwest,67.36,83.91,74.84,122.47,281.23,Single-ply,SBD,M
Boys,82.5,1,Joel Rios,Natalia,77.7,165.56,95.25,167.83,428.64,Single-ply,SBD,M
Boys,82.5,2,Gavin Guajardo,San Antonio Southwest,78.97,151.95,102.06,158.76,412.77,Single-ply,SBD,M
Boys,82.5,3,Matt Moore,San Antonio Cole,78.93,147.42,90.72,158.76,396.89,Single-ply,SBD,M
Boys,82.5,4,Beck Nevarez,Blanco,81.65,142.88,88.45,156.49,387.82,Single-ply,SBD,M
Boys,82.5,5,Brock Nichols,Blanco,78.06,147.42,74.84,158.76,381.02,Single-ply,SBD,M
Boys,82.5,6,Thomas Lara,Natalia,79.11,147.42,77.11,149.69,374.21,Single-ply,SBD,M
Boys,90,1,Nathon Cantu,San Antonio Brooks Academy,87.91,276.69,176.9,229.06,682.66,Single-ply,SBD,M
Boys,90,2,Kyle Martinez,Blanco,88.31,197.31,124.74,185.97,508.02,Single-ply,SBD,M
Boys,90,3,Kenton Spriggs,Marion,89.4,183.7,113.4,201.85,498.95,Single-ply,SBD,M
Boys,90,4,Kyle Ferell,Floresville,86.36,181.44,102.06,192.78,476.27,Single-ply,SBD,M
Boys,90,5,Caden Fregia,Natalia,88.95,183.7,117.93,172.37,474,Single-ply,SBD,M
Boys,90,6,Nyah Waye,San Antonio Cole,87.09,179.17,102.06,183.7,464.93,Single-ply,SBD,M
Boys,90,7,Kameron Frias,Natalia,86.91,161.03,106.59,183.7,451.32,Single-ply,SBD,M
Boys,90,8,Chance Lamb,Natalia,85.82,167.83,97.52,167.83,433.18,Single-ply,SBD,M
Boys,90,9,Michael Martinez,Natalia,88.72,165.56,95.25,165.56,426.38,Single-ply,SBD,M
Boys,90,10,Lino Tripp,San Antonio Cole,87.91,161.03,90.72,170.1,421.84,Single-ply,SBD,M
Boys,90,11,Devin Wallace,Blanco,88.41,149.69,102.06,170.1,421.84,Single-ply,SBD,M
Boys,90,12,Myles Riggs,Marion,87.82,151.95,92.99,172.37,417.3,Single-ply,SBD,M
Boys,90,13,Matthew Manka,Natalia,83.01,154.22,79.38,156.49,390.09,Single-ply,SBD,M
Boys,90,14,Brayden Hodge,Blanco,86.55,124.74,83.91,145.15,353.8,Single-ply,SBD,M
Boys,90,15,Elias Cruz,Bandera,88.99,129.27,83.91,136.08,349.27,Single-ply,SBD,M
Boys,90,16,Merbin Carratini,San Antonio Cole,89.63,117.93,90.72,138.35,347,Single-ply,SBD,M
Boys,90,DQ,Patrick Rhodes,San Antonio Cole,89.77,183.7,,,,Single-ply,SBD,M
Boys,90,DQ,Jacob Ruiz,Blanco,88.22,190.51,122.47,181.44,,Single-ply,SBD,M
Boys,100,1,Hagen Brown,Floresville,92.49,244.94,154.22,238.14,637.3,Single-ply,SBD,M
Boys,100,2,Cole Doerr,Marion,93.89,208.65,129.27,213.19,551.11,Single-ply,SBD,M
Boys,100,3,Javier Hernandez,Natalia,95.57,199.58,129.27,206.38,535.24,Single-ply,SBD,M
Boys,100,4,Anderas Cortez,San Antonio Brooks Academy,98.07,199.58,138.35,197.31,535.24,Single-ply,SBD,M
Boys,100,5,Seth Almendarez,San Antonio Holy Cross,98.57,206.38,120.2,183.7,510.29,Single-ply,SBD,M
Boys,100,6,Peter Billalobos,Natalia,91.67,195.04,102.06,201.85,498.95,Single-ply,SBD,M
Boys,100,7,Jacob Huerta,San Antonio Southwest,95.44,172.37,115.67,190.51,478.54,Single-ply,SBD,M
Boys,100,8,Gino Santos,San Antonio Holy Cross,94.48,165.56,92.99,210.92,469.47,Single-ply,SBD,M
Boys,100,9,Ryan Bechtel,Marion,98.93,181.44,99.79,183.7,464.93,Single-ply,SBD,M
Boys,100,10,Nathan Cavazos,San Antonio Holy Cross,97.7,195.04,92.99,161.03,449.06,Single-ply,SBD,M
Boys,100,11,Matthew Billalobos,Natalia,98.61,165.56,97.52,183.7,446.79,Single-ply,SBD,M
Boys,100,12,Uriel Arellano,Natalia,94.44,156.49,124.74,145.15,426.38,Single-ply,SBD,M
Boys,100,13,Mauricio Chavez,Floresville,90.9,133.81,92.99,183.7,410.5,Single-ply,SBD,M
Boys,100,14,Will Adams,Blanco,97.52,151.95,97.52,158.76,408.23,Single-ply,SBD,M
Boys,100,15,Angel Aguilar,Bandera,95.66,142.88,111.13,151.95,405.97,Single-ply,SBD,M
Boys,100,16,Jeremiah Gomez,Natalia,98.11,158.76,90.72,156.49,405.97,Single-ply,SBD,M
Boys,100,17,Ivan Valencia,San Antonio Southwest,90.04,136.08,83.91,145.15,365.14,Single-ply,SBD,M
Boys,100,18,Jonathan Luna,San Antonio Southwest,92.08,129.27,99.79,136.08,365.14,Single-ply,SBD,M
Boys,100,19,Samuel Grodman,Bandera,90.63,136.08,81.65,124.74,342.46,Single-ply,SBD,M
Boys,100,20,Marco Dominguez,San Antonio Southwest,90.81,111.13,77.11,117.93,306.17,Single-ply,SBD,M
Boys,110,1,Julian Martinez,Natalia,100.92,240.4,133.81,240.4,614.62,Single-ply,SBD,M
Boys,110,2,Jacob Thomas,Floresville,105.55,254.01,149.69,210.92,614.62,Single-ply,SBD,M
Boys,110,3,Chance Horton,Blanco,105.46,199.58,124.74,190.51,514.83,Single-ply,SBD,M
Boys,110,4,Eric Rodriguez,Floresville,106.59,201.85,102.06,204.12,508.02,Single-ply,SBD,M
Boys,110,5,AJ Ortiz,San Antonio Holy Cross,109.5,151.95,77.11,174.63,403.7,Single-ply,SBD,M
Boys,110,6,Jesus Gomez,San Antonio Southwest,104.83,142.88,108.86,145.15,396.89,Single-ply,SBD,M
Boys,110,7,Mario Sanchez,San Antonio Southwest,103.51,136.08,92.99,161.03,390.09,Single-ply,SBD,M
Boys,110,DQ,Colton Perkins,Bandera,104.83,158.76,90.72,,,Single-ply,SBD,M
Boys,125,1,Santiago Leija,Natalia,119.07,249.48,147.42,249.48,646.37,Single-ply,SBD,M
Boys,125,2,Logan Crane,Bandera,111.22,226.8,145.15,199.58,571.53,Single-ply,SBD,M
Boys,125,3,George Lockamy,Floresville,116.53,208.65,111.13,190.51,510.29,Single-ply,SBD,M
Boys,125,4,Cody Abrameit,Marion,114.08,190.51,106.59,204.12,501.22,Single-ply,SBD,M
Boys,125,5,Pedro Castillo,Floresville,117.62,170.1,136.08,170.1,476.27,Single-ply,SBD,M
Boys,125,6,Damien Hernandez,San Antonio Holy Cross,115.76,165.56,120.2,183.7,469.47,Single-ply,SBD,M
Boys,125,7,Arturo Lopez,San Antonio Southwest,124.38,179.17,102.06,161.03,442.25,Single-ply,SBD,M
Boys,125,8,Anthony Walters,San Antonio Cole,113.08,151.95,113.4,174.63,439.98,Single-ply,SBD,M
Boys,125,9,Paul Billalobos,Natalia,116.39,176.9,86.18,176.9,439.98,Single-ply,SBD,M
Boys,125,10,Isaiah Ibarra,San Antonio Southwest,113.58,124.74,83.91,136.08,344.73,Single-ply,SBD,M
Boys,125,11,Oscar Sandoval #2,San Antonio Southwest,110.77,90.72,68.04,120.2,278.96,Single-ply,SBD,M
Boys,125+,1,Victor Cruz,Natalia,131.9,231.33,136.08,217.72,585.13,Single-ply,SBD,M
Boys,125+,2,Jeremiah Price,San Antonio Southwest,128.59,167.83,108.86,176.9,453.59,Single-ply,SBD,M
Boys,125+,3,Robert Gonyer,Marion,125.06,142.88,108.86,183.7,435.45,Single-ply,SBD,M
Boys,125+,4,Caleb Calamaco,San Antonio Southwest,128.82,147.42,104.33,167.83,419.57,Single-ply,SBD,M
