Place,Name,CyrillicName,Sex,WeightClassKg,Tested,Event,Equipment,BirthDate,Division,BodyweightKg,Squat1Kg,Squat2Kg,Squat3Kg,Squat4Kg,Best3SquatKg,Bench1Kg,Bench2Kg,Bench3Kg,Bench4Kg,Best3BenchKg,Deadlift1Kg,Deadlift2Kg,Deadlift3Kg,Deadlift4Kg,Best3DeadliftKg,TotalKg
1,Natalya Konchakova,Наталья Кончакова,F,48,Yes,SBD,Wraps,1977-08-14,Open,47.2,80,-90,-92.5,,80,30,-42.5,42.5,,42.5,80,92.5,-102.5,,92.5,215
1,Elena Shelepova,Елена Шелепова,F,52,Yes,SBD,Wraps,1973-01-28,Open,51.8,80,85,87.5,,87.5,-57.5,57.5,60,,60,112.5,122.5,-125,,122.5,270
2,Elena Solonnikova,Елена Солонникова,F,52,Yes,SBD,Wraps,1986-09-10,Open,49.8,75,82.5,87.5,,87.5,45,-50,-50,,45,-115,120,-127.5,,120,252.5
DQ,Nadezhda Reutova,Надежда Реутова,F,52,Yes,SBD,Wraps,1993-01-30,T3,51.7,-80,-80,-80,,,,,,,,,,,,,
1,Olesya Pervyshina,Олеся Первышина,F,56,Yes,SBD,Wraps,1980-01-10,Open,52.9,75,80,85,,85,45,-50,-50,,45,85,90,-95,,90,220
1,Tatyana Lapshina,Татьяна Лапшина,F,60,Yes,SBD,Wraps,1978-05-18,Open,58.5,-60,60,-65,,60,32.5,37.5,40,,40,80,90,-100,,90,190
1,Alena Sokolova,Алена Соколова,F,67.5,Yes,SBD,Wraps,1977-03-20,Open,67,95,102.5,-110,,102.5,70,-72.5,-72.5,,70,-135,145,160,,160,332.5
1,Viktoriya Levko,Виктория Левко,F,82.5,Yes,SBD,Wraps,1983-06-05,Open,79.1,60,70,72.5,,72.5,30,35,37.5,,37.5,70,80,90,,90,200
1,Nikita Kavardin,Никита Кавардин,M,52,Yes,SBD,Wraps,1997-04-10,T1,45.9,-65,67.5,72.5,,72.5,40,45,-50,,45,75,85,90,,90,207.5
2,Rustam Kudusov,Рустам Кудусов,M,52,Yes,SBD,Wraps,1998-02-01,T1,43,-35,40,-52.5,,40,30,35,-40,,35,60,75,-80,,75,150
3,Denis Matveev,Денис Матвеев,M,52,Yes,SBD,Wraps,1992-12-24,T3,50.3,105,110,-112.5,,110,65,-67.5,-67.5,,65,125,130,-135,,130,305
1,Ildar Usmanov,Ильдар Усманов,M,56,Yes,SBD,Wraps,1983-11-15,Open,54.7,-110,110,-120,,110,75,-85,85,,85,-140,140,152.5,,152.5,347.5
1,Oleg Dvoynikov,Олег Двойников,M,60,Yes,SBD,Wraps,1960-10-08,M3,59.5,120,127.5,132.5,,132.5,92.5,-97.5,97.5,,97.5,165,175,182.5,,182.5,412.5
1,Anatoliy Chistyakov,Анатолий Чистяков,M,60,Yes,SBD,Wraps,1940-01-29,M7,58.5,-90,90,-100,,90,60,-62.5,-62.5,,60,-105,105,110,,110,260
1,Andrey Selyutin,Андрей Селютин,M,60,Yes,SBD,Wraps,1992-01-23,T3,59.9,95,102.5,-110,,102.5,-72.5,-75,75,,75,110,120,127.5,,127.5,305
1,Aleksandr Zhurov,Александр Журов,M,67.5,Yes,SBD,Wraps,1995-04-15,T1,67.3,120,137.5,,,137.5,55,65,,,65,140,150,,,150,352.5
2,Vitaliy Akinshin,Виталий Акиньшин,M,67.5,Yes,SBD,Wraps,1995-12-10,T1,62.3,105,115,-120,,115,65,75,-80,,75,-120,120,130,,130,320
3,Nikita Kartashov,Никита Карташов,M,67.5,Yes,SBD,Wraps,1994-07-02,T2,65.8,120,127.5,135,,135,75,82.5,-87.5,,82.5,165,175,-185,,175,392.5
4,Artem Filimonov,Артем Филимонов,M,67.5,Yes,SBD,Wraps,1994-04-05,T2,61.9,80,100,-105,,100,70,-75,-75,,70,120,130,-140,,130,300
DQ,Vladislav Beletskiy,Владислав Белецкий,M,67.5,Yes,SBD,Wraps,1994-09-21,T2,65.6,-100,-100,-100,,,,,,,,,,,,,
1,Pavel Shvetsov,Павел Швецов,M,67.5,Yes,SBD,Wraps,1990-03-15,Juniors,67.5,190,200,202.5,,202.5,130,-140,-140,,130,-230,240,-250,,240,572.5
DQ,Ilya Galuzin,Илья Галузин,M,67.5,Yes,SBD,Wraps,1988-06-26,Juniors,65.1,-155,-165,-165,,,,,,,,,,,,,
1,Mikhail Gerasimov,Михаил Герасимов,M,67.5,Yes,SBD,Wraps,1983-08-06,Open,67.5,190,-200,200,,200,-140,140,150,,150,230,250,-260,,250,600
2,Pavel Shvetsov,Павел Швецов,M,67.5,Yes,SBD,Wraps,1990-03-15,Open,67.5,190,200,202.5,,202.5,130,-140,-140,,130,-230,240,-250,,240,572.5
3,Artur Baybulatov,Артур Байбулатов,M,67.5,Yes,SBD,Wraps,1986-04-03,Open,65.5,115,117.5,-120,,117.5,90,-92.5,-92.5,,90,142.5,145,147.5,,147.5,355
DQ,Andrey Kavardin,Андрей Кавардин,M,67.5,Yes,SBD,Wraps,1971-07-26,Open,66.5,85,95,-105,,95,-85,-85,-85,,,,,,,,
1,Sergey Alampiev,Сергей Алампиев,M,67.5,Yes,SBD,Wraps,1957-04-07,M3,67.2,145,160,-165,,160,80,90,95,,95,180,205,215,,215,470
1,Yuriy Kiselyov,Юрий Киселёв,M,67.5,Yes,SBD,Wraps,1937-11-12,M7,64.2,90,-100,,,90,70,75,,,75,130,155,,,155,320
1,Ruslan Olekhov,Руслан Олехов,M,75,Yes,SBD,Wraps,1994-03-22,T2,74.6,165,172.5,-177.5,,172.5,110,117.5,120,,120,177.5,187.5,,,187.5,480
2,Sergey Tyapkin,Сергей Тяпкин,M,75,Yes,SBD,Wraps,1995-01-21,T2,74.3,-160,160,175,,175,115,-120,-120,,115,180,-190,,,180,470
3,Valeriy Vcherashniy,Валерий Вчерашний,M,75,Yes,SBD,Wraps,1993-09-21,T2,72.5,-130,-135,135,,135,107.5,112.5,-117.5,,112.5,180,-190,,,180,427.5
4,Dmitriy Lyubimov,Дмитрий Любимов,M,75,Yes,SBD,Wraps,1994-04-11,T2,72.5,-120,120,-130,,120,80,90,92.5,,92.5,-160,165,,,165,377.5
1,Kim Solovev,Ким Соловьев,M,75,Yes,SBD,Wraps,1987-11-24,Juniors,73.7,-125,125,137.5,,137.5,92.5,100,-102.5,,100,170,182.5,,,182.5,420
1,Pavel Muratov,Павел Муратов,M,75,Yes,SBD,Wraps,1985-09-09,Open,73.6,180,195,205,,205,125,130,132.5,,132.5,215,220,230,,230,567.5
2,Taras Mukovozchik,Тарас Муковозчик,M,75,Yes,SBD,Wraps,1983-03-12,Open,72.4,150,-160,160,,160,115,-122.5,-125,,115,210,225,235,,235,510
3,Sergey Volkov,Сергей Волков,M,75,Yes,SBD,Wraps,1981-08-18,Open,72.4,140,150,-160,,150,-87.5,90,-95,,90,165,175,185,,185,425
4,Viktor Belioglov,Виктор Белиоглов,M,75,Yes,SBD,Wraps,1984-04-16,Open,74.8,-150,150,-157.5,,150,80,90,-95,,90,150,170,180,,180,420
5,Dmitriy Polev,Дмитрий Полев,M,75,Yes,SBD,Wraps,1984-04-02,Open,75,145,150,-155,,150,95,102.5,107.5,,107.5,-150,150,160,,160,417.5
1,Ivan Sidorov,Иван Сидоров,M,82.5,Yes,SBD,Wraps,1994-02-22,T2,81.3,180,-190,190,,190,-100,100,105,,105,210,-227.5,,,210,505
2,Vladimir Babin,Владимир Бабин,M,82.5,Yes,SBD,Wraps,1992-08-09,T3,80.5,182.5,192.5,200,,200,115,-120,120,,120,270,282.5,300,,300,620
3,Albert Shakirov,Альберт Шакиров,M,82.5,Yes,SBD,Wraps,1992-12-28,T3,79.6,160,167.5,-172.5,,167.5,97.5,102.5,-105,,102.5,180,187.5,195,,195,465
4,Aleksey Sadkov,Алексей Садков,M,82.5,Yes,SBD,Wraps,1992-03-14,T3,76,-130,145,150,,150,75,80,85,,85,180,200,-230,,200,435
5,Aleksandr Anshevits,Александр Аншевиц,M,82.5,Yes,SBD,Wraps,1993-03-25,T3,82.2,125,132.5,-142.5,,132.5,87.5,95,-100,,95,155,170,180,,180,407.5
1,Andrey Cheremnov,Андрей Черемнов,M,82.5,Yes,SBD,Wraps,1987-12-14,Juniors,79.6,160,-170,170,,170,-115,115,120,,120,210,232.5,240,,240,530
2,Sergey Zashikhin,Сергей Зашихин,M,82.5,Yes,SBD,Wraps,1990-07-11,Juniors,79.4,120,130,140,,140,110,-120,-120,,110,150,-160,170,,170,420
1,Mikhail Glotov,Михаил Глотов,M,82.5,Yes,SBD,Wraps,1980-12-04,Open,78.6,175,185,190,,190,120,-125,-125,,120,225,-240,240,,240,550
2,Andrey Cheremnov,Андрей Черемнов,M,82.5,Yes,SBD,Wraps,1987-12-14,Open,79.6,160,-170,170,,170,-115,115,120,,120,210,232.5,240,,240,530
DQ,Ilshat Nuriakhmetov,Ильшат Нуриахметов,M,82.5,Yes,SBD,Wraps,1983-02-25,Open,81.4,-180,-190,-190,,,,,,,,,,,,,
1,Konstantin Bazhin,Константин Бажин,M,82.5,Yes,SBD,Wraps,1967-07-26,M1,78,125,132.5,-142.5,,132.5,92.5,-100,-100,,92.5,180,192.5,197.5,,197.5,422.5
1,Vladimir Larin,Владимир Ларин,M,82.5,Yes,SBD,Wraps,1954-03-13,M4,82.3,140,150,160,,160,100,107.5,112.5,,112.5,150,157.5,165,,165,437.5
1,Aydar Abzalidinov,Айдар Абзалидинов,M,90,Yes,SBD,Wraps,1968-11-21,M1,84.6,160,172.5,175,,175,100,110,,,110,180,200,212.5,,212.5,497.5
1,Evgeniy Sobyanin,Евгений Собянин,M,90,Yes,SBD,Wraps,1990-07-24,Juniors,88.6,150,165,172.5,,172.5,125,132.5,-137.5,,132.5,165,180,-195,,180,485
1,Amir Yakhin,Амир Яхин,M,90,Yes,SBD,Wraps,1985-01-09,Open,88.9,-205,205,,,205,110,125,135,,135,-200,200,225,,225,565
2,Aleksey Levko,Алексей Левко,M,90,Yes,SBD,Wraps,1983-06-01,Open,84.7,160,180,190,,190,100,110,-112.5,,110,170,190,200,,200,500
1,Oleg Vinogradov,Олег Виноградов,M,90,Yes,SBD,Wraps,1994-03-11,T2,86.4,-160,160,185,,185,105,115,-120,,115,160,180,195,,195,495
2,Dmitriy Kretov,Дмитрий Кретов,M,90,Yes,SBD,Wraps,1993-12-27,T2,87.2,135,142.5,-147.5,,142.5,100,-105,-110,,100,165,-172.5,-172.5,,165,407.5
1,Kirill Khvostov,Кирилл Хвостов,M,100,Yes,SBD,Wraps,1995-08-26,T1,97.8,-140,140,-150,,140,85,92.5,-97.5,,92.5,155,-165,,,155,387.5
2,Vasiliy Yankovich,Василий Янкович,M,100,Yes,SBD,Wraps,1997-07-01,T1,97.3,100,115,-125,,115,70,-75,-77.5,,70,130,-140,-140,,130,315
1,Maksim Gostev,Максим Гостев,M,100,Yes,SBD,Wraps,1991-11-17,T3,94,150,170,180,,180,100,142.5,145,,145,-150,200,-250,,200,525
1,Denis Ishmukhametov,Денис Ишмухаметов,M,100,Yes,SBD,Wraps,1987-06-07,Juniors,92,180,-190,190,,190,-120,120,-125,,120,200,220,-240,,220,530
1,Andrey Ustyugov,Андрей Устюгов,M,100,Yes,SBD,Wraps,1971-04-09,Open,99,220,245,-255,,245,165,-175,-175,,165,245,260,-265,,260,670
2,Maksim Markov,Максим Марков,M,100,Yes,SBD,Wraps,1985-11-07,Open,97.5,200,210,-220,,210,162.5,-170,-170,,162.5,-270,280,-302.5,,280,652.5
3,Nikolay Egorov,Николай Егоров,M,100,Yes,SBD,Wraps,1978-07-28,Open,99.8,175,185,-190,,185,155,-165,165,,165,195,210,220,,220,570
4,Sergey Permyakov,Сергей Пермяков,M,100,Yes,SBD,Wraps,1981-12-19,Open,96.5,-200,200,205,,205,120,-122.5,,,120,225,240,-250,,240,565
1,Alir Sharipov,Алир Шарипов,M,100,Yes,SBD,Wraps,1967-08-17,M1,91.3,-150,160,170,,170,-117.5,117.5,122.5,,122.5,180,192.5,200,,200,492.5
1,Valeriy Bystrov,Валерий Быстров,M,100,Yes,SBD,Wraps,1941-06-14,M6,95.4,150,160,175,,175,-105,110,-115,,110,175,185,-190,,185,470
1,Stanislav Moskalenko,Станислав Москаленко,M,110,Yes,SBD,Wraps,1992-11-17,T3,107.6,220,235,250,,250,160,170,-180,,170,220,250,-260,,250,670
2,Kirill Fedoseev,Кирилл Федосеев,M,110,Yes,SBD,Wraps,1992-02-23,T3,107.7,155,165,-175,,165,130,140,-145,,140,180,190,-200,,190,495
1,Aleksandr Pushkaryov,Александр Пушкарёв,M,110,Yes,SBD,Wraps,1987-07-22,Juniors,102,-175,-175,175,,175,125,-132.5,132.5,,132.5,190,200,205,,205,512.5
DD,Vladimir Minin,Владимир Минин,M,110,Yes,SBD,Wraps,1967-08-29,Open,101.9,270,280,282.5,,282.5,150,157.5,-162.5,,157.5,270,280,287.5,,287.5,
1,Oleg Grabkov,Олег Грабков,M,110,Yes,SBD,Wraps,1973-03-31,Open,108.9,170,-185,190,,190,150,-155,155,,155,230,-260,-260,,230,575
DD,Vladimir Minin,Владимир Минин,M,110,Yes,SBD,Wraps,1967-08-29,M1,101.9,270,280,282.5,,282.5,150,157.5,-162.5,,157.5,270,280,287.5,,287.5,
1,Sergey Lishchuk,Сергей Лищук,M,110,Yes,SBD,Wraps,1967-11-05,M1,108.1,210,225,-240,,225,140,147.5,152.5,,152.5,-250,-250,250,,250,627.5
1,Ilya Nalimov,Илья Налимов,M,125,Yes,SBD,Wraps,1988-03-03,Juniors,123.1,240,250,260,,260,170,180,-187.5,,180,215,235,,,235,675
1,Evgeniy Kiselyov,Евгений Киселёв,M,125,Yes,SBD,Wraps,1978-06-04,Open,117.9,250,260,-270,,260,190,195,-200,,195,250,260,270,,270,725
1,Vladimir Chernyshov,Владимир Чернышов,M,125,Yes,SBD,Wraps,1948-09-04,M5,112.3,180,200.5,,,200.5,-100,105,115,,115,190,205,215,,215,530
1,Vladimir Glotov,Владимир Глотов,M,140,Yes,SBD,Wraps,1975-07-22,Open,128.9,-230,230,245,,245,180,190,-195,,190,250,-265,-265,,250,685
1,Vasilina Avdeenko,Василина Авдеенко,F,67.5,Yes,SBD,Multi-ply,1983-08-19,Open,64.1,-140,140,145,,145,60,-70,-70,,60,-135,135,142.5,,142.5,347.5
2,Aliya Khakimova,Алия Хакимова,F,75,Yes,SBD,Multi-ply,1986-11-21,Open,69.8,125,132.5,-142.5,,132.5,60,-65,65,,65,130,142.5,-150,,142.5,340
1,Rustam Kudusov,Рустам Кудусов,M,52,Yes,SBD,Multi-ply,1998-02-01,T1,42.5,70,85,-95,,85,30,37.5,-42.5,,37.5,65,77.5,,,77.5,200
1,Ruslan Abdrakhmanov,Руслан Абдрахманов,M,56,Yes,SBD,Multi-ply,1995-11-11,T1,56,-165,170,-180,,170,85,92.5,-97.5,,92.5,185,-200,-200,,185,447.5
1,Valentin Bondarchuk,Валентин Бондарчук,M,60,Yes,SBD,Multi-ply,1995-11-08,T1,57.7,155,165,-172.5,,165,65,70,-75,,70,140,150,-155,,150,385
2,Vitaliy Mikhin,Виталий Михин,M,60,Yes,SBD,Multi-ply,1993-12-11,T2,57.2,140,-157.5,157.5,,157.5,90,95,100,,100,180,190,-192.5,,190,447.5
3,Artyom Artamonov,Артём Артамонов,M,60,Yes,SBD,Multi-ply,1991-04-29,T3,59.1,160,170,175,,175,100,-107.5,-115,,100,165,-180,-180,,165,440
1,Artyom Artamonov,Артём Артамонов,M,60,Yes,SBD,Multi-ply,1991-04-29,Open,59.1,160,170,175,,175,100,-107.5,-115,,100,165,-180,-180,,165,440
1,Roman Raspopin,Роман Распопин,M,67.5,Yes,SBD,Multi-ply,1996-03-15,T1,67.4,180,-200,200,,200,90,97.5,102.5,,102.5,160,170,177.5,,177.5,480
2,Ilya Zubakin,Илья Зубакин,M,67.5,Yes,SBD,Multi-ply,1996-09-15,T1,63.4,-110,125,-135,,125,70,75,-80,,75,115,120,125,,125,325
3,Aleksey Krevskiy,Алексей Кревский,M,67.5,Yes,SBD,Multi-ply,1996-02-24,T1,64.7,100,-110,-110,,100,-65,65,-70,,65,-100,105,115,,115,280
4,Leonid Savelev,Леонид Савельев,M,67.5,Yes,SBD,Multi-ply,1994-04-17,T2,64,175,190,-205,,190,95,102.5,-105,,102.5,175,190,-200,,190,482.5
5,Aleksandr Zvezday,Александр Звездай,M,67.5,Yes,SBD,Multi-ply,1994-11-08,T2,66.6,130,140,150,,150,75,80,-85,,80,130,135,140,,140,370
1,Sergey Alampiev,Сергей Алампиев,M,67.5,Yes,SBD,Multi-ply,1957-04-07,M3,66.7,180,192.5,195,,195,90,100,110,,110,180,205,210,,210,515
1,Yuriy Kiselyov,Юрий Киселёв,M,67.5,Yes,SBD,Multi-ply,1937-11-12,M7,63.8,100,125,,,125,65,75,,,75,130,160,,,160,360
1,Aleksandr Zhurov,Александр Журов,M,75,Yes,SBD,Multi-ply,1995-10-17,T1,69.3,190,-210,-210,,190,80,90,95,,95,140,,,,140,425
2,Alexander Karpenko,Александр Карпенко,M,75,Yes,SBD,Multi-ply,1992-04-25,T3,75,270,280,290,,290,-190,190,-200,,190,245,260,-270,,260,740
3,Ayaz Abdurakhmanly,Аяз Абдурахманлы,M,75,Yes,SBD,Multi-ply,1992-09-10,T3,72.2,-160,-160,160,,160,60,80,,,80,-140,140,-160,,140,380
1,Dmitriy Karpov,Дмитрий Карпов,M,75,Yes,SBD,Multi-ply,1988-02-20,Juniors,75,-200,200,220,,220,130,-150,-150,,130,-180,180,200,,200,550
1,Alexander Karpenko,Александр Карпенко,M,75,Yes,SBD,Multi-ply,1992-04-25,Open,75,270,280,290,,290,-190,190,-200,,190,245,260,-270,,260,740
2,Evgeniy Baranov,Евгений Баранов,M,75,Yes,SBD,Multi-ply,1972-12-03,Open,74.6,240,250,260,,260,160,170,-175,,170,-230,-230,230,,230,660
1,Igor Sharifov,Игорь Шарифов,M,82.5,Yes,SBD,Multi-ply,1991-10-05,T3,82.5,260,270,,,270,-140,-140,140,,140,245,260,-270,,260,670
2,Aleksandr Sizikov,Александр Сизиков,M,82.5,Yes,SBD,Multi-ply,1993-01-05,T3,82.1,215,230,-240,,230,120,127.5,130,,130,-175,200,-212.5,,200,560
1,Alik Khuramshin,Алик Хурамшин,M,82.5,Yes,SBD,Multi-ply,1990-02-01,Juniors,80.4,-275,275,290,,290,145,155,-160,,155,260,280,-290,,280,725
1,Grigoriy Kostenko,Григорий Костенко,M,82.5,Yes,SBD,Multi-ply,1986-07-04,Open,81.5,235,250,-255,,250,-140,140,-150,,140,-215,215,225,,225,615
2,Sergey Boldin,Сергей Болдин,M,82.5,Yes,SBD,Multi-ply,1971-05-31,Open,81.5,185,195,-200,,195,135,140,145,,145,180,200,,,200,540
1,Aleksey Zharikov,Алексей Жариков,M,82.5,Yes,SBD,Multi-ply,,M1,81.8,-265,-265,265,,265,150,160,170,,170,220,240,-250,,240,675
1,Sergey Chupakhin,Сергей Чупахин,M,90,Yes,SBD,Multi-ply,1988-06-09,Juniors,83.4,240,257.5,267.5,,267.5,160,170,-177.5,,170,235,245,255,,255,692.5
1,Vasiliy Fursa,Василий Фурса,M,90,Yes,SBD,Multi-ply,1979-08-05,Open,88.8,280,-295,295,,295,-190,190,,,190,260,-272.5,-272.5,,260,745
2,Aleksey Safonov,Алексей Сафонов,M,90,Yes,SBD,Multi-ply,1976-10-03,Open,83.7,275,-295,305,,305,145,155,-167.5,,155,225,245,-260,,245,705
1,Rushan Suleymanov,Рушан Сулейманов,M,100,Yes,SBD,Multi-ply,1990-10-10,Juniors,95.7,170,185,190,,190,110,115,-120,,115,150,-165,-165,,150,455
1,Valeriy Ignatev,Валерий Игнатьев,M,100,Yes,SBD,Multi-ply,1969-11-17,M1,98.1,265,280,-295,,280,180,185,190,,190,247.5,260,,,260,730
1,Oleg Pisachenko,Олег Писаченко,M,100,Yes,SBD,Multi-ply,1965-11-12,M2,99.2,270,285,-300,,285,170,182.5,,,182.5,220,232.5,247.5,,247.5,715
1,Igor Nikulin,Игорь Никулин,M,100,Yes,SBD,Multi-ply,1960-06-27,M3,97.5,-190,-190,190,,190,105,-107.5,-107.5,,105,165,175,-177.5,,175,470
1,Ivan Gostinin,Иван Гостинин,M,110,Yes,SBD,Multi-ply,1987-02-19,Open,107.1,-255,-255,255,,255,160,-172.5,-172.5,,160,260,280,-300.5,,280,695
1,Andrey Zapylikhin,Андрей Запылихин,M,110,Yes,SBD,Multi-ply,1960-09-07,M3,109.2,250,260,,,260,200,210,-215,,210,220,240,,,240,710
1,Vladimir Blinkov,Владимир Блинков,M,125,Yes,SBD,Multi-ply,1978-11-03,Open,119.8,352.5,-360,-360,,352.5,192.5,202.5,-210,,202.5,290,302.5,-310,,302.5,857.5
2,Pavel Shcheglov,Павел Щеглов,M,125,Yes,SBD,Multi-ply,1978-07-18,Open,124.2,265,-290,-302.5,,265,205,215,,,215,210,230,-250,,230,710
1,Elena Gaynanova,Елена Гайнанова,F,44,Yes,B,Raw,,Open,41.9,,,,,,35,40,-42.5,,40,,,,,,40
1,Elena Krapivina,Елена Крапивина,F,52,Yes,B,Raw,1973-01-12,Open,50.5,,,,,,57.5,-62.5,-62.5,,57.5,,,,,,57.5
1,Alyona Sotnikova,Алёна Сотникова,F,56,Yes,B,Raw,1989-08-29,Juniors,55.7,,,,,,50,52.5,-55,,52.5,,,,,,52.5
2,Aynura Mukhamedzhanova,Айнура Мухамеджанова,F,56,Yes,B,Raw,1990-03-07,Juniors,53.5,,,,,,47.5,50,-52.5,,50,,,,,,50
DQ,Yuliya Biktasheva,Юлия Бикташева,F,56,Yes,B,Raw,1989-12-08,Juniors,55.5,,,,,,-55,-55,-55,,,,,,,,
1,Alyona Sotnikova,Алёна Сотникова,F,56,Yes,B,Raw,1989-08-29,Open,55.7,,,,,,50,52.5,-55,,52.5,,,,,,52.5
1,Nadezhda Reutova,Надежда Реутова,F,56,Yes,B,Raw,1993-01-30,T3,53,,,,,,50,55,57.5,,57.5,,,,,,57.5
1,Polina Yakubova,Полина Якубова,F,60,Yes,B,Raw,1990-02-12,Juniors,60,,,,,,45,50,-52.5,,50,,,,,,50
1,Zhanna Dorokhina,Жанна Дорохина,F,60,Yes,B,Raw,1968-11-11,M1,59.1,,,,,,50,52.5,55,,55,,,,,,55
1,Natalya Korenkova,Наталья Коренкова,F,67.5,Yes,B,Raw,1980-01-07,Open,65.8,,,,,,-82.5,90,92.5,,92.5,,,,,,92.5
2,Anna Burylova,Анна Бурылова,F,67.5,Yes,B,Raw,1986-07-08,Open,67.4,,,,,,70,-72.5,75,,75,,,,,,75
1,Svetlana Sinachyova,Светлана Синачёва,F,75,Yes,B,Raw,1966-12-15,Open,73.2,,,,,,95,100,102.5,,102.5,,,,,,102.5
1,Svetlana Kabaeva,Светлана Кабаева,F,90+,Yes,B,Raw,1965-05-25,M2,108.8,,,,,,77.5,80,-82.5,,80,,,,,,80
1,Svetlana Kabaeva,Светлана Кабаева,F,90+,Yes,B,Raw,1965-05-25,Open,108.8,,,,,,77.5,80,-82.5,,80,,,,,,80
1,Polina Volkhina,Полина Вольхина,F,90+,Yes,B,Raw,1991-07-19,T3,96.8,,,,,,50,55,-57.5,,55,,,,,,55
1,Rustam Kudusov,Рустам Кудусов,M,52,Yes,B,Raw,1997-12-09,T1,43.4,,,,,,32.5,40,-42.5,,40,,,,,,40
1,Roman Roslyakov,Роман Росляков,M,52,Yes,B,Raw,1988-06-29,Juniors,51.4,,,,,,-110,-110,110,,110,,,,,,110
1,Nikita Menshchikov,Никита Меньщиков,M,56,Yes,B,Raw,1983-03-08,Open,54.2,,,,,,110,-115,-115,,110,,,,,,110
1,Ruslan Abdrakhmanov,Руслан Абдрахманов,M,60,Yes,B,Raw,1995-11-11,T1,59.8,,,,,,70,80,85,,85,,,,,,85
2,Vlad Antipin,Влад Антипин,M,60,Yes,B,Raw,1996-05-09,T1,59.7,,,,,,62.5,-67.5,67.5,,67.5,,,,,,67.5
DQ,Aleksey Betyov,Алексей Бетёв,M,60,Yes,B,Raw,1989-03-22,Juniors,59.5,,,,,,-120,-120,-120,,,,,,,,
1,Oleg Dvoynikov,Олег Двойников,M,60,Yes,B,Raw,1960-10-08,M3,59.7,,,,,,90,95,-100,,95,,,,,,95
1,Semen Kurpishev,Семен Курпишев,M,67.5,Yes,B,Raw,1995-10-28,T1,64.4,,,,,,72.5,-77.5,77.5,,77.5,,,,,,77.5
1,Artem Filimonov,Артем Филимонов,M,67.5,Yes,B,Raw,1994-04-05,T2,61.9,,,,,,65,72.5,-75,,72.5,,,,,,72.5
1,Evgeniy Sitkin,Евгений Ситкин,M,67.5,Yes,B,Raw,1991-01-30,T3,67.5,,,,,,115,-125,-125,,115,,,,,,115
DQ,Dmitriy Ikonnikov,Дмитрий Иконников,M,67.5,Yes,B,Raw,1993-03-12,T3,67,,,,,,-110,-110,-115,,,,,,,,
1,Mikhail Gerasimov,Михаил Герасимов,M,67.5,Yes,B,Raw,1983-08-06,Open,67.4,,,,,,140,150,-152.5,,150,,,,,,150
2,Vladimir Zabolotnev,Владимир Заболотнев,M,67.5,Yes,B,Raw,1968-02-25,Open,67.4,,,,,,140,150,-152.5,,150,,,,,,150
3,Maksim Zakoryukin,Максим Закорюкин,M,67.5,Yes,B,Raw,1986-07-10,Open,67.5,,,,,,125,-130,130,,130,,,,,,130
4,Andrey Zhilin,Андрей Жилин,M,67.5,Yes,B,Raw,1980-04-05,Open,67,,,,,,120,-125,-125,,120,,,,,,120
1,Vladimir Zabolotnev,Владимир Заболотнев,M,67.5,Yes,B,Raw,1968-02-25,M1,67.4,,,,,,140,150,-152.5,,150,,,,,,150
2,Yuriy Kiselev,Юрий Киселев,M,67.5,Yes,B,Raw,1937-11-12,M7,63.9,,,,,,65,70,,,70,,,,,,70
1,Andreev Gabuev,Андреев Габуев,M,75,Yes,B,Raw,1996-10-30,T1,71.3,,,,,,40,50,-57.5,,50,,,,,,50
1,Kirill Nezavitin,Кирилл Незавитин,M,75,Yes,B,Raw,1993-08-08,T2,73.2,,,,,,-117.5,117.5,-120,,117.5,,,,,,117.5
1,Denis Voronin,Денис Воронин,M,75,Yes,B,Raw,1989-08-16,Juniors,70.2,,,,,,115,120,125,,125,,,,,,125
2,Anton Balashov,Антон Балашов,M,75,Yes,B,Raw,1987-12-03,Juniors,69.7,,,,,,110,-120,-120,,110,,,,,,110
1,Aleksey Lapin,Алексей Лапин,M,75,Yes,B,Raw,1986-05-22,Open,73.7,,,,,,140,-145,150,,150,,,,,,150
2,Vadim Rozenfeld,Вадим Розенфельд,M,75,Yes,B,Raw,1973-12-11,Open,73.7,,,,,,147.5,150,-152.5,,150,,,,,,150
3,Andrey Alferov,Андрей Алферов,M,75,Yes,B,Raw,1982-04-23,Open,74.7,,,,,,130,135,-137.5,,135,,,,,,135
4,Pavel Ageev,Павел Агеев,M,75,Yes,B,Raw,1982-07-12,Open,70.9,,,,,,115,125,-135,,125,,,,,,125
5,Dmitriy Shakhtarin,Дмитрий Шахтарин,M,75,Yes,B,Raw,1986-10-08,Open,72.4,,,,,,115,120,-122.5,,120,,,,,,120
DQ,Aleksandr Kasintsev,Александр Касинцев,M,75,Yes,B,Raw,1984-07-15,Open,73,,,,,,-115,,,,,,,,,,
1,Sergey Khudyakov,Сергей Худяков,M,75,Yes,B,Raw,1962-05-28,M2,74,,,,,,127.5,-140,-140,,127.5,,,,,,127.5
1,Sergey Alampiev,Сергей Алампиев,M,75,Yes,B,Raw,1957-04-07,M3,67.8,,,,,,80,90,95,,95,,,,,,95
1,Nikita Varushkin,Никита Варушкин,M,82.5,Yes,B,Raw,1993-10-10,T2,81.6,,,,,,-115,115,120,,120,,,,,,120
1,Aleksey Pyanov,Алексей Пьянов,M,82.5,Yes,B,Raw,1992-11-26,T3,81.2,,,,,,140,145,-150,,145,,,,,,145
1,Evgeniy Fedotov,Евгений Федотов,M,82.5,Yes,B,Raw,1987-08-26,Juniors,77.3,,,,,,165,-170,-170,,165,,,,,,165
2,Ivan Nesterenko,Иван Нестеренко,M,82.5,Yes,B,Raw,1987-10-11,Juniors,81.2,,,,,,150,155,-160,,155,,,,,,155
3,Semyon Zyukov,Семён Зюков,M,82.5,Yes,B,Raw,1987-05-03,Juniors,76.8,,,,,,-145,145,-147.5,,145,,,,,,145
4,Andrey Nozhkin,Андрей Ножкин,M,82.5,Yes,B,Raw,1987-12-01,Juniors,79.5,,,,,,127.5,132.5,137.5,,137.5,,,,,,137.5
5,Evgeniy Golovanov,Евгений Голованов,M,82.5,Yes,B,Raw,1987-07-18,Juniors,81.6,,,,,,-120,127.5,-132.5,,127.5,,,,,,127.5
1,Aleksandr Tsvetov,Александр Цветов,M,82.5,Yes,B,Raw,1987-04-02,Open,79.5,,,,,,165,-172.5,172.5,,172.5,,,,,,172.5
2,Vadim Rashchektaev,Вадим Ращектаев,M,82.5,Yes,B,Raw,1984-07-04,Open,79.7,,,,,,145,-150,150,,150,,,,,,150
3,Nikolay Pavalkin,Николай Павалкин,M,82.5,Yes,B,Raw,1984-04-25,Open,82.5,,,,,,145,150,-152.5,,150,,,,,,150
4,Stanislav Dmitriev,Станислав Дмитриев,M,82.5,Yes,B,Raw,1979-07-27,Open,81.8,,,,,,142.5,-150,-150,,142.5,,,,,,142.5
5,Vladimir Vorona,Владимир Ворона,M,82.5,Yes,B,Raw,1978-01-12,Open,79.8,,,,,,140,-150,-152.5,,140,,,,,,140
6,Pavel Savchenko,Павел Савченко,M,82.5,Yes,B,Raw,1983-04-11,Open,79.9,,,,,,140,-150,-150,,140,,,,,,140
7,Pavel Shukshin,Павел Шукшин,M,82.5,Yes,B,Raw,1980-08-03,Open,80.7,,,,,,130,132.5,-137.5,,132.5,,,,,,132.5
1,Vadim Mirzayanov,Вадим Мирзаянов,M,82.5,Yes,B,Raw,1962-06-30,M2,80.1,,,,,,110,120,130,,130,,,,,,130
1,Vladimir Larin,Владимир Ларин,M,82.5,Yes,B,Raw,1954-03-13,M4,81.9,,,,,,105,110,-115,,110,,,,,,110
1,Eldar Tsoriev,Эльдар Цориев,M,82.5,Yes,B,Raw,1946-02-17,M6,81.1,,,,,,120,125,127.5,,127.5,,,,,,127.5
2,Vyacheslav Yakushov,Вячеслав Якушов,M,82.5,Yes,B,Raw,1941-09-01,M6,79,,,,,,75,80,,,80,,,,,,80
DQ,Aleksandr Boykov,Александр Бойков,M,90,Yes,B,Raw,1992-06-30,T3,85.8,,,,,,-135,-135,-135,,,,,,,,
1,Andrey Galayda,Андрей Галайда,M,90,Yes,B,Raw,1972-02-07,Open,86.1,,,,,,180,187.5,-192.5,,187.5,,,,,,187.5
2,Vladimir Konchakov,Владимир Кончаков,M,90,Yes,B,Raw,1973-05-25,Open,86.8,,,,,,170,180,-192.5,,180,,,,,,180
3,Anatoliy Alyaev,Анатолий Аляев,M,90,Yes,B,Raw,1984-07-17,Open,86.4,,,,,,-170,170,-180,,170,,,,,,170
4,Vitaliy Pozdin,Виталий Поздин,M,90,Yes,B,Raw,1978-05-03,Open,89.2,,,,,,-165,-165,165,,165,,,,,,165
5,Sergey Nechaev,Сергей Нечаев,M,90,Yes,B,Raw,1971-07-20,Open,88.1,,,,,,155,162.5,-167.5,,162.5,,,,,,162.5
6,Aleksandr Nedosekin,Александр Недосекин,M,90,Yes,B,Raw,1988-08-08,Open,85,,,,,,150,160,-170,,160,,,,,,160
DD,Rinat Gatiyatullin,Ринат Гатиятуллин,M,90,Yes,B,Raw,1982-11-25,Open,86.4,,,,,,145,155,-160,,155,,,,,,
7,Eduard Gibadullin,Эдуард Гибадуллин,M,90,Yes,B,Raw,1981-11-24,Open,89.1,,,,,,-150,150,155,,155,,,,,,155
8,Sergey Kotov,Сергей Котов,M,90,Yes,B,Raw,1976-08-07,Open,89.4,,,,,,130,140,-145,,140,,,,,,140
DQ,Sergey Borodin,Сергей Бородин,M,90,Yes,B,Raw,1982-08-26,Open,88.4,,,,,,-145,-145,-155,,,,,,,,
1,Vladimir Nikonov,Владимир Никонов,M,90,Yes,B,Raw,1966-12-21,M1,89.8,,,,,,162.5,170,-172.5,,170,,,,,,170
1,Andrey Noritsyn,Андрей Норицын,M,90,Yes,B,Raw,1963-07-30,M2,89.2,,,,,,150,160,-162.5,,160,,,,,,160
2,Anatoliy Gorelov,Анатолий Горелов,M,90,Yes,B,Raw,1962-01-24,M2,89.1,,,,,,120,125,130,,130,,,,,,130
1,Aleksandr Komkov,Александр Комков,M,90,Yes,B,Raw,1959-08-09,M3,88.8,,,,,,135,145,-150,,145,,,,,,145
2,Valeriy Zheleznov,Валерий Железнов,M,90,Yes,B,Raw,1959-09-05,M3,89.4,,,,,,140,145,-152.5,,145,,,,,,145
1,Yuriy Kotov,Юрий Котов,M,90,Yes,B,Raw,1951-06-22,M4,84.1,,,,,,120,-125,-130,,120,,,,,,120
1,Kirill Khvostov,Кирилл Хвостов,M,100,Yes,B,Raw,1995-08-26,T1,97.2,,,,,,85,-92.5,92.5,,92.5,,,,,,92.5
2,Vasiliy Yankovich,Василий Янкович,M,100,Yes,B,Raw,1997-07-01,T1,96,,,,,,65,72.5,77.5,,77.5,,,,,,77.5
1,Kirill Danilin,Кирилл Данилин,M,100,Yes,B,Raw,1991-07-09,T3,99.1,,,,,,137.5,145,-150,,145,,,,,,145
1,Ilya Pakhomov,Илья Пахомов,M,100,Yes,B,Raw,1988-08-21,Juniors,99,,,,,,170,180,-185,,180,,,,,,180
2,Artyom Fedyanin,Артём Федянин,M,100,Yes,B,Raw,1988-06-08,Juniors,99,,,,,,-155,-155,155,,155,,,,,,155
3,Dmitriy Trukhanov,Дмитрий Труханов,M,100,Yes,B,Raw,1989-10-09,Juniors,94.5,,,,,,130,142.5,-147.5,,142.5,,,,,,142.5
4,Aleksey Shtennikov,Алексей Штенников,M,100,Yes,B,Raw,1991-01-04,Juniors,94.5,,,,,,132.5,142.5,-145,,142.5,,,,,,142.5
5,Aleksey Ilichyov,Алексей Ильичёв,M,100,Yes,B,Raw,1988-05-26,Juniors,96.4,,,,,,-125,130,137.5,,137.5,,,,,,137.5
DQ,Aleksandr Fedotov,Александр Федотов,M,100,Yes,B,Raw,1989-05-16,Juniors,96.2,,,,,,-140,-140,-140,,,,,,,,
1,Pavel Galayda,Павел Галайда,M,100,Yes,B,Raw,1968-06-03,M1,95.8,,,,,,165,170,-172.5,,170,,,,,,170
2,Andrey Astakhovskiy,Андрей Астаховский,M,100,Yes,B,Raw,1967-11-12,M1,93.4,,,,,,152.5,162.5,165,,165,,,,,,165
3,Igor Tsivilev,Игорь Цивилев,M,100,Yes,B,Raw,1971-02-16,M1,99.2,,,,,,165,-172.5,-172.5,,165,,,,,,165
DD,Evgeniy Fadeev,Евгений Фадеев,M,100,Yes,B,Raw,1967-01-28,M1,100,,,,,,145,155,165,,165,,,,,,
4,Aleksandr Terentev,Александр Терентьев,M,100,Yes,B,Raw,1969-02-15,M1,97.4,,,,,,155,-162.5,-162.5,,155,,,,,,155
5,Konstantin Talda,Константин Талда,M,100,Yes,B,Raw,1971-01-09,M1,97.9,,,,,,150,-157.5,,,150,,,,,,150
1,Vladimir Pleshakov,Владимир Плешаков,M,100,Yes,B,Raw,1965-09-03,M2,93.8,,,,,,135,142.5,145,,145,,,,,,145
2,Aleksandr Ulanov,Александр Уланов,M,100,Yes,B,Raw,1964-01-11,M2,97.3,,,,,,132.5,137.5,-142.5,,137.5,,,,,,137.5
1,Vladimir Shibaev,Владимир Шибаев,M,100,Yes,B,Raw,1960-02-05,M3,98.4,,,,,,165,170,172.5,,172.5,,,,,,172.5
1,Vladimir Makeev,Владимир Макеев,M,100,Yes,B,Raw,1947-02-21,M5,92.6,,,,,,100,-107.5,-112.5,,100,,,,,,100
1,Andrey Marchuk,Андрей Марчук,M,100,Yes,B,Raw,1978-02-10,Open,97.7,,,,,,185,195,200,,200,,,,,,200
2,Vyacheslav Starchenkov,Вячеслав Старченков,M,100,Yes,B,Raw,1984-12-31,Open,90.1,,,,,,180,187.5,-192.5,,187.5,,,,,,187.5
3,Sergey Plakhotin,Сергей Плахотин,M,100,Yes,B,Raw,1986-11-09,Open,94.1,,,,,,165,175,180,,180,,,,,,180
4,Ilya Pakhomov,Илья Пахомов,M,100,Yes,B,Raw,1988-08-21,Open,99,,,,,,180,,,,180,,,,,,180
5,Vladimir Shibaev,Владимир Шибаев,M,100,Yes,B,Raw,1960-02-05,Open,98.4,,,,,,172.5,,,,172.5,,,,,,172.5
6,Andrey Dobryakov,Андрей Добряков,M,100,Yes,B,Raw,1975-04-27,Open,97.7,,,,,,-170,170,,,170,,,,,,170
7,Andrey Tagankin,Андрей Таганкин,M,100,Yes,B,Raw,1984-10-03,Open,97.9,,,,,,167.5,-172.5,-172.5,,167.5,,,,,,167.5
8,Denis Markov,Денис Марков,M,100,Yes,B,Raw,1979-04-28,Open,98.5,,,,,,167.5,-170,-170,,167.5,,,,,,167.5
9,Andrey Sorokin,Андрей Сорокин,M,100,Yes,B,Raw,1976-07-13,Open,96.7,,,,,,140,145,-147.5,,145,,,,,,145
DQ,Aleksey Krivosheya,Алексей Кривошея,M,100,Yes,B,Raw,1975-09-01,Open,99.9,,,,,,-160,-160,-160,,,,,,,,
1,Stanislav Moskalenko,Станислав Москаленко,M,110,Yes,B,Raw,1992-11-17,T3,108.2,,,,,,160,-170,-170,,160,,,,,,160
1,Evgeniy Davletshin,Евгений Давлетшин,M,110,Yes,B,Raw,1975-05-08,Open,106.1,,,,,,-195,195,-200,,195,,,,,,195
2,Aleksandr Sapozhnikov,Александр Сапожников,M,110,Yes,B,Raw,1974-12-11,Open,106.6,,,,,,170,-177.5,180,,180,,,,,,180
3,Anton Lapin,Антон Лапин,M,110,Yes,B,Raw,1985-03-16,Open,107.4,,,,,,160,-167.5,-167.5,,160,,,,,,160
4,Evgeniy Fyodorov,Евгений Фёдоров,M,110,Yes,B,Raw,1981-02-09,Open,105.7,,,,,,-140,147.5,-152.5,,147.5,,,,,,147.5
5,Evgeniy Sapozhnikov,Евгений Сапожников,M,110,Yes,B,Raw,1978-03-06,Open,102.5,,,,,,140,-150,-150,,140,,,,,,140
1,Aleksey Tereshchenko,Алексей Терещенко,M,110,Yes,B,Raw,1968-02-12,M1,103.6,,,,,,155,162.5,167.5,,167.5,,,,,,167.5
2,Aleksey Chernysh,Алексей Черныш,M,110,Yes,B,Raw,1967-05-10,M1,104.4,,,,,,150,160,-170,,160,,,,,,160
3,Nikolay Noskov,Николай Носков,M,110,Yes,B,Raw,1970-05-18,M1,101.7,,,,,,150,-160,-167.5,,150,,,,,,150
4,Eduard Boyarkin,Эдуард Бояркин,M,110,Yes,B,Raw,1969-07-28,M1,102.5,,,,,,120,-130,-130,,120,,,,,,120
DQ,Ivan Kazantsev,Иван Казанцев,M,110,Yes,B,Raw,1967-09-29,M1,100.4,,,,,,-150,-150,-150,,,,,,,,
1,Pavel Vishnitskiy,Павел Вишницкий,M,110,Yes,B,Raw,1964-10-28,M2,109.2,,,,,,130,140,-150,,140,,,,,,140
1,Ramil Safarov,Рамил Сафаров,M,125,Yes,B,Raw,1968-04-08,Open,121.7,,,,,,-187.5,192.5,202.5,,202.5,,,,,,202.5
2,Denis Detkov,Денис Детков,M,125,Yes,B,Raw,1977-01-09,Open,124,,,,,,-192.5,192.5,-195,,192.5,,,,,,192.5
3,Pavel Karamalak,Павел Карамалак,M,125,Yes,B,Raw,1973-06-30,Open,125,,,,,,175,-185,185,,185,,,,,,185
DD,Mikhail Zinets,Михаил Зинец,M,125,Yes,B,Raw,1974-05-08,Open,122.5,,,,,,-175,175,-177.5,,175,,,,,,
4,Vitaliy Ignatov,Виталий Игнатов,M,125,Yes,B,Raw,1979-03-20,Open,122.6,,,,,,160,-170,-170,,160,,,,,,160
DQ,Vadim Malev,Вадим Малев,M,125,Yes,B,Raw,1972-01-02,Open,112.7,,,,,,-165,-175,-175,,,,,,,,
1,Ramil Safarov,Рамил Сафаров,M,125,Yes,B,Raw,1968-04-08,M1,121.7,,,,,,-187.5,192.5,202.5,,202.5,,,,,,202.5
2,Dmitriy Blednov,Дмитрий Бледнов,M,125,Yes,B,Raw,1970-06-24,M1,124.1,,,,,,185,192.5,-197.5,,192.5,,,,,,192.5
1,Andrey Stolbov,Андрей Столбов,M,125,Yes,B,Raw,1964-05-28,M2,115.4,,,,,,165,175,177.5,,177.5,,,,,,177.5
1,Vyacheslav Latyshev,Вячеслав Латышев,M,140,Yes,B,Raw,1974-06-05,Open,125.7,,,,,,200,205,-207.5,,205,,,,,,205
1,Oleg Melentev,Олег Мелентьев,M,140+,Yes,B,Raw,1972-07-05,Open,147.3,,,,,,180,190,,,190,,,,,,190
1,Nadezhda Reutova,Надежда Реутова,F,56,Yes,B,Multi-ply,1993-01-30,T3,53,,,,,,70,-72.5,,,70,,,,,,70
2,Yuliya Biktasheva,Юлия Бикташева,F,56,Yes,B,Multi-ply,1989-12-08,Juniors,55.7,,,,,,40,45,-52.5,,45,,,,,,45
1,Marina Yakubova,Марина Якубова,F,60,Yes,B,Multi-ply,1990-02-12,Juniors,60,,,,,,-50,-55,55,,55,,,,,,55
1,Natalya Korenkova,Наталья Коренкова,F,67.5,Yes,B,Multi-ply,1980-01-07,Open,65.8,,,,,,100,107.5,112.5,,112.5,,,,,,112.5
2,Anna Burylova,Анна Бурылова,F,67.5,Yes,B,Multi-ply,1986-07-08,Open,67.4,,,,,,-90,90,-100,,90,,,,,,90
1,Ayrat Sufiyanov,Айрат Суфиянов,M,60,Yes,B,Multi-ply,1984-03-02,Open,59.9,,,,,,-145,-145,145,150,145,,,,,,145
1,Vladimir Kondratev,Владимир Кондратьев,M,67.5,Yes,B,Multi-ply,1994-05-23,T2,63.8,,,,,,120,-125,-130,,120,,,,,,120
1,Semyon Filyakin,Семён Филякин,M,67.5,Yes,B,Multi-ply,1991-06-04,T3,66.6,,,,,,140,-162.5,-162.5,,140,,,,,,140
DQ,Anton Mogilevskiy,Антон Могилевский,M,67.5,Yes,B,Multi-ply,1991-03-10,Juniors,62.5,,,,,,-165,-165,-165,,,,,,,,
1,Vyacheslav Shepelev,Вячеслав Шепелев,M,67.5,Yes,B,Multi-ply,1976-02-17,Open,66.7,,,,,,-120,120,137.5,,137.5,,,,,,137.5
2,Ravil Masalimov,Равиль Масалимов,M,67.5,Yes,B,Multi-ply,1985-02-27,Open,61.8,,,,,,120,130,-137.5,,130,,,,,,130
1,Alik Ganeev,Алик Ганеев,M,67.5,Yes,B,Multi-ply,1970-10-29,M1,66.4,,,,,,115,-122.5,-122.5,,115,,,,,,115
1,Yuriy Kiselev,Юрий Киселев,M,67.5,Yes,B,Multi-ply,1937-11-12,M7,63.9,,,,,,65,70,,,70,,,,,,70
1,Egor Samoylov,Егор Самойлов,M,75,Yes,B,Multi-ply,1993-06-15,T2,74.2,,,,,,150,-157.5,-162.5,,150,,,,,,150
1,Mikhail Rybin,Михаил Рыбин,M,75,Yes,B,Multi-ply,1979-09-10,Open,72.6,,,,,,130,137.5,-142.5,,137.5,,,,,,137.5
1,Sergey Bychkov,Сергей Бычков,M,75,Yes,B,Multi-ply,1964-11-29,M2,72.3,,,,,,-100,100,-110,,100,,,,,,100
1,Sergey Alampiev,Сергей Алампиев,M,75,Yes,B,Multi-ply,1957-04-07,M3,67.8,,,,,,90,100,105,,105,,,,,,105
1,Alexander Karpenko,Александр Карпенко,M,82.5,Yes,B,Multi-ply,1992-04-25,T3,76.8,,,,,,-186,186,-192.5,,186,,,,,,186
2,Artush Karapetyan,Артуш Карапетян,M,82.5,Yes,B,Multi-ply,1991-10-20,T3,82.4,,,,,,-155,155,-162.5,,155,,,,,,155
1,Dmitriy Karpov,Дмитрий Карпов,M,82.5,Yes,B,Multi-ply,1988-02-20,Juniors,76.8,,,,,,130,140,150,,150,,,,,,150
2,Maksim Chirkov,Максим Чирков,M,82.5,Yes,B,Multi-ply,1987-05-23,Juniors,78.7,,,,,,115,120,125,,125,,,,,,125
1,Viktor Mistratov,Виктор Мистратов,M,82.5,Yes,B,Multi-ply,1981-02-10,Open,81.2,,,,,,-215,-215,215,,215,,,,,,215
2,Yuriy Kachkovskiy,Юрий Качковский,M,82.5,Yes,B,Multi-ply,1978-04-03,Open,81.1,,,,,,-195,195,-215,,195,,,,,,195
3,Dmitriy Khrapuzov,Дмитрий Храпузов,M,82.5,Yes,B,Multi-ply,1980-05-19,Open,80.8,,,,,,-140,-150,150,,150,,,,,,150
4,Rinat Galeev,Ринат Галеев,M,82.5,Yes,B,Multi-ply,1974-03-28,Open,80.9,,,,,,-125,125,-132.5,,125,,,,,,125
1,Valeriy Trubin,Валерий Трубин,M,82.5,Yes,B,Multi-ply,1968-06-22,M1,82.4,,,,,,150,170,-180,,170,,,,,,170
1,Konstantin Smirnov,Константин Смирнов,M,82.5,Yes,B,Multi-ply,1962-07-15,M2,81.9,,,,,,125,135,140,,140,,,,,,140
1,Vyacheslav Yakushov,Вячеслав Якушов,M,82.5,Yes,B,Multi-ply,1941-09-01,M6,79,,,,,,75,85,90,,90,,,,,,90
1,Ivan Vlasov,Иван Власов,M,90,Yes,B,Multi-ply,1991-09-08,T3,86.8,,,,,,-175,175,-185,,175,,,,,,175
1,Sergey Chupakhin,Сергей Чупахин,M,90,Yes,B,Multi-ply,1988-06-09,Juniors,85.2,,,,,,160,170,175,,175,,,,,,175
1,Mikhail Kadochnikov,Михаил Кадочников,M,90,Yes,B,Multi-ply,1980-10-18,Open,87.3,,,,,,215,-225,-225,,215,,,,,,215
2,Maksim Takhtay,Максим Тахтай,M,90,Yes,B,Multi-ply,1980-11-02,Open,88.2,,,,,,200,-207.5,-207.5,,200,,,,,,200
1,Rafik Zeynalov,Рафик Зейналов,M,100,Yes,B,Multi-ply,1987-07-22,Juniors,98.6,,,,,,-170,170,-180,,170,,,,,,170
1,Andrey Tikhomirov,Андрей Тихомиров,M,100,Yes,B,Multi-ply,1978-09-22,Open,98.6,,,,,,230,240,250,,250,,,,,,250
2,Mikhail Veber,Михаил Вебер,M,100,Yes,B,Multi-ply,1971-07-29,Open,90.7,,,,,,-235,235,240,245,240,,,,,,240
3,Andrey Dobryakov,Андрей Добряков,M,100,Yes,B,Multi-ply,1975-04-27,Open,97.7,,,,,,215,225,-227.5,,225,,,,,,225
4,Aleksandr Belyaev,Александр Беляев,M,100,Yes,B,Multi-ply,1972-09-29,Open,99.3,,,,,,-220,220,-227.5,,220,,,,,,220
5,Sergey Martyanov,Сергей Мартьянов,M,100,Yes,B,Multi-ply,1975-02-25,Open,98.8,,,,,,-215,215,-227.5,,215,,,,,,215
6,Artem Kochnev,Артем Кочнев,M,100,Yes,B,Multi-ply,1983-05-28,Open,94.1,,,,,,200,210,-215,,210,,,,,,210
7,Yuriy Ostrov,Юрий Остров,M,100,Yes,B,Multi-ply,1962-09-05,Open,97.2,,,,,,-190,190,-195,,190,,,,,,190
DQ,Georgiy Paradiz,Георгий Парадиз,M,100,Yes,B,Multi-ply,1975-05-14,Open,98,,,,,,-220,-220,-220,,,,,,,,
1,Konstantin Talda,Константин Талда,M,100,Yes,B,Multi-ply,1971-01-09,M1,97.9,,,,,,190,-200,-200,,190,,,,,,190
1,Yuriy Ostrov,Юрий Остров,M,100,Yes,B,Multi-ply,1962-09-05,M2,97.2,,,,,,-190,190,-195,,190,,,,,,190
1,Dmitriy Khanykov,Дмитрий Ханыков,M,110,Yes,B,Multi-ply,1983-12-02,Open,107.2,,,,,,270,-280,-280,,270,,,,,,270
DD,Aleksandr Medvedev,Александр Медведев,M,110,Yes,B,Multi-ply,1971-12-14,Open,107.6,,,,,,215,225,235,,235,,,,,,
1,Pavel Klevakin,Павел Клевакин,M,110,Yes,B,Multi-ply,1969-10-19,M1,101.6,,,,,,-250,255,-260,,255,,,,,,255
1,Salmanov Shamkhalov,Салманов Шамхалов,M,110,Yes,B,Multi-ply,1952-08-29,M4,108.2,,,,,,190,-195,-202.5,,190,,,,,,190
1,Andrey Makarov,Андрей Макаров,M,125,Yes,B,Multi-ply,1993-07-22,T2,118.7,,,,,,180,192.5,202.5,210,202.5,,,,,,202.5
1,Vladimir Poletaev,Владимир Полетаев,M,125,Yes,B,Multi-ply,1972-10-19,Open,113.5,,,,,,280,-300,300,,300,,,,,,300
2,Sergey Lomakin,Сергей Ломакин,M,125,Yes,B,Multi-ply,1982-07-09,Open,117.1,,,,,,-235,-235,235,,235,,,,,,235
3,Pavel Shcheglov,Павел Щеглов,M,125,Yes,B,Multi-ply,1978-07-18,Open,124.2,,,,,,212.5,-225,225,,225,,,,,,225
DQ,Valeriy Kurochkin,Валерий Курочкин,M,125,Yes,B,Multi-ply,1978-11-09,Open,112.7,,,,,,-270,-290,-310,,,,,,,,
1,Evgeniy Formin,Евгений Формин,M,125,Yes,B,Multi-ply,1967-09-25,M1,123.7,,,,,,-230,-235,240,,240,,,,,,240
1,Pavel Yagovkin,Павел Яговкин,M,125,Yes,B,Multi-ply,1959-07-27,M3,118,,,,,,220,-235,-235,,220,,,,,,220
1,Vasiliy Filatov,Василий Филатов,M,140,Yes,B,Multi-ply,1986-09-29,Open,127.2,,,,,,-250,250,-260,,250,,,,,,250
1,Mikhail Nekrasov,Михаил Некрасов,M,140,Yes,B,Multi-ply,1969-11-19,M1,138.7,,,,,,245,-257.5,-257.5,,245,,,,,,245
1,Oleg Kozyrev,Олег Козырев,M,140+,Yes,B,Multi-ply,1975-03-01,Open,207.8,,,,,,-280,280,-300,,280,,,,,,280
2,Oleg Melentev,Олег Мелентьев,M,140+,Yes,B,Multi-ply,1972-07-05,Open,147.3,,,,,,-240,240,-265,,240,,,,,,240
1,Yulia Medvedeva,Юлия Медведева,F,75,No,SBD,Multi-ply,1979-07-08,Open,73.9,250,-270.5,-270.5,,250,165,175,183,,183,200,220,-230,,220,652.5
1,Vladimir Ubeyvolk,Владимир Убейволк,M,56,No,SBD,Multi-ply,1992-08-12,T3,53.9,175,190,-195,,190,115,125,-130,,125,-175,175,-195,,175,490
1,Aleksandr Onuchin,Александр Онучин,M,56,No,SBD,Multi-ply,1978-04-08,Open,54.2,150,162.5,-170,,162.5,105,107.5,112.5,,112.5,175,190,-200,,190,465
1,Vitaliy Alyaev,Виталий Аляев,M,60,No,SBD,Multi-ply,1995-09-09,T1,59.7,155,165,172.5,,172.5,80,85,90,,90,150,160,165,,165,427.5
1,Aleksandr Petukhov,Александр Петухов,M,67.5,No,SBD,Multi-ply,1995-11-18,T1,67.1,-190,195,205,,205,110,120,130,,130,-210,215,-220,,215,550
2,Denis Kachesov,Денис Качесов,M,67.5,No,SBD,Multi-ply,1995-07-05,T1,61.4,175,-190,-200,,175,100,110,-120,,110,170,180,-190,,180,465
3,Roman Shafeev,Роман Шафеев,M,67.5,No,SBD,Multi-ply,1996-07-23,T1,60.7,130,-145,160,,160,70,-80,-85,,70,135,145,-160,,145,375
1,Artem Pisarenko,Артем Писаренко,M,75,No,SBD,Multi-ply,1993-09-01,T2,74.6,-280,-280,280,,280,-155,155,160,,160,220,-235,235,,235,675
2,Anatoliy Nosov,Анатолий Носов,M,75,No,SBD,Multi-ply,1995-02-28,T2,70.7,-150,150,-170,,150,85,95,-100,,95,150,160,175,,175,420
1,Dmitriy Yakovlev,Дмитрий Яковлев,M,75,No,SBD,Multi-ply,1992-02-10,T3,74.2,260,275,285,,285,-160,160,170,,170,200,220,-240,,220,675
DQ,Denis Khomutov,Денис Хомутов,M,75,No,SBD,Multi-ply,1991-08-12,T3,73,-270,-270,-270,,,,,,,,,,,,,
1,Maksim Shvarts,Максим Шварц,M,75,No,SBD,Multi-ply,1989-11-29,Juniors,73.3,270,280,-290,,280,145,155,-162.5,,155,240,255,265,,265,700
1,Anatoliy Glazunov,Анатолий Глазунов,M,75,No,SBD,Multi-ply,1972-02-09,Open,74.4,-280,280,-320,,280,170,185,-200,,185,230,250,260,,260,725
2,Sergey Statsuk,Сергей Стацук,M,75,No,SBD,Multi-ply,1982-09-02,Open,71.2,210,225,-240,,225,-130,130,-140,,130,200,210,220,,220,575
1,Aleksandr Aksenov,Александр Аксенов,M,82.5,No,SBD,Multi-ply,1993-01-25,T3,79.8,200,210,-230,,210,115,125,135,,135,200,225,240,,240,585
1,Zaurbek Bagulov,Заурбек Багулов,M,82.5,No,SBD,Multi-ply,1990-03-01,Juniors,80.2,245,-260,260,,260,180,200,-210,,200,240,-260,-270,,240,700
2,Mikhail Maznyak,Михаил Мазняк,M,82.5,No,SBD,Multi-ply,1990-01-01,Juniors,77,-170,180,200,,200,140,-145,,,140,-220,220,-230,,220,560
1,Denis Shidlovskiy,Денис Шидловский,M,82.5,No,SBD,Multi-ply,1983-12-20,Open,81.9,230,250,265,,265,-140,140,-150,,140,200,-215,-215,,200,605
DQ,Yuriy Shulga,Юрий Шульга,M,82.5,No,SBD,Multi-ply,1983-10-24,Open,82.3,-350,-350,-350,,,,,,,,,,,,,
DQ,Ivan Ivakin,Иван Ивакин,M,90,No,SBD,Multi-ply,1995-04-15,T1,88.1,170,175,-180,,175,105,-115,125,,125,-200,-200,-200,,,
1,Danil Ivandikov,Данил Ивандиков,M,90,No,SBD,Multi-ply,1994-11-08,T2,88.3,190,210,-217.5,,210,-130,130,145,,145,160,180,-190,,180,535
1,Andrey Koldovskiy,Андрей Колдовский,M,90,No,SBD,Multi-ply,1992-08-05,T3,87.8,190,200,-210,,200,90,-100,100,,100,-170,175,185,,185,485
2,Aleksandr Zhukov,Александр Жуков,M,90,No,SBD,Multi-ply,1993-03-23,T3,89.2,175,185,-192.5,,185,100,-110,-110,,100,165,175,185,,185,470
1,Roman Tsarkov,Роман Царьков,M,90,No,SBD,Multi-ply,1980-02-11,Juniors,86.2,230,-240,-245,,230,140,150,160,,160,-215,215,230,,230,620
DQ,Vasiliy Ludin,Василий Лудин,M,90,No,SBD,Multi-ply,1988-04-20,Juniors,88.9,-335,-335,-335,,,,,,,,,,,,,
1,Ilya Lebedev,Илья Лебедев,M,90,No,SBD,Multi-ply,1972-02-12,Open,90,285,315,-330,,315,180,-200,205,,205,250,280,-290,,280,800
DQ,Maxim Piskunov,Максим Пискунов,M,90,No,SBD,Multi-ply,1982-07-24,Open,89.7,-390,-390,-400,,,,,,,,,,,,,
1,Eduard Isakov,Эдуард Исаков,M,90,No,SBD,Multi-ply,1966-07-18,M1,86.9,200,210,-220,,210,185,195,-205,,195,200,-220,220,,220,625
1,Aleksandr Zhilin,Александр Жилин,M,90,No,SBD,Multi-ply,1965-10-14,M2,85.7,160,-175,-180,,160,150,160,-165,,160,160,180,190,,190,510
1,Vladimir Potapov,Владимир Потапов,M,90,No,SBD,Multi-ply,1954-05-22,M4,89.9,215,-225,-225,,215,160,-165,165,,165,170,180,190,,190,570
1,Aleksandr Panaskin,Александр Панаскин,M,100,No,SBD,Multi-ply,1991-06-27,T3,94.6,-310,310,340,,340,-220,-220,220,235.5,220,260,280,-300,,280,840
DQ,Denis Mosharov,Денис Мошаров,M,100,No,SBD,Multi-ply,1992-01-31,T3,98.8,-285,290,-310,,290,-180,,,,,,,,,,
1,Aleksandr Kopytov,Александр Копытов,M,100,No,SBD,Multi-ply,1990-03-05,Juniors,96.9,200,215,230,,230,130,140,150,,150,160,175,200,,200,580
1,Aleksandr Panaskin,Александр Панаскин,M,100,No,SBD,Multi-ply,1991-06-27,Open,94.6,-310,310,340,,340,-220,-220,220,,220,260,280,-300,,280,840
2,Yuriy Ustinov,Юрий Устинов,M,100,No,SBD,Multi-ply,1975-05-10,Open,93.8,280,300,320,,320,180,195,-202.5,,195,260,280,,,280,795
3,Aleksandr Dorokhov,Александр Дорохов,M,100,No,SBD,Multi-ply,1983-03-13,Open,91.4,-310,310,,,310,160,170,-180,,170,245,250,-260,,250,730
DQ,Daniil Savelev,Даниил Савельев,M,100,No,SBD,Multi-ply,1978-01-04,Open,98.4,-280,-300,-300,,,,,,,,,,,,,
DQ,Eduard Maksimov,Эдуард Максимов,M,100,No,SBD,Multi-ply,1971-11-20,Open,99.7,-320,-320,-320,,,,,,,,,,,,,
1,Dmitriy Chertushkin,Дмитрий Чертушкин,M,100,No,SBD,Multi-ply,1965-08-15,M2,99.3,220,230,-240,,230,-190,-190,190,,190,190,205,,,205,625
1,Petr Romanov,Петр Романов,M,110,No,SBD,Multi-ply,1980-07-21,Open,107.4,220,240,-260,,240,180,-190,-190,,180,-220,240,,,240,660
1,Ruslan Akhmetov,Руслан Ахметов,M,110,No,SBD,Multi-ply,1960-04-11,M3,108.8,270,,,,270,190,,,,190,210,,,,210,670
1,Pavel Laptyonok,Павел Лаптёнок,M,110,No,SBD,Multi-ply,1953-01-26,M4,106.4,210,230,,,230,150,-162.5,170,,170,210,225,,,225,625
1,Sergey Poltavtsev,Сергей Полтавцев,M,110,No,SBD,Multi-ply,1950-09-22,M5,103.2,210,-220,-225,,210,205,-210,-212.5,,205,215,230,250,,250,665
1,Mikhail Glazunov,Михаил Глазунов,M,125,No,SBD,Multi-ply,1974-02-09,Open,117,380,-400,400,,400,250,270,-282.5,,270,340,370,,,370,1040
2,Yuriy Dmitrenko,Юрий Дмитренко,M,125,No,SBD,Multi-ply,1983-10-25,Open,111.7,280,300,-315,,300,155,-165,165,,165,230,240,250,,250,715
1,Viktor Malyugin,Виктор Малюгин,M,140,No,SBD,Multi-ply,1990-08-18,Juniors,132.4,380,-410,,,380,290,305,310,,310,100,,,,100,790
1,Artem Livanov,Артем Ливанов,M,140+,No,SBD,Multi-ply,1987-05-04,Juniors,163.9,240,-260,-260,,240,150,-170,-170,,150,240,260,-270,,260,650
1,Artem Livanov,Артем Ливанов,M,140+,No,SBD,Multi-ply,1987-05-04,Open,163.9,240,-260,-260,,240,150,-170,-170,,150,240,260,-270,,260,650
1,Veronika Galiakbarova,Вероника Галиакбарова,F,56,No,SBD,Wraps,1989-06-14,Juniors,55.5,90,95,-100,,95,45,-47.5,-50,,45,105,110,117.5,,117.5,257.5
1,Anastasiya Amelina,Анастасия Амелина,F,60,No,SBD,Wraps,1988-12-01,Juniors,59.8,140,150,-155,,150,70,75,-80,,75,157.5,172.5,,,172.5,397.5
1,Anastasiya Amelina,Анастасия Амелина,F,60,No,SBD,Wraps,1988-12-01,Open,59.8,140,150,-155,,150,70,75,-80,,75,157.5,172.5,,,172.5,397.5
DQ,Elena Tokareva,Елена Токарева,F,67.5,No,SBD,Wraps,1988-03-03,Open,67.4,100,-107.5,107.5,,107.5,60,-65,65,,65,-120,-120,-120,,,
1,Oleg Barskov,Олег Барсков,M,52,No,SBD,Wraps,1996-10-19,T1,50.6,70,-80,-85,,70,-50,-50,50,,50,115,125,-130,,125,245
1,Nikolay Gradoboev,Николай Градобоев,M,60,No,SBD,Wraps,1989-05-07,Juniors,57.2,-90,95,102.5,,102.5,-82.5,85,-92.5,,85,135,142.5,150,,150,337.5
1,Vladislav Korkin,Владислав Коркин,M,67.5,No,SBD,Wraps,1993-12-23,T2,64.2,130,-140,-140,,130,80,90,-96,,90,145,155,162.5,,162.5,382.5
1,Dmitriy Mitin,Дмитрий Митин,M,67.5,No,SBD,Wraps,1992-02-18,T3,65.9,110,-117.5,120,,120,82.5,-90,90,,90,150,160,170,,170,380
1,Vasiliy Ankushin,Василий Анкушин,M,67.5,No,SBD,Wraps,1939-02-18,M7,67.3,105,110,115,,115,75,80,-83,,80,140,150,,,150,345
1,Nikolay Goryutskiy,Николай Горюцкий,M,75,No,SBD,Wraps,1994-03-31,T2,73.4,145,152.5,160,,160,90,97.5,100,,100,160,172.5,-182.5,,172.5,432.5
2,Vadim Bezdykhanyuk,Вадим Бездыханюк,M,75,No,SBD,Wraps,1993-06-08,T2,74.6,110,117.5,122.5,,122.5,92.5,97.5,105,,105,140,-150,-150,,140,367.5
1,Dmitriy Solonnikov,Дмитрий Солонников,M,75,No,SBD,Wraps,1982-07-03,Open,74.5,175,195,-200,,195,120,130,140,,140,220,230,-240,,230,565
1,Mingaley Zagirov,Мингалей Загиров,M,75,No,SBD,Wraps,1948-08-07,M5,70,100,110,120,,120,75,80,85,,85,140,152.5,162.5,165,162.5,367.5
1,Valeriy Golyshev,Валерий Голышев,M,82.5,No,SBD,Wraps,1988-09-14,Juniors,79,-180,180,-200,,180,-140,140,-150,,140,210,220,230,,230,550
1,Vyacheslav Gordeev,Вячеслав Гордеев,M,82.5,No,SBD,Wraps,1977-04-11,Open,82.3,205,215,,,215,130,140,145,,145,205,215,,,215,575
1,Andrey Shelepov,Андрей Шелепов,M,82.5,No,SBD,Wraps,1970-05-04,M1,81.9,175,-180,-180,,175,140,-147.5,-147.5,,140,200,220,,,220,535
1,Mikhail Losev,Михаил Лосев,M,82.5,No,SBD,Wraps,1953-08-01,M4,81,150,,-160,,150,85,-90,90,,90,160,170,180,,180,420
1,Sergey Druzhkov,Сергей Дружков,M,82.5,No,SBD,Wraps,1950-01-01,M5,82.1,120,140,160,165,160,120,125,130,132.5,130,120,140,160,165,160,450
1,Yuriy Chepets,Юрий Чепец,M,82.5,No,SBD,Wraps,1943-04-19,M6,81.4,175,195,-210.5,,195,130,150.5,-153,,150.5,180,-200,200,,200,545
1,Anton Terentev,Антон Терентьев,M,90,No,SBD,Wraps,1994-08-05,T2,90,135,142.5,150,,150,92.5,-100,100,,100,170,180,200,,200,450
1,Aleksey Bazhenov,Алексей Баженов,M,90,No,SBD,Wraps,1977-11-01,Open,88.3,225,235,245,,245,167.5,177.5,185,,185,260,-272.5,-272.5,,260,690
DQ,Oleg Valiev,Олег Валиев,M,90,No,SBD,Wraps,1985-03-09,Open,89.9,-210,-210,-210,,,,,,,,,,,,,
1,Lev Vostrykh,Лев Вострых,M,90,No,SBD,Wraps,1955-10-30,M4,89.3,140,150,,,150,100,105,-110,,105,160,175,190,,190,445
1,Sergey Shakhnovich,Сергей Шахнович,M,100,No,SBD,Wraps,1991-05-08,T3,97.6,-230,230,-237.5,,230,160,170,177.5,,177.5,230,235,-242.5,,235,642.5
2,Ivan Savinov,Иван Савинов,M,100,No,SBD,Wraps,1992-11-22,T3,94.1,210,220,-235,,220,-155,155,160,,160,-240,-240,240,,240,620
1,Leonid Khramov,Леонид Храмов,M,100,No,SBD,Wraps,1987-08-03,Juniors,97.5,180,200,210,,210,135,-145,147.5,,147.5,180,217.5,227.5,,227.5,585
2,Sergey Aldoshkin,Сергей Алдошкин,M,100,No,SBD,Wraps,1988-07-02,Juniors,98.5,180,200,-210,,200,125,135,145,,145,200,220,240,,240,585
1,Igor Umerenkov,Игорь Умеренков,M,100,No,SBD,Wraps,1980-09-13,Open,97,220,232.5,-245,,232.5,165,172.5,177.5,,177.5,260,272.5,280,,280,690
2,Vitaliy Dubrovin,Виталий Дубровин,M,100,No,SBD,Wraps,1982-08-06,Open,95.7,-240,240,252.5,,252.5,162.5,170,175,,175,250,-260,-260,,250,677.5
3,Aleksandr Merkurev,Александр Меркурьев,M,100,No,SBD,Wraps,1985-12-01,Open,98.2,210,215,217.5,,217.5,150,155,-157.5,,155,250,-257.5,257.5,,257.5,630
4,Aleksandr Nikitin,Александр Никитин,M,100,No,SBD,Wraps,1973-09-15,Open,93.4,190,200,205,,205,150,157.5,162.5,,162.5,230,237.5,242.5,,242.5,610
DQ,Oleg Muslimov,Олег Муслимов,M,100,No,SBD,Wraps,1986-12-14,Open,94.4,-200,-210,-210,,,,,,,,,,,,,
1,Aleksey Kozlov,Алексей Козлов,M,100,No,SBD,Wraps,1970-05-19,M1,99.9,215,225,235,,235,170,177.5,182.5,190.5,182.5,270,290,300,,300,717.5
2,Oleg Vrublevskiy,Олег Врублевский,M,100,No,SBD,Wraps,1968-05-10,M1,92.4,165,175,185,,185,130,135,140,,140,200,215,220,,220,545
1,Aslambek Abaev,Асламбек Абаев,M,100,No,SBD,Wraps,1959-06-08,M3,95.2,240,250,260,,260,190,200,-207.5,,200,250,260,270,,270,730
1,Aleksandr Babkin,Александр Бабкин,M,100,No,SBD,Wraps,1955-02-23,M4,95.8,-160,160,170,,170,125,130,135,,135,190,200,-210,,200,505
1,Khetag Kusaev,Хетаг Кусаев,M,110,No,SBD,Wraps,1991-07-07,T3,102.2,190,200,215,,215,140,150,160,,160,100,,,,100,475
DQ,Mikhail Sekov,Михаил Секов,M,110,No,SBD,Wraps,1986-09-01,Open,103.7,-280,-280,-280,,,,,,,,,,,,,
1,Vadim Kulikov,Вадим Куликов,M,110,No,SBD,Wraps,1967-08-14,M1,105,-265,265,-270,,265,150,157.5,160,,160,270,285,290,,290,715
1,Ruslan Akhmetov,Руслан Ахметов,M,110,No,SBD,Wraps,1960-04-11,M3,108.8,220,250,260,,260,150,165,-175,,165,210,240,250,,250,675
1,Pavel Laptyonok,Павел Лаптёнок,M,110,No,SBD,Wraps,1953-01-26,M4,106.2,180,200,,,200,135,142.5,,,142.5,200,215,222.5,,222.5,565
1,Valeriy Bekker,Валерий Беккер,M,125,No,SBD,Wraps,1980-12-07,Open,112.9,240,250,,,250,185,195,200,,200,290,305,-315,,305,755
2,Aleksandr Nurutdinov,Александр Нурутдинов,M,125,No,SBD,Wraps,1983-05-13,Open,110.2,240,250,260,,260,170,180,185,,185,240,260,270,,270,715
1,Mariya Minibaeva,Мария Минибаева,F,52,No,B,Raw,1999-01-07,T1,50,,,,,,35,37.5,40,,40,,,,,,40
1,Rimma Kopytova,Римма Копытова,F,52,No,B,Raw,1994-05-19,T2,49.2,,,,,,32.5,37.5,40,,40,,,,,,40
1,Aleksandra Alekhanova,Александра Алеханова,F,60,No,B,Raw,1992-11-20,T3,56.4,,,,,,-57.5,57.5,-60,,57.5,,,,,,57.5
1,Galina Ilina,Галина Ильина,F,60,No,B,Raw,1990-02-15,Juniors,60,,,,,,35,-40,40,,40,,,,,,40
1,Ekaterina Reshetnikova,Екатерина Решетникова,F,67.5,No,B,Raw,1986-12-02,Open,63.5,,,,,,35,-40,42.5,,42.5,,,,,,42.5
1,Elena Tokareva,Елена Токарева,F,67.5,No,B,Raw,1988-06-04,Juniors,67,,,,,,57.5,62.5,-67.5,,62.5,,,,,,62.5
1,Elena Sheverdina,Елена Шевердина,F,75,No,B,Raw,1968-02-14,Open,73.3,,,,,,125,130,135,,135,,,,,,135
1,Elena Sheverdina,Елена Шевердина,F,75,No,B,Raw,1968-02-14,M1,73.3,,,,,,125,130,135,-137.5,135,,,,,,135
1,Aleksandr Dyner,Александр Дынер,M,52,No,B,Raw,1996-12-13,T1,51.4,,,,,,32.5,35,40,,40,,,,,,40
1,Roman Lutskin,Роман Луцкин,M,56,No,B,Raw,1991-09-09,T3,55.5,,,,,,70,75,-77.5,,75,,,,,,75
1,Igor Artemev,Игорь Артемьев,M,56,No,B,Raw,1971-12-22,Open,55.4,,,,,,122.5,-127.5,-127.5,,122.5,,,,,,122.5
1,Aleksandr Chigirev,Александр Чигирев,M,60,No,B,Raw,1996-07-05,T1,59.9,,,,,,-57.5,60,-65,,60,,,,,,60
1,Vladislav Chekalin,Владислав Чекалин,M,60,No,B,Raw,1995-03-05,T2,58.4,,,,,,102.5,-107.5,-110,,102.5,,,,,,102.5
1,Maksim Kuznetsov,Максим Кузнецов,M,60,No,B,Raw,1991-04-07,Juniors,59,,,,,,117.5,120,122.5,,122.5,,,,,,122.5
1,Oleg Artemev,Олег Артемьев,M,60,No,B,Raw,1971-12-22,Open,59.1,,,,,,125,132.5,-140,,132.5,,,,,,132.5
2,Aleksandr Khvan,Александр Хван,M,60,No,B,Raw,1969-08-06,Open,56.6,,,,,,-75,75,-85,,75,,,,,,75
1,Nikita Vishnyakov,Никита Вишняков,M,67.5,No,B,Raw,1996-01-29,T1,64.5,,,,,,72.5,77.5,82.5,,82.5,,,,,,82.5
1,Anton Noskov,Антон Носков,M,67.5,No,B,Raw,1993-10-25,T2,61,,,,,,92.5,97.5,100,,100,,,,,,100
1,Andrey Yadrintsev,Андрей Ядринцев,M,67.5,No,B,Raw,1988-01-04,Juniors,66.8,,,,,,-110,110,-115,,110,,,,,,110
1,Vladimir Ustinov,Владимир Устинов,M,67.5,No,B,Raw,1986-03-16,Open,67.1,,,,,,140,-145,145,,145,,,,,,145
2,Aleksandr Dyner,Александр Дынер,M,67.5,No,B,Raw,1974-11-16,Open,66.2,,,,,,90,-100,-110,,90,,,,,,90
1,Denis Khomutov,Денис Хомутов,M,75,No,B,Raw,1991-08-12,T3,73,,,,,,125,130,135,,135,,,,,,135
1,Aleksandr Kuzmin,Александр Кузьмин,M,75,No,B,Raw,1989-07-16,Juniors,68.3,,,,,,110,115,-122.5,,115,,,,,,115
2,Georgiy Bobov,Георгий Бобов,M,75,No,B,Raw,1988-03-27,Juniors,69.6,,,,,,90,102.5,-110,,102.5,,,,,,102.5
1,Ilya Sergeev,Илья Сергеев,M,75,No,B,Raw,1986-11-03,Open,75,,,,,,157.5,165,-170,,165,,,,,,165
2,Ilya Ilinykh,Илья Ильиных,M,75,No,B,Raw,1977-03-29,Open,73.4,,,,,,145,-147.5,-147.5,,145,,,,,,145
3,Rinat Sultanov,Ринат Султанов,M,75,No,B,Raw,1984-09-24,Open,74.7,,,,,,135,-140,-140,,135,,,,,,135
DQ,Azamat Abdurakhmanov,Азамат Абдурахманов,M,75,No,B,Raw,1984-03-26,Open,72.1,,,,,,-140,-142.5,-145,,,,,,,,
DQ,Aleksandr Sorokin,Александр Сорокин,M,75,No,B,Raw,1980-05-29,Open,74.7,,,,,,-150,-150,,,,,,,,,
1,Aleksandr Gorbunov,Александр Горбунов,M,75,No,B,Raw,1963-05-03,M2,75,,,,,,-110,110,120,,120,,,,,,120
1,Aleksandr Levin,Александр Левин,M,82.5,No,B,Raw,1994-04-23,T2,78.2,,,,,,140,150,-157.5,,150,,,,,,150
2,Aleksey Manyukov,Алексей Манюков,M,82.5,No,B,Raw,1994-07-08,T2,79.6,,,,,,95,-105,-105,,95,,,,,,95
1,Nikolay Shekhonin,Николай Шехонин,M,82.5,No,B,Raw,1992-04-13,T3,79.1,,,,,,130,140,-145,,140,,,,,,140
1,Andrey Nozhkin,Андрей Ножкин,M,82.5,No,B,Raw,1987-12-01,Juniors,80.2,,,,,,125,130,132.5,,132.5,,,,,,132.5
1,Igor Ryzhov,Игорь Рыжов,M,82.5,No,B,Raw,1984-03-23,Open,81.7,,,,,,170,180,182.5,,182.5,,,,,,182.5
2,Andrey Zheltyshev,Андрей Желтышев,M,82.5,No,B,Raw,1984-04-05,Open,80,,,,,,165,170,175,,175,,,,,,175
3,Andrey Bogatkov,Андрей Богатков,M,82.5,No,B,Raw,1975-05-12,Open,82.4,,,,,,160,170,172.5,175,172.5,,,,,,172.5
4,Pavel Saramotin,Павел Сарамотин,M,82.5,No,B,Raw,1972-05-11,Open,81.8,,,,,,140,150,-160,,150,,,,,,150
1,Sergey Druzhkov,Сергей Дружков,M,82.5,No,B,Raw,1950-01-01,M5,81.7,,,,,,120,125,127.5,130,127.5,,,,,,127.5
DQ,Ivan Bakharev,Иван Бахарев,M,90,No,B,Raw,1994-07-06,T2,88.9,,,,,,-95,-95,-95,,,,,,,,
1,Leonid Malakichev,Леонид Малакичев,M,90,No,B,Raw,1988-08-28,Juniors,87.2,,,,,,135,150,-160,,150,,,,,,150
1,Sergey Kultashov,Сергей Култашов,M,90,No,B,Raw,1979-05-11,Open,87.2,,,,,,200,207.5,-215,,207.5,,,,,,207.5
2,Aleksey Ponosov,Алексей Поносов,M,90,No,B,Raw,1983-08-12,Open,89.7,,,,,,185,192.5,197.5,,197.5,,,,,,197.5
3,Aleksey Permyakov,Алексей Пермяков,M,90,No,B,Raw,1975-03-18,Open,89.8,,,,,,180,190,197.5,,197.5,,,,,,197.5
4,Pavel Akinshin,Павел Акиньшин,M,90,No,B,Raw,1986-04-29,Open,89.2,,,,,,185,-192.5,-192.5,,185,,,,,,185
5,David Dzugkoev,Давид Дзугкоев,M,90,No,B,Raw,1985-02-28,Open,89.7,,,,,,-180,-185,185,,185,,,,,,185
6,Nikolay Mikheev,Николай Михеев,M,90,No,B,Raw,1984-05-22,Open,85.6,,,,,,165,175,182.5,,182.5,,,,,,182.5
7,Pavel Obrubov,Павел Обрубов,M,90,No,B,Raw,1974-10-17,Open,86.6,,,,,,175,-185,-185,,175,,,,,,175
8,Stanislav Galimyanov,Станислав Галимьянов,M,90,No,B,Raw,1987-08-18,Open,85.8,,,,,,90,110,-120,,110,,,,,,110
9,Sergey Timchenko,Сергей Тимченко,M,90,No,B,Raw,1983-12-01,Open,89.7,,,,,,90,105,110,,110,,,,,,110
1,Georgiy Avdonin,Георгий Авдонин,M,90,No,B,Raw,1969-09-10,M1,87.2,,,,,,152.5,160,-165,,160,,,,,,160
2,Valeriy Snigiryov,Валерий Снигирёв,M,90,No,B,Raw,1969-05-07,M1,89.8,,,,,,160,-165,-165,,160,,,,,,160
1,Vladimir Soloboev,Владимир Солобоев,M,90,No,B,Raw,1958-05-19,M3,87.7,,,,,,125,132.5,-140,,132.5,,,,,,132.5
1,Evgeniy Basov,Евгений Басов,M,90,No,B,Raw,1955-02-24,M4,84.9,,,,,,-115,115,125,,125,,,,,,125
1,Sergey Shakhnovich,Сергей Шахнович,M,100,No,B,Raw,1991-05-08,T3,97.6,,,,,,160,-175,175,-185.5,175,,,,,,175
1,Ivan Minko,Иван Минко,M,100,No,B,Raw,1988-06-15,Juniors,97.9,,,,,,180,-195,195,,195,,,,,,195
1,Pavel Zverev,Павел Зверев,M,100,No,B,Raw,1975-01-22,Open,99.2,,,,,,220,-225,,,220,,,,,,220
2,Ruslan Khakimyanov,Руслан Хакимьянов,M,100,No,B,Raw,1977-02-17,Open,95.8,,,,,,190,197.5,200,,200,,,,,,200
3,Vladimir Shchukin,Владимир Щукин,M,100,No,B,Raw,1980-03-15,Open,97.3,,,,,,185,192.5,,,192.5,,,,,,192.5
4,Aleksey Bakharev,Алексей Бахарев,M,100,No,B,Raw,1973-08-16,Open,98,,,,,,-165,-165,165,,165,,,,,,165
5,Andrey Stepanov,Андрей Степанов,M,100,No,B,Raw,1976-03-20,Open,92.1,,,,,,115,125,-135,,125,,,,,,125
6,Aleksandr Vylegzhanin,Александр Вылегжанин,M,100,No,B,Raw,1985-05-04,Open,97.1,,,,,,110,-120,-120,,110,,,,,,110
DQ,Sergey Zaytsev,Сергей Зайцев,M,100,No,B,Raw,1982-03-18,Open,96.5,,,,,,-165,-165,-170,,,,,,,,
1,Evgeniy Stuchkov,Евгений Стучков,M,100,No,B,Raw,1961-06-09,M2,99,,,,,,140,150,160,,160,,,,,,160
1,Aslambek Abaev,Асламбек Абаев,M,100,No,B,Raw,1959-06-08,M3,95.8,,,,,,190,200,205,207.5,205,,,,,,205
2,Valeriy Akentev,Валерий Акентьев,M,100,No,B,Raw,1958-03-13,M3,96.4,,,,,,145,155,-165,,155,,,,,,155
1,Dmitriy Nazarov,Дмитрий Назаров,M,110,No,B,Raw,1987-07-29,Juniors,103.5,,,,,,175,182.5,190,,190,,,,,,190
1,Oleg Saydentsal,Олег Сайденцаль,M,110,No,B,Raw,1975-03-14,Open,108.9,,,,,,245,250,-252.5,,250,,,,,,250
2,Stanislav Dimitryuk,Станислав Димитрюк,M,110,No,B,Raw,1975-04-19,Open,108,,,,,,220,230,-235,,230,,,,,,230
3,Denis Chebaev,Денис Чебаев,M,110,No,B,Raw,1979-10-30,Open,107,,,,,,210,220,227.5,,227.5,,,,,,227.5
4,Nikolay Orlov,Николай Орлов,M,110,No,B,Raw,1971-01-05,Open,107.5,,,,,,215,-222.5,-227.5,,215,,,,,,215
5,Andrey Tachanov,Андрей Тачанов,M,110,No,B,Raw,1964-08-06,Open,109,,,,,,190,-195,-195,,190,,,,,,190
6,Dmitriy Bal,Дмитрий Баль,M,110,No,B,Raw,1974-11-09,Open,109.1,,,,,,185,-202.5,-202.5,,185,,,,,,185
7,Pavel Kolbin,Павел Колбин,M,110,No,B,Raw,1976-05-10,Open,107.1,,,,,,-150,150,-167.5,,150,,,,,,150
DQ,Ivan Regulyarnyy,Иван Регулярный,M,110,No,B,Raw,1984-11-27,Open,108.8,,,,,,-190,-190,-192.5,,,,,,,,
1,Vyacheslav Rakhmanov,Вячеслав Рахманов,M,110,No,B,Raw,1969-02-06,M1,108.9,,,,,,190,200,207.5,,207.5,,,,,,207.5
1,Mikhail Strizhov,Михаил Стрижов,M,110,No,B,Raw,1964-09-22,M2,107.3,,,,,,140,150,155,,155,,,,,,155
2,Andrey Tachanov,Андрей Тачанов,M,110,No,B,Raw,1964-08-06,M2,109,,,,,,190,-195,-195,,190,,,,,,190
1,Viktor Pozdnyakov,Виктор Поздняков,M,110,No,B,Raw,1958-12-12,M3,107.5,,,,,,180,190,-200,,190,,,,,,190
1,Pavel Laptyonok,Павел Лаптёнок,M,110,No,B,Raw,1953-01-26,M4,105.4,,,,,,120,130,140,,140,,,,,,140
1,Sergey Poltavtsev,Сергей Полтавцев,M,110,No,B,Raw,1950-09-22,M5,102.9,,,,,,125,140,152.5,,152.5,,,,,,152.5
1,Vladislav Nesterov,Владислав Нестеров,M,125,No,B,Raw,1991-07-24,T3,115.8,,,,,,160,-170,,,160,,,,,,160
1,Denis Ivannikov,Денис Иванников,M,125,No,B,Raw,1982-09-27,Open,116.7,,,,,,210,220,-225,,220,,,,,,220
2,Evgeniy Gulyaev,Евгений Гуляев,M,125,No,B,Raw,1976-05-11,Open,122.1,,,,,,210,220,-227.5,,220,,,,,,220
3,Vladimir Surkov,Владимир Сурков,M,125,No,B,Raw,1972-05-07,Open,116.7,,,,,,200,210,-215,,210,,,,,,210
4,Dmitriy Muslimov,Дмитрий Муслимов,M,125,No,B,Raw,1981-10-04,Open,122,,,,,,200,-210,210,,210,,,,,,210
5,Ramig Nuruev,Рамиг Нуруев,M,125,No,B,Raw,1984-11-03,Open,118.5,,,,,,200,-210,-210,,200,,,,,,200
1,Nikolay Boykov,Николай Бойков,M,125,No,B,Raw,1969-12-17,M1,122.3,,,,,,190,200,-210,,200,,,,,,200
2,Yuriy Maksimov,Юрий Максимов,M,125,No,B,Raw,1967-12-17,M1,118.4,,,,,,-150,150,-165,,150,,,,,,150
1,Sergey Kirilov,Сергей Кирилов,M,125,No,B,Raw,1964-04-21,M2,113.9,,,,,,180,-190,195,,195,,,,,,195
2,Maksim Vanin,Максим Ванин,M,125,No,B,Raw,1963-06-23,M2,112.6,,,,,,130,140,150,,150,,,,,,150
DQ,Aleksandr Sychyov,Александр Сычёв,M,125,No,B,Raw,1960-07-13,M3,111,,,,,,-155,-160,-165,,,,,,,,
1,Yuriy Pokhvashchev,Юрий Похващев,M,125,No,B,Raw,1954-01-28,M4,112.6,,,,,,170,180,-190,,180,,,,,,180
1,Mikhail Algash,Михаил Алгаш,M,140,No,B,Raw,1989-02-09,Juniors,129.7,,,,,,240,250,260,,260,,,,,,260
2,Viktor Malyugin,Виктор Малюгин,M,140,No,B,Raw,1990-08-18,Juniors,134.5,,,,,,230,240,-245,,240,,,,,,240
1,Mikhail Algash,Михаил Алгаш,M,140,No,B,Raw,1989-02-09,Open,129.7,,,,,,240,250,260,-270,260,,,,,,260
2,Vladislav Manyukov,Владислав Манюков,M,140,No,B,Raw,1972-08-27,Open,125.4,,,,,,150,,,,150,,,,,,150
1,Sergey Kolesnichenko,Сергей Колесниченко,M,140+,No,B,Raw,1979-11-19,Open,141.8,,,,,,210,220,-230,,220,,,,,,220
1,Darya Ulanova,Дарья Уланова,F,48,No,B,Multi-ply,1992-04-26,T3,47.7,,,,,,65,-70,70,,70,,,,,,70
DQ,Kristina Gafanova,Кристина Гафанова,F,56,No,B,Multi-ply,1992-02-08,T3,54.8,,,,,,-65,-65,-65,,,,,,,,
1,Yulia Medvedeva,Юлия Медведева,F,75,No,B,Multi-ply,1979-07-08,Open,74.5,,,,,,172.5,-183.5,-183.5,,172.5,,,,,,172.5
1,Roman Lobanov,Роман Лобанов,M,60,No,B,Multi-ply,1992-04-10,T3,60,,,,,,-90,,90,,90,,,,,,90
1,Aleksandr Rode,Александр Роде,M,67.5,No,B,Multi-ply,1981-04-14,Open,67.5,,,,,,225,-240,240,-245,240,,,,,,240
1,Sergey Kalinin,Сергей Калинин,M,75,No,B,Multi-ply,1989-02-21,Juniors,74.3,,,,,,160,180,-190,,180,,,,,,180
1,Aleksandr Sorokin,Александр Сорокин,M,75,No,B,Multi-ply,1980-03-01,Open,75,,,,,,-170,170,-180,,170,,,,,,170
2,Andrey Krasnozhon,Андрей Красножон,M,75,No,B,Multi-ply,1982-02-25,Open,74,,,,,,-135,135,-150,,135,,,,,,135
1,Nikolay Shekhonin,Николай Шехонин,M,82.5,No,B,Multi-ply,1992-04-13,T3,79.1,,,,,,155,165,-172.5,,165,,,,,,165
1,Andrey Belousov,Андрей Белоусов,M,82.5,No,B,Multi-ply,1987-07-28,Juniors,82,,,,,,170,-185,-185,,170,,,,,,170
1,Nikolay Maslov,Николай Маслов,M,82.5,No,B,Multi-ply,1986-10-31,Open,81.5,,,,,,-205,-205,210,,210,,,,,,210
2,Evgeniy Kataev,Евгений Катаев,M,82.5,No,B,Multi-ply,1983-08-08,Open,81.5,,,,,,190,200,-210,,200,,,,,,200
3,Evgeniy Gonchar,Евгений Гончар,M,82.5,No,B,Multi-ply,1986-07-18,Open,79.8,,,,,,120,130,-135,,130,,,,,,130
1,Igor Kuimov,Игорь Куимов,M,82.5,No,B,Multi-ply,1962-07-28,M2,80.8,,,,,,205,-220,220,,220,,,,,,220
1,Sergey Druzhkov,Сергей Дружков,M,82.5,No,B,Multi-ply,1950-01-01,M5,81.9,,,,,,-175.5,-175.5,175.5,,175.5,,,,,,175.5
1,Vladimir Korolchenko,Владимир Корольченко,M,82.5,No,B,Multi-ply,1950-11-02,M5,81.5,,,,,,130,140,150,,150,,,,,,150
1,Ivan Bakharev,Иван Бахарев,M,90,No,B,Multi-ply,1994-07-06,T2,88.6,,,,,,100,-110,-110,,100,,,,,,100
1,Evgeniy Vokhmintsev,Евгений Вохминцев,M,90,No,B,Multi-ply,1988-01-06,Juniors,89.8,,,,,,190,-200,-210,,190,,,,,,190
2,Sergey Suvorov,Сергей Суворов,M,90,No,B,Multi-ply,1989-08-31,Juniors,89.7,,,,,,140,-180,-190,,140,,,,,,140
1,Aleksandr Petrov,Александр Петров,M,90,No,B,Multi-ply,1960-07-17,Open,89.9,,,,,,230,240,250,255,250,,,,,,250
2,Evgeniy Kuchin,Евгений Кучин,M,90,No,B,Multi-ply,1987-02-20,Open,87.2,,,,,,-225,225,-237.5,,225,,,,,,225
3,Yuriy Korikov,Юрий Кориков,M,90,No,B,Multi-ply,1962-04-24,Open,89.2,,,,,,200,210,220,,220,,,,,,220
4,Aleksandr Kuznetsov,Александр Кузнецов,M,90,No,B,Multi-ply,1981-12-09,Open,89.1,,,,,,-205,210,-220,,210,,,,,,210
1,Eduard Isakov,Эдуард Исаков,M,90,No,B,Multi-ply,1966-07-18,M1,86.9,,,,,,190,200,210,,210,,,,,,210
2,Georgiy Avdonin,Георгий Авдонин,M,90,No,B,Multi-ply,1969-09-10,M1,87,,,,,,195,-202.5,-202.5,,195,,,,,,195
1,Yuriy Korikov,Юрий Кориков,M,90,No,B,Multi-ply,1962-04-24,M2,89.2,,,,,,200,210,220,,220,,,,,,220
2,Boris Zhernovnikov,Борис Жерновников,M,90,No,B,Multi-ply,1965-03-16,M2,88.9,,,,,,-210,-210,212.5,,212.5,,,,,,212.5
1,Aleksandr Petrov,Александр Петров,M,90,No,B,Multi-ply,1960-07-17,M3,89.9,,,,,,230,240,250,255,250,,,,,,250
1,Vladimir Potapov,Владимир Потапов,M,90,No,B,Multi-ply,1954-05-22,M4,88.3,,,,,,155,160,165,,165,,,,,,165
2,Evgeniy Basov,Евгений Басов,M,90,No,B,Multi-ply,1955-02-24,M4,85.3,,,,,,135,150,160,,160,,,,,,160
1,Aleksandr Panaskin,Александр Панаскин,M,100,No,B,Multi-ply,1991-06-27,T3,95.2,,,,,,160,235,-252.5,,235,,,,,,235
1,Vladimir Shchukin,Владимир Щукин,M,100,No,B,Multi-ply,1980-03-15,Open,99.1,,,,,,-240,-262.5,262.5,,262.5,,,,,,262.5
2,Eduard Maksimov,Эдуард Максимов,M,100,No,B,Multi-ply,1971-11-20,Open,99.1,,,,,,240,252.5,262.5,,262.5,,,,,,262.5
3,Aleksey Melnikov,Алексей Мельников,M,100,No,B,Multi-ply,1978-12-02,Open,99.3,,,,,,-250,250,-260,,250,,,,,,250
4,Vladimir Srabionov,Владимир Срабионов,M,100,No,B,Multi-ply,1964-09-04,Open,98,,,,,,240,-250,-250,,240,,,,,,240
5,Aleksandr Panaskin,Александр Панаскин,M,100,No,B,Multi-ply,1991-06-27,Open,95.2,,,,,,160,235,-252.5,,235,,,,,,235
DQ,Sergey Permyakov,Сергей Пермяков,M,100,No,B,Multi-ply,1983-09-09,Open,95.2,,,,,,-250,-250,-250,,,,,,,,
1,Andrey Fadeev,Андрей Фадеев,M,100,No,B,Multi-ply,1970-06-08,M1,99.2,,,,,,220,-240,240,,240,,,,,,240
2,Valeriy Snigiryov,Валерий Снигирёв,M,100,No,B,Multi-ply,1969-05-07,M1,90.3,,,,,,-185,185,-195,,185,,,,,,185
1,Vladimir Srabionov,Владимир Срабионов,M,100,No,B,Multi-ply,1964-09-04,M2,98,,,,,,240,-250,-250,,240,,,,,,240
2,Andrey Martemyanov,Андрей Мартемьянов,M,100,No,B,Multi-ply,1961-07-08,M2,97.6,,,,,,200,210,-222.5,,210,,,,,,210
1,Aleksandr Zavyalov,Александр Завьялов,M,100,No,B,Multi-ply,1957-05-15,M3,93.5,,,,,,200,-210,-212.5,,200,,,,,,200
2,Valeriy Akentev,Валерий Акентьев,M,100,No,B,Multi-ply,1958-03-13,M3,96.3,,,,,,-200,200,-212.5,,200,,,,,,200
1,Vasiliy Volobuev,Василий Волобуев,M,110,No,B,Multi-ply,1991-05-01,T3,104.7,,,,,,220,235,-240,,235,,,,,,235
1,Denis Knyazev,Денис Князев,M,110,No,B,Multi-ply,1987-09-11,Juniors,108.3,,,,,,310,320,-330,,320,,,,,,320
1,Denis Knyazev,Денис Князев,M,110,No,B,Multi-ply,1987-09-11,Open,108.3,,,,,,310,320,-330,,320,,,,,,320
2,Dmitriy Gorbachev,Дмитрий Горбачев,M,110,No,B,Multi-ply,1970-03-06,Open,108.7,,,,,,-300,300,-310,,300,,,,,,300
3,Eduard Khaliullin,Эдуард Халиуллин,M,110,No,B,Multi-ply,1973-05-22,Open,106.7,,,,,,-285,285,-290,,285,,,,,,285
4,Vladimir Fil,Владимир Филь,M,110,No,B,Multi-ply,1976-12-21,Open,105.3,,,,,,245,255,265,,265,,,,,,265
5,Aleksandr Ivanov,Александр Иванов,M,110,No,B,Multi-ply,1976-04-10,Open,105.2,,,,,,-230,235,-240,,235,,,,,,235
6,Evgeniy Leonidov,Евгений Леонидов,M,110,No,B,Multi-ply,1982-12-01,Open,102.1,,,,,,-220,-220,220,,220,,,,,,220
1,Dmitriy Gorbachev,Дмитрий Горбачев,M,110,No,B,Multi-ply,1970-03-06,M1,108.7,,,,,,-300,300,-310,,300,,,,,,300
2,Dmitriy Sorokin,Дмитрий Сорокин,M,110,No,B,Multi-ply,1971-03-22,M1,108.5,,,,,,260,-280,-280,,260,,,,,,260
3,Vladimir Omelkov,Владимир Омельков,M,110,No,B,Multi-ply,1970-05-10,M1,106.9,,,,,,230,240,250,,250,,,,,,250
DD,Igor Podelko,Игорь Поделко,M,110,No,B,Multi-ply,1964-05-26,M2,109.3,,,,,,-220,-220,-220,,,,,,,,
1,Viktor Pozdnyakov,Виктор Поздняков,M,110,No,B,Multi-ply,1958-12-12,M3,107.5,,,,,,240,250,-260,,250,,,,,,250
1,Pavel Laptyonok,Павел Лаптёнок,M,110,No,B,Multi-ply,1953-01-26,M4,105.4,,,,,,155,,,,155,,,,,,155
1,Sergey Poltavtsev,Сергей Полтавцев,M,110,No,B,Multi-ply,1950-09-22,M5,102.9,,,,,,-195,195,-200,,195,,,,,,195
1,Andrey Zverev,Андрей Зверев,M,125,No,B,Multi-ply,1987-12-10,Juniors,122.9,,,,,,-280,280,300,,300,,,,,,300
1,Dmitriy Ryzhov,Дмитрий Рыжов,M,125,No,B,Multi-ply,1972-06-19,Open,122.3,,,,,,250,260,270,,270,,,,,,270
DQ,Denis Semenov,Денис Семенов,M,125,No,B,Multi-ply,1974-04-27,Open,121.2,,,,,,-270,-270,-270,,,,,,,,
DQ,Viktor Klimov,Виктор Климов,M,125,No,B,Multi-ply,1975-03-10,Open,116.2,,,,,,-300,-300,-300,,,,,,,,
1,Aleksey Shishkin,Алексей Шишкин,M,140,No,B,Multi-ply,1977-04-25,Open,129.4,,,,,,250,260,-280,,260,,,,,,260
2,Vladislav Manyukov,Владислав Манюков,M,140,No,B,Multi-ply,1972-08-27,Open,125.4,,,,,,-200,210,-220,,210,,,,,,210
1,Georgiy Lopatskiy,Георгий Лопацкий,M,140,No,B,Multi-ply,1962-05-16,M2,125.5,,,,,,-270,-270,270,,270,,,,,,270
1,Aleksandr Ablizin,Александр Аблизин,M,140+,No,B,Multi-ply,1974-02-22,Open,156.8,,,,,,260,277.5,-282.5,,277.5,,,,,,277.5
