Division,WeightClassKg,Place,Name,Team,BodyweightKg,Best3SquatKg,Best3BenchKg,Best3DeadliftKg,TotalKg,Equipment,Event,Sex
Boys,52,1,Salvador Martinez,Bastrop,50.89,102.06,63.5,124.74,290.3,Single-ply,SBD,M
Boys,52,2,Colt Baranowski,Smithville,44.45,113.4,52.16,115.67,281.23,Single-ply,SBD,M
Boys,52,3,Will Solomon,Bastrop Cedar Creek,50.89,86.18,70.31,120.2,276.69,Single-ply,SBD,M
Boys,52,4,Zane Timpson,Smithville,50.8,77.11,56.7,111.13,244.94,Single-ply,SBD,M
Boys,56,1,Ivan Rosales,Columbus,53.07,147.42,88.45,167.83,403.7,Single-ply,SBD,M
Boys,56,2,Al Gardner,Sealy,51.89,124.74,70.31,138.35,333.39,Single-ply,SBD,M
Boys,56,3,Shawn Patterson,Bastrop Cedar Creek,54.88,131.54,63.5,136.08,331.12,Single-ply,SBD,M
Boys,56,4,Drake Griger,Sealy,54.34,117.93,65.77,133.81,317.51,Single-ply,SBD,M
Boys,56,5,Damian Albiter,Bastrop Cedar Creek,55.79,115.67,65.77,124.74,306.17,Single-ply,SBD,M
Boys,56,6,Dalton Opperman,Columbus,54.34,102.06,65.77,117.93,285.76,Single-ply,SBD,M
Boys,56,7,Hunter Kohleffel,Columbus,55.25,108.86,47.63,117.93,274.42,Single-ply,SBD,M
Boys,56,8,Joel Gasseott,Sealy,53.61,86.18,52.16,104.33,242.67,Single-ply,SBD,M
Boys,60,1,Frank Cobio,Brookshire Royal,59.06,151.95,95.25,158.76,405.97,Single-ply,SBD,M
Boys,60,2,Marco Calixto,Bellville,58.06,83.91,61.23,113.4,258.55,Single-ply,SBD,M
Boys,60,3,Robert Peavy,Smithville,56.43,61.23,52.16,68.04,181.44,Single-ply,SBD,M
Boys,67.5,1,Julian Mata,Kyle Lehman,66.86,156.49,104.33,167.83,428.64,Single-ply,SBD,M
Boys,67.5,2,Dax Dietrich,Fredericksburg,67.13,158.76,97.52,151.95,408.23,Single-ply,SBD,M
Boys,67.5,3,Klayton Morriss,Bastrop Cedar Creek,63.32,142.88,79.38,170.1,392.36,Single-ply,SBD,M
Boys,67.5,4,Raul Arizola,Smithville,64.86,140.61,97.52,154.22,392.36,Single-ply,SBD,M
Boys,67.5,5,Trey Motyka,Smithville,63.96,142.88,79.38,154.22,376.48,Single-ply,SBD,M
Boys,67.5,6,Jared Smith,Bastrop,66.95,115.67,83.91,147.42,347,Single-ply,SBD,M
Boys,67.5,7,Josh Lucio-Salinas,San Marcos,67.04,115.67,74.84,156.49,347,Single-ply,SBD,M
Boys,67.5,8,Cross Hernandez,Austin Bowie,65.86,122.47,79.38,133.81,335.66,Single-ply,SBD,M
Boys,67.5,9,Daniel Santana,San Marcos,60.24,120.2,68.04,142.88,331.12,Single-ply,SBD,M
Boys,67.5,10,Tanner Williams,Smithville,65.32,102.06,70.31,136.08,308.44,Single-ply,SBD,M
Boys,67.5,11,Jimmy Hallamek,Bastrop Cedar Creek,63.41,90.72,61.23,136.08,288.03,Single-ply,SBD,M
Boys,67.5,12,Chris Lopez,San Marcos,64.23,92.99,61.23,127.01,281.23,Single-ply,SBD,M
Boys,67.5,13,Sutton Lidsley,Bastrop,62.23,102.06,,,102.06,Single-ply,S,M
Boys,67.5,DQ,Jonathan Martinez,Luling,64.32,,,,,Single-ply,SBD,M
Boys,67.5,DQ,Israel Garcia,Kyle Lehman,64.95,,,,,Single-ply,SBD,M
Boys,67.5,DQ,Jaime Ortega,Fredericksburg,61.87,,,,,Single-ply,SBD,M
Boys,67.5,DQ,Graham Sherrill,Smithville,64.86,,,,,Single-ply,SBD,M
Boys,67.5,DQ,Coltin Orsack,Smithville,61.69,,,,,Single-ply,SBD,M
Boys,75,1,Joseph Lopez,Kyle Lehman,74.21,179.17,113.4,208.65,501.22,Single-ply,SBD,M
Boys,75,2,Adrian Castaneda,Bellville,73.03,188.24,102.06,179.17,469.47,Single-ply,SBD,M
Boys,75,3,Joseph Stewart,Brookshire Royal,73.39,192.78,111.13,151.95,455.86,Single-ply,SBD,M
Boys,75,4,Wayne Rinn,Bellville,73.39,165.56,102.06,167.83,435.45,Single-ply,SBD,M
Boys,75,5,Kekoa Engelman,Kyle Lehman,73.84,154.22,102.06,179.17,435.45,Single-ply,SBD,M
Boys,75,6,Sergio Torres,Gonzales,74.21,165.56,92.99,165.56,424.11,Single-ply,SBD,M
Boys,75,7,Ralph Burgos,Kyle Lehman,74.84,142.88,108.86,158.76,410.5,Single-ply,SBD,M
Boys,75,8,Jeremiah Good,San Marcos,73.12,136.08,83.91,158.76,378.75,Single-ply,SBD,M
Boys,75,9,Tristen Cernosek,Gonzales,72.76,113.4,56.7,111.13,281.23,Single-ply,SBD,M
Boys,75,DQ,Jessiah Halleck,Smithville,74.66,,,,,Single-ply,SBD,M
Boys,75,DQ,Jesus Alfaro,Bastrop,73.66,138.35,,,,Single-ply,SBD,M
Boys,75,DQ,Jesse Everett,Luling,68.49,,,,,Single-ply,SBD,M
Boys,75,DQ,George Sanchez,Luling,68.76,,,,,Single-ply,SBD,M
Boys,75,DQ,Will Priest,Brookshire Royal,72.12,,,,,Single-ply,SBD,M
Boys,75,DQ,Aaron Sanchez,Bellville,69.31,147.42,,,,Single-ply,SBD,M
Boys,75,DQ,Bo Hart,Sealy,72.48,,,,,Single-ply,SBD,M
Boys,82.5,1,Josh Garza,Bastrop Cedar Creek,81.65,172.37,79.38,195.04,446.79,Single-ply,SBD,M
Boys,82.5,2,Eston Epton,Fredericksburg,81.01,154.22,106.59,174.63,435.45,Single-ply,SBD,M
Boys,82.5,3,Cade Edwards,Bastrop Cedar Creek,75.66,147.42,90.72,163.29,401.43,Single-ply,SBD,M
Boys,82.5,4,Jacob Bandera,Smithville,77.02,149.69,90.72,136.08,376.48,Single-ply,SBD,M
Boys,82.5,5,Hugo Urrutia,Austin Bowie,76.48,140.61,77.11,138.35,356.07,Single-ply,SBD,M
Boys,82.5,6,Jude Dennis,Bastrop,78.65,102.06,77.11,136.08,315.25,Single-ply,SBD,M
Boys,82.5,7,Zach Smith,Austin Bowie,79.92,140.61,,,140.61,Single-ply,S,M
Boys,82.5,DQ,Drake Bustamante,Bellville,82.1,,,,,Single-ply,SBD,M
Boys,82.5,DQ,Caleb Wilkins,Fredericksburg,76.93,,,,,Single-ply,SBD,M
Boys,90,1,Ben Carmean,Bellville,86.27,238.14,133.81,199.58,571.53,Single-ply,SBD,M
Boys,90,2,Tre Moreno,Kyle Lehman,85.46,190.51,111.13,197.31,498.95,Single-ply,SBD,M
Boys,90,3,Conner Kelly,Bastrop Cedar Creek,89.81,172.37,102.06,195.04,469.47,Single-ply,SBD,M
Boys,90,4,Willy Sebera,Fredericksburg,83.91,156.49,113.4,197.31,467.2,Single-ply,SBD,M
Boys,90,5,Eduardo Ventura,Kyle Lehman,85.64,158.76,111.13,183.7,453.59,Single-ply,SBD,M
Boys,90,6,Dalton Tobola,Bastrop,85.64,170.1,90.72,183.7,444.52,Single-ply,SBD,M
Boys,90,7,Logan Gaskey,Bastrop,86,136.08,90.72,158.76,385.55,Single-ply,SBD,M
Boys,90,8,Bryan Garza,Gonzales,89.36,151.95,86.18,145.15,383.29,Single-ply,SBD,M
Boys,90,9,Caleb Terrell,Sealy,89.63,142.88,106.59,133.81,383.29,Single-ply,SBD,M
Boys,90,10,Ronnie Garcia,Austin Bowie,85.37,142.88,92.99,142.88,378.75,Single-ply,SBD,M
Boys,90,11,Mason Gentry,Smithville,86.27,106.59,97.52,113.4,317.51,Single-ply,SBD,M
Boys,100,1,Abel Longoria,Kyle Lehman,98.88,260.82,161.03,231.33,653.17,Single-ply,SBD,M
Boys,100,2,Stone Jones,Bastrop Cedar Creek,96.52,195.04,104.33,204.12,503.49,Single-ply,SBD,M
Boys,100,3,Casey Marek,Bellville,92.99,190.51,102.06,176.9,469.47,Single-ply,SBD,M
Boys,100,4,Jimmy Bustos,Gonzales,99.79,192.78,113.4,142.88,449.06,Single-ply,SBD,M
Boys,100,5,Jackson Green,Austin Bowie,94.8,161.03,90.72,183.7,435.45,Single-ply,SBD,M
Boys,100,6,Joseph Medrano,San Marcos,96.25,156.49,90.72,181.44,428.64,Single-ply,SBD,M
Boys,100,7,Vicente Reyna,Gonzales,96.07,151.95,92.99,170.1,415.04,Single-ply,SBD,M
Boys,100,8,Marco Herrera,Columbus,93.98,161.03,74.84,156.49,392.36,Single-ply,SBD,M
Boys,100,9,Brandon Rangel,San Marcos,93.44,138.35,79.38,163.29,381.02,Single-ply,SBD,M
Boys,100,10,Brendon Rodriguez,Gonzales,97.16,142.88,92.99,142.88,378.75,Single-ply,SBD,M
Boys,100,11,Alex Lopez,Kyle Lehman,91.53,117.93,92.99,147.42,358.34,Single-ply,SBD,M
Boys,100,12,Juan Hernandez #7,Brookshire Royal,95.89,142.88,65.77,122.47,331.12,Single-ply,SBD,M
Boys,100,13,Cameron Mileham,Gonzales,97.98,113.4,83.91,129.27,326.59,Single-ply,SBD,M
Boys,110,1,Tyrone Wilson,Bastrop,109.68,201.85,124.74,231.33,557.92,Single-ply,SBD,M
Boys,110,2,Michael Brietzke,Luling,101.79,217.72,113.4,217.72,548.85,Single-ply,SBD,M
Boys,110,3,John Adam Casteneda,Fredericksburg,109.13,197.31,117.93,217.72,532.97,Single-ply,SBD,M
Boys,110,4,Kyle Nelson,Bellville,102.78,204.12,97.52,190.51,492.15,Single-ply,SBD,M
Boys,110,5,Joseph Clay,Sealy,105.14,192.78,115.67,158.76,467.2,Single-ply,SBD,M
Boys,110,6,Trent Wilkerson,Gonzales,108.14,188.24,102.06,170.1,460.4,Single-ply,SBD,M
Boys,110,7,Cameron Anderson,Bellville,104.78,190.51,113.4,149.69,453.59,Single-ply,SBD,M
Boys,110,8,Jonathan Hollevoet,Austin Bowie,105.69,204.12,111.13,,315.25,Single-ply,SB,M
Boys,110,9,Azreael Valle,Luling,102.6,158.76,,,158.76,Single-ply,S,M
Boys,110,10,Nick Carnikas,Austin Bowie,108.95,156.49,,,156.49,Single-ply,S,M
Boys,125,1,Justin Hoffman,Bastrop,122.29,272.16,158.76,215.46,646.37,Single-ply,SBD,M
Boys,125,2,Kaleb Barho,Smithville,118.39,244.94,151.95,204.12,601.01,Single-ply,SBD,M
Boys,125,3,Ethan Garcia,Kyle Lehman,117.3,233.6,124.74,226.8,585.13,Single-ply,SBD,M
Boys,125,4,Brian George,Bastrop Cedar Creek,123.1,206.38,104.33,199.58,510.29,Single-ply,SBD,M
Boys,125,5,Kaiser Forcade,Fredericksburg,120.38,192.78,106.59,185.97,485.34,Single-ply,SBD,M
Boys,125,6,Caleb Bohm,Austin Bowie,117.21,201.85,106.59,174.63,483.08,Single-ply,SBD,M
Boys,125,7,De'Mondre Wade,Brookshire Royal,122.47,188.24,104.33,149.69,442.25,Single-ply,SBD,M
Boys,125,8,Ethan Psencik,Smithville,112.94,158.76,106.59,154.22,419.57,Single-ply,SBD,M
Boys,125,9,Chris Julson,Bastrop Cedar Creek,119.66,149.69,90.72,158.76,399.16,Single-ply,SBD,M
Boys,125,10,Diego De Los Santos,San Marcos,110.59,142.88,90.72,147.42,381.02,Single-ply,SBD,M
Boys,125,DQ,Hunter Breaux,Bellville,123.65,,,,,Single-ply,SBD,M
Boys,125+,1,Brian Prickett,Kyle Lehman,126.46,238.14,149.69,233.6,621.42,Single-ply,SBD,M
Boys,125+,2,Pedro Govea,Luling,136.26,190.51,115.67,179.17,485.34,Single-ply,SBD,M
Boys,125+,3,Brok Garcia,Smithville,134.72,138.35,81.65,122.47,342.46,Single-ply,SBD,M
Boys,125+,DQ,Jacob Leos,Luling,128.19,167.83,106.59,,,Single-ply,SBD,M
Boys,125+,DQ,Francisco Infante,Brookshire Royal,147.15,229.06,,,,Single-ply,SBD,M
Boys,,DQ,Cory Barrett,Sealy,,,,,,Single-ply,SBD,M
Boys,,DQ,Christian Rhoades,Sealy,,,,,,Single-ply,SBD,M
Boys,,DQ,Jose Rodriguez,Sealy,,,,,,Single-ply,SBD,M
Boys,,DQ,Cody Burkland,Sealy,,,,,,Single-ply,SBD,M
