Name,Equipment,Age,Sex,Division,BodyweightKg,WeightClassKg,Squat1Kg,Squat2Kg,Squat3Kg,Best3SquatKg,Bench1Kg,Bench2Kg,Bench3Kg,Best3BenchKg,Deadlift1Kg,Deadlift2Kg,Deadlift3Kg,Best3DeadliftKg,TotalKg,Place,Event
Maria Shubinkin,Multi-ply,44,F,FM1R,49.2,52,92.5,97.5,102.5,102.5,45,47.5,-50,47.5,122.5,127.5,130,130,280,1,SBD
Adir Barazani,Multi-ply,24,M,MOR,88.8,90,-230,230,-235,230,-150,-150,-150,,-240,,,,,DQ,SBD
Boris Goldenberg,Multi-ply,28,M,MOR,98.6,100,200,210,225,225,125,135,140,140,210,220,-230,220,585,1,SBD
Dov Gipstein,Multi-ply,46,M,MM2R,98.3,100,210,220,-230,220,115,120,-130,120,220,230,-240,230,570,1,SBD
Amir Inbal,Multi-ply,42,M,MM1R,115,125,260,-280,-300,260,160,170,-180,170,240,260,-272.5,260,690,1,SBD
Noya Yona,Wraps,15,F,FT1R,55.3,56,85,92.5,100,100,47.5,-52.5,-55,47.5,95,100,-110,100,247.5,1,SBD
Sol-or Shriki,Wraps,19,F,FT3R,61.9,67.5,95,105,110,110,45,50,55,55,125,-135,-135,125,290,1,SBD
Simcha Cohen,Wraps,19,F,FT3R,70.6,75,95,105,-115,105,55,60,-65,60,135,145,150,150,315,1,SBD
Eliya Ashush,Wraps,17,M,MT1R,89.5,90,155,165,175,175,117.5,-125,-130,117.5,190,205,217.5,217.5,510,1,SBD
Chamizer Shlomi,Wraps,21,M,MJR,66.4,67.5,145,152.5,160,160,80,85,-90,85,190,202.5,210,210,455,1,SBD
Eric Sabag,Raw,23,M,MJR,106.4,110,177.5,187.5,195,195,110,-117.5,117.5,117.5,215,225,232.5,232.5,545,1,SBD
Asaf Boshi,Wraps,23,M,MJR,80.2,82.5,210,220,-230,220,117.5,-125,-125,117.5,-270,270,280,280,617.5,1,SBD
Neal Klachky,Wraps,24,M,MOR,75,75,160,170,-180,170,110,115,-120,115,230,250,-255,250,535,1,SBD
Omry Shaya,Wraps,36,M,MOR,97.7,100,-190,190,200,200,125,-130,130,130,200,205,207.5,207.5,537.5,2,SBD
Alexander Sheshnev,Wraps,32,M,MOR,85.5,90,150,160,-167.5,160,145,152.5,157.5,157.5,190,202.5,212.5,212.5,530,1,SBD
Oleksandr Aleksieienko,Wraps,28,M,MOR,82.5,82.5,195,210,217.5,217.5,145,155,162.5,162.5,270,280,-290,280,660,1,SBD
Ivan Koronchik,Wraps,39,M,MOR,97.2,100,215,230,-235,230,160,-170,-170,160,240,255,-262.5,255,645,1,SBD
Valeri Frenklach,Wraps,75,M,MM8R,70.6,75,80,90,-100,90,50,-55,-55,50,100,110,115,115,255,1,SBD
Vito Bauron,Wraps,68,M,MM8R,67.5,67.5,75,92.5,-100,92.5,47.5,55,-57.5,55,100,115,122.5,122.5,270,1,SBD
Dmitriy Tolstoy,Wraps,41,M,MM1R,73.5,75,135,-145,145,145,75,80,85,85,145,155,162.5,162.5,392.5,1,SBD
Arthur Fantalis,Wraps,55,M,MM4R,74.4,75,-125,130,142.5,142.5,105,110,-112.5,110,165,180,190,190,442.5,1,SBD
Alexander Bark,Wraps,55,M,MM4R,82.5,82.5,130,-140,-140,130,110,115,-117.5,115,135,145,150,150,395,1,SBD
Dmitry Abramson,Wraps,55,M,MM4R,88.5,90,120,125,130,130,115,-120,120,120,150,160,,160,410,1,SBD
Amit Bezherano,Raw,19,M,MT3R,89,90,,,,,115,125,,125,160,170,185,185,310,1,BD
Bar Knafo,Raw,22,M,MJR,87.7,90,,,,,120,127.5,-132.5,127.5,225,235,-245,235,362.5,1,BD
Oleksandr Aleksieienko,Raw,28,M,MOR,82.5,82.5,,,,,,,162.5,162.5,270,280,,280,442.5,1,BD
Ronen Eliyahu,Raw,49,M,MM2R,107.7,110,,,,,150,160,-165,160,200,210,215,215,375,1,BD
Tomer Eilat,Raw,13,M,MT1R,62.5,67.5,,,,,55,-62.5,62.5,62.5,,,,,62.5,1,B
Anatoliy Chernov,Raw,38,M,MOR,70.4,75,,,,,132.5,-142.5,-142.5,132.5,,,,,132.5,1,B
Alex Rabinovich,Raw,51,M,MOR,76.3,82.5,,,,,170,177.5,182.5,182.5,,,,,182.5,1,B
Oleksandr Aleksieienko,Raw,28,M,MOR,82.5,82.5,,,,,,,162.5,162.5,,,,,162.5,2,B
Filip Shilov,Raw,38,M,MOR,89.5,90,,,,,160,167.5,172.5,172.5,,,,,172.5,1,B
Dima Vainer,Raw,39,M,MOR,91.6,100,,,,,150,160,167.5,167.5,,,,,167.5,1,B
Roy Krispin,Raw,35,M,MOR,97.3,100,,,,,167.5,-197.5,-197.5,167.5,,,,,167.5,2,B
Alex Papir,Raw,73,M,MM7R,81.2,82.5,,,,,107.5,110,-112.5,110,,,,,110,1,B
Boris Doktorowich,Raw,67,M,MM6R,106.8,110,,,,,90,95,-100,95,,,,,95,1,B
Alex Rabinovich,Raw,51,M,MM3R,76.3,82.5,,,,,,,182.5,182.5,,,,,182.5,1,B
Dudi Eilat,Raw,52,M,MM3R,82.1,82.5,,,,,120,-125,-125,120,,,,,120,2,B
Alon Ben-Shahar,Raw,54,M,MM3R,88.4,90,,,,,135,140,145,145,,,,,145,1,B
Igor Rahtaler,Raw,54,M,MM3R,107,110,,,,,180,190,-195,190,,,,,190,1,B
Leonid Diakov,Raw,48,M,MM2R,80.8,82.5,,,,,112.5,-115,-117.5,112.5,,,,,112.5,1,B
Andrey Glukhov,Raw,40,M,MM1R,93.8,100,,,,,150,160,170,170,,,,,170,1,B
Evgeniy Shistakov,Raw,43,M,MM1R,107.5,110,,,,,-165,170,-180,170,,,,,170,1,B
Oleg Ivanyukov,Multi-ply,38,M,MOR,65.5,67.5,,,,,170,172.5,175,175,,,,,175,1,B
Alex Rabinovich,Multi-ply,51,M,MOR,76.3,82.5,,,,,220,230,237.5,237.5,,,,,237.5,1,B
Adir Barazani,Multi-ply,24,M,MOR,88.8,90,,,,,190,-205,205,205,,,,,205,2,B
Edik Kruglyak,Multi-ply,40,M,MOR,98.4,100,,,,,250,265,-282.5,265,,,,,265,1,B
Oren Arzi,Multi-ply,47,M,MOR,93.4,100,,,,,220,-230,-240,220,,,,,220,2,B
Igor Goldenbrg,Multi-ply,49,M,MOR,121.4,125,,,,,190,200,210,210,,,,,210,1,B
Gennadiy Obermeyster,Multi-ply,47,M,MOR,108.6,110,,,,,280,-290,300,300,,,,,300,1,B
Efim Ogorodnikov,Multi-ply,37,M,MOR,87.5,90,,,,,-210,217.5,-225,217.5,,,,,217.5,1,B
Vito Bauron,Raw,68,M,MM8R,67.5,67.5,,,,,,,,,100,115,122.5,122.5,122.5,1,D
Valeri Frenklach,Raw,75,M,MM8R,70.6,75,,,,,,,,,100,110,115,115,115,1,D
Gennadiy Petrenko,Raw,58,M,MM4R,73.2,75,,,,,,,,,185,202.5,-207.5,202.5,202.5,1,D
Mike Kazakov,Raw,55,M,MM4R,88.4,90,,,,,,,,,220,232.5,240,240,240,1,D
Dudi Eilat,Raw,52,M,MM3R,82.1,82.5,,,,,,,,,210,220,225,225,225,1,D
Gennadiy Petrenko,Raw,58,M,MOR,73.2,75,,,,,,,,,185,202.5,-207.5,202.5,202.5,1,D
Oleksandr Aleksieienko,Raw,28,M,MOR,82.5,82.5,,,,,,,,,270,280,-290,280,280,1,D
Almog Atia,Raw,21,M,MJR,76.5,82.5,,,,,,,,,130,140,-155,140,140,1,D
