Name,WeightClassKg,Age,BodyweightKg,Equipment,Squat1Kg,Squat2Kg,Squat3Kg,Best3SquatKg,Bench1Kg,Bench2Kg,Bench3Kg,Best3BenchKg,Deadlift1Kg,Deadlift2Kg,Deadlift3Kg,Best3DeadliftKg,TotalKg,Event,Sex,Division,Place,Tested
Michael Cross,56,,,Raw,136.08,149.69,-154.22,149.69,-90.72,90.72,-95.25,90.72,195.04,226.8,240.4,240.4,480.81,SBD,M,Open,1,No
Vernon Bowser,56,,,Raw,138.35,,,138.35,104.33,,,104.33,170.1,,,170.1,412.77,SBD,M,Open,2,No
Frederick Glass,56,37,,Raw,,,,124.74,77.11,,,77.11,158.76,,,158.76,360.61,SBD,M,Open,3,No
Allen Lord,60,,,Raw,181.44,190.51,-197.31,190.51,,108.86,,108.86,226.8,,,226.8,526.17,SBD,M,Open,1,No
Gary Wandell,60,,,Raw,,,,176.9,,,,117.93,208.65,217.72,-224.53,217.72,512.56,SBD,M,Open,2,No
Steve Hoxworth,60,,,Raw,-161.03,165.56,-172.37,165.56,106.59,,,106.59,219.99,-231.33,,219.99,492.15,SBD,M,Open,3,No
John Bojazi,60,47,,Raw,,,,163.29,108.86,,,108.86,-222.26,-222.26,-222.26,,,SBD,M,Open,DQ,No
John Welch,67.5,,,Raw,,,217.72,217.72,,,,154.22,235.87,242.67,-249.48,242.67,614.62,SBD,M,Open,1,No
Jack Keammerer,67.5,,,Raw,206.38,-217.72,-217.72,206.38,,,,127.01,251.74,-272.16,-272.16,251.74,585.13,SBD,M,Open,2,No
Gary Hunter,67.5,,,Raw,215.46,-222.26,-222.26,215.46,,,,131.54,229.06,-242.67,,229.06,576.06,SBD,M,Open,3,No
Ron Garrow,67.5,,,Raw,,,,190.51,,,,149.69,,,,208.65,548.85,SBD,M,Open,4,No
Gene Bell,67.5,,,Raw,,,,,,,,,,,,,,SBD,M,Open,DQ,No
T. Servais,67.5,,,Raw,,,-181.44,,,,,,,,,,,SBD,M,Open,DQ,No
V. Mattioni,67.5,,,Raw,,,,,,,,,,,,,,SBD,M,Open,DQ,No
Joseph Rhodes,75,,,Raw,222.26,238.14,242.67,242.67,156.49,-165.56,,156.49,-197.31,274.42,,274.42,673.59,SBD,M,Open,1,No
Anthony Carpino,75,,,Raw,235.87,244.94,-251.74,244.94,,,163.29,163.29,249.48,263.08,-272.16,263.08,671.32,SBD,M,Open,2,No
Walter Thomas,75,,,Raw,240.4,249.48,260.82,260.82,,,,149.69,240.4,254.01,-272.16,254.01,664.51,SBD,M,Open,3,No
Joe Pyra,75,,,Raw,192.78,,,192.78,122.47,,,122.47,244.94,,,244.94,560.19,SBD,M,Open,4,No
Herb Glossbrenner,75,,,Raw,,,,188.24,,,,113.4,,,,210.92,512.56,SBD,M,Open,5,No
George Crawford,75,,,Raw,260.82,272.16,-278.96,272.16,,,,161.03,-263.08,,,,,SBD,M,Open,DQ,No
Bruce Herold,75,,,Raw,,,,226.8,,,,149.69,,,,,,SBD,M,Open,DQ,No
Brian Kline,75,,,Raw,,,,190.51,,,,131.54,-208.65,-208.65,-208.65,,,SBD,M,Open,DQ,No
Mike Capasso,75,,,Raw,,,,195.04,,,,,,,,,,SBD,M,Open,DQ,No
Robert McKee,82.5,,,Raw,-235.87,235.87,-244.94,235.87,170.1,176.9,,176.9,290.3,303.91,-310.71,303.91,716.68,SBD,M,Open,1,No
Vince Anello,82.5,,,Raw,213.19,,,213.19,158.76,,,158.76,322.05,-347,,322.05,694,SBD,M,Open,2,No
Felix Gomes,82.5,,,Raw,,,,235.87,,,,172.37,,,,272.16,680.39,SBD,M,Open,3,No
Mike Letteri,82.5,,,Raw,,,,229.06,,,,158.76,,,,272.16,659.98,SBD,M,Open,4,No
Anthony DeFrancisco,82.5,,,Raw,,,,208.65,,,,167.83,,,,274.42,650.91,SBD,M,Open,5,No
Ron Hale,82.5,,78.47,Raw,,,,231.33,,,,165.56,,,,238.14,635.03,SBD,M,Open,6,No
S. Ellis,82.5,,,Raw,,,,195.04,,,,158.76,,,,244.94,598.74,SBD,M,Open,7,No
Mike Burch,82.5,,,Raw,,,,199.58,-181.44,-181.44,-181.44,,,,,,,SBD,M,Open,DQ,No
Jerry Jones,90,,,Raw,294.84,306.18,310.71,310.71,163.29,172.37,174.63,174.63,285.76,294.84,-310.71,294.84,780.18,SBD,M,Open,1,No
Anthony Fratto,90,,,Raw,297.1,-308.44,-312.98,297.1,161.03,172.37,-176.9,172.37,,303.91,-310.71,303.91,773.38,SBD,M,Open,2,No
Edmund Matz,90,,,Raw,,,,260.82,,,,167.83,303.91,319.78,,319.78,748.43,SBD,M,Open,3,No
Tom Farchione,90,,,Raw,,,,272.16,,,,176.9,299.37,-310.71,-310.71,299.37,748.43,SBD,M,Open,4,No
Frank Barefield,90,,,Raw,,,,274.42,,,,190.51,,281.23,,281.23,746.16,SBD,M,Open,5,No
Jack Weinstein,90,,,Raw,,,260.82,260.82,,,,197.31,,,,272.16,730.28,SBD,M,Open,6,No
Larry Russell,90,,,Raw,,,,258.55,,,,185.97,,,,272.16,716.68,SBD,M,Open,7,No
Gene Stevens,90,,,Raw,,,,226.8,,,,183.71,,,,272.16,682.66,SBD,M,Open,8,No
William Seno,100,,,Raw,,,,283.5,,,,235.87,,285.76,299.37,299.37,818.74,SBD,M,Open,1,No
Robert Gaynor,100,,,Raw,,,,290.3,,,,181.44,,322.05,-349.27,322.05,793.79,SBD,M,Open,2,No
Pat O'Brien,100,,,Raw,,,,283.5,,,,163.29,,,-349.27,308.44,755.23,SBD,M,Open,3,No
Tom Musciansi,100,,,Raw,,,,258.55,,,,185.97,,,,258.55,703.07,SBD,M,Open,4,No
Terry Moneymaker,100,,,Raw,,,,278.96,,,,,,,,,,SBD,M,Open,DQ,No
Tom Scott,110,,,Raw,,,,306.18,201.85,,,201.85,335.66,-353.8,,335.66,843.68,SBD,M,Open,1,No
John Tonti,110,,,Raw,,,,319.78,,,,201.85,290.3,301.64,-310.71,301.64,823.27,SBD,M,Open,2,No
William Stillwell,110,,,Raw,,,,276.69,,,,183.71,317.52,-333.39,,317.52,777.91,SBD,M,Open,3,No
T. Ferranti,110,,,Raw,,,,249.48,,,,206.38,,,,294.84,750.7,SBD,M,Open,4,No
Terry Weaver,110,,,Raw,,,,276.69,,,,165.56,,,,,,SBD,M,Open,DQ,No
Larry Kidney,110,,,Raw,-317.52,-317.52,-319.78,,,,,,,,,,,SBD,M,Open,DQ,No
Joseph White,110+,,136.64,Raw,340.19,353.8,362.87,362.87,217.72,-226.8,,217.72,322.05,,,322.05,902.65,SBD,M,Open,1,No
Henry Fera,110+,,137.1,Raw,340.19,353.8,,353.8,231.33,-240.4,,231.33,306.18,-319.78,-319.78,306.18,891.31,SBD,M,Open,2,No
George Walker,110+,,,Raw,290.3,299.37,306.18,306.18,,181.44,,181.44,,,303.91,303.91,791.52,SBD,M,Open,3,No
Ed Riley,110+,40,113.97,Raw,,,,272.16,,226.8,,226.8,,,,272.16,771.11,SBD,M,Open,4,No
