Division,WeightClassKg,Place,Name,Team,BodyweightKg,Best3SquatKg,Best3BenchKg,Best3DeadliftKg,TotalKg,Equipment,Event,Sex
Boys,52,1,Adrian Flores,San Antonio Holy Cross,50.98,129.27,63.5,142.88,335.66,Single-ply,SBD,M
Boys,52,2,Ricky Moreno,San Antonio Holy Cross,51.17,65.77,38.56,111.13,215.46,Single-ply,SBD,M
Boys,60,1,Manuel Padilla,Natalia,59.83,183.7,83.91,158.76,426.38,Single-ply,SBD,M
Boys,60,2,Roman Ornelaz,San Antonio Holy Cross,59.6,149.69,88.45,183.7,421.84,Single-ply,SBD,M
Boys,60,3,Sebastian Flores,Blanco,57.56,149.69,92.99,163.29,405.97,Single-ply,SBD,M
Boys,60,4,Ryan Juarez,Natalia,59.65,113.4,72.57,142.88,328.85,Single-ply,SBD,M
Boys,60,5,Saul Valadez,Natalia,56.02,120.2,58.97,129.27,308.44,Single-ply,SBD,M
Boys,60,6,Evy Curiel,Natalia,56.25,104.33,58.97,115.67,278.96,Single-ply,SBD,M
Boys,60,7,Juan Santos,San Antonio Holy Cross,59.87,83.91,52.16,111.13,247.21,Single-ply,SBD,M
Boys,67.5,1,Kevin Hernandez,Floresville,61.87,188.24,113.4,170.1,471.74,Single-ply,SBD,M
Boys,67.5,2,Stephen Garza,Lytle,66.63,165.56,95.25,197.31,458.13,Single-ply,SBD,M
Boys,67.5,3,David Ortega,Lytle,65.68,151.95,92.99,190.51,435.45,Single-ply,SBD,M
Boys,67.5,4,Jacob Gonzales,Floresville,60.37,170.1,97.52,165.56,433.18,Single-ply,SBD,M
Boys,67.5,5,Maverick Graham,Lytle,62.87,165.56,97.52,170.1,433.18,Single-ply,SBD,M
Boys,67.5,6,Joseph Lopez,Lytle,66.59,151.95,88.45,188.24,428.64,Single-ply,SBD,M
Boys,67.5,7,Justin Perez,San Antonio Holy Cross,64.59,149.69,70.31,185.97,405.97,Single-ply,SBD,M
Boys,67.5,8,Kevin Valdez,Castroville Medina Valley,63.78,129.27,90.72,149.69,369.68,Single-ply,SBD,M
Boys,67.5,9,Diego Zapata,Natalia,64.05,140.61,70.31,147.42,358.34,Single-ply,SBD,M
Boys,67.5,10,Paco Vargas,Blanco,66.86,136.08,72.57,149.69,358.34,Single-ply,SBD,M
Boys,67.5,11,Christian Flores,Blanco,62.1,136.08,74.84,145.15,356.07,Single-ply,SBD,M
Boys,67.5,12,Isaac Bourg,Bandera,65.45,124.74,70.31,151.95,347,Single-ply,SBD,M
Boys,67.5,13,Juan Perez,Lytle,62.01,102.06,70.31,145.15,317.51,Single-ply,SBD,M
Boys,67.5,14,Alfonso Carballo,San Antonio Southwest,65.27,92.99,61.23,111.13,265.35,Single-ply,SBD,M
Boys,67.5,15,Reese McDole,Natalia,65.59,81.65,54.43,90.72,226.8,Single-ply,SBD,M
Boys,67.5,DQ,Jj Roman,Bandera,64.23,108.86,,,,Single-ply,SBD,M
Boys,75,1,Nick Gonzales,Floresville,74.3,197.31,142.88,229.06,569.26,Single-ply,SBD,M
Boys,75,2,Luke Janosky,Castroville Medina Valley,72.57,183.7,113.4,192.78,489.88,Single-ply,SBD,M
Boys,75,3,Seth Taggs,Floresville,68.81,165.56,97.52,161.03,424.11,Single-ply,SBD,M
Boys,75,4,Jessie Zimmel,Bandera,73.07,142.88,90.72,170.1,403.7,Single-ply,SBD,M
Boys,75,5,Garrett Ralph,Lytle,72.08,149.69,92.99,158.76,401.43,Single-ply,SBD,M
Boys,75,6,Matthew Contreras,Natalia,67.27,142.88,72.57,145.15,360.61,Single-ply,SBD,M
Boys,75,7,Ruben Henricksen,Knippa,73.71,124.74,72.57,120.2,317.51,Single-ply,SBD,M
Boys,75,8,Aiden Keane,Bandera,69.4,102.06,70.31,129.27,301.64,Single-ply,SBD,M
Boys,75,9,Noah Jones,San Antonio Southwest,68.27,72.57,70.31,113.4,256.28,Single-ply,SBD,M
Boys,82.5,1,Steban Mireles,Castroville Medina Valley,82.1,190.51,117.93,190.51,498.95,Single-ply,SBD,M
Boys,82.5,2,Zach Whitley,Castroville Medina Valley,81.28,183.7,95.25,183.7,462.66,Single-ply,SBD,M
Boys,82.5,3,Jordan Lara,Knippa,80.78,188.24,83.91,188.24,460.4,Single-ply,SBD,M
Boys,82.5,4,Joseph Perez,Lytle,77.79,174.63,106.59,176.9,458.13,Single-ply,SBD,M
Boys,82.5,5,Joel Rios,Natalia,77.97,154.22,88.45,158.76,401.43,Single-ply,SBD,M
Boys,82.5,6,Thomas Lara,Natalia,79.11,147.42,72.57,158.76,378.75,Single-ply,SBD,M
Boys,82.5,7,Isaac Santos,Castroville Medina Valley,76.66,136.08,83.91,156.49,376.48,Single-ply,SBD,M
Boys,82.5,8,Brock Nichols,Blanco,79.97,136.08,74.84,147.42,358.34,Single-ply,SBD,M
Boys,90,1,Adrian Sustaita,Castroville Medina Valley,86.14,226.8,136.08,224.53,587.4,Single-ply,SBD,M
Boys,90,2,Kyle Martinez,Blanco,88.63,192.78,127.01,183.7,503.49,Single-ply,SBD,M
Boys,90,3,Jacob Ruiz,Blanco,88.36,176.9,124.74,181.44,483.08,Single-ply,SBD,M
Boys,90,4,Caden Fregia,Natalia,88.36,172.37,113.4,163.29,449.06,Single-ply,SBD,M
Boys,90,5,Kameron Frias,Natalia,86.68,163.29,108.86,174.63,446.79,Single-ply,SBD,M
Boys,90,6,Chance Lamb,Natalia,85.28,147.42,92.99,158.76,399.16,Single-ply,SBD,M
Boys,90,7,Brandon Capeheart,Knippa,88.18,147.42,92.99,156.49,396.89,Single-ply,SBD,M
Boys,90,8,Beck Nevarez,Blanco,83.19,142.88,86.18,156.49,385.55,Single-ply,SBD,M
Boys,90,9,Matthew Manka,Natalia,82.87,142.88,74.84,145.15,362.87,Single-ply,SBD,M
Boys,90,10,Brayden Hodge,Blanco,86.77,113.4,83.91,133.81,331.12,Single-ply,SBD,M
Boys,90,11,Abiel Chapa,San Antonio Southwest,84.87,102.06,68.04,111.13,281.23,Single-ply,SBD,M
Boys,90,12,Tristian Herrera,San Antonio Southwest,84.87,79.38,61.23,108.86,249.48,Single-ply,SBD,M
Boys,100,1,Hagen Brown,Floresville,93.08,247.21,154.22,226.8,628.23,Single-ply,SBD,M
Boys,100,2,Julian Martinez,Natalia,99.74,226.8,129.27,226.8,582.87,Single-ply,SBD,M
Boys,100,3,Javier Hernandez,Natalia,96.12,192.78,124.74,199.58,517.1,Single-ply,SBD,M
Boys,100,4,Peter Billalobos,Natalia,90.76,181.44,111.13,195.04,487.61,Single-ply,SBD,M
Boys,100,5,Seth Almendarez,San Antonio Holy Cross,98.93,183.7,120.2,183.7,487.61,Single-ply,SBD,M
Boys,100,6,Jacob Huerta,San Antonio Southwest,96.39,172.37,111.13,183.7,467.2,Single-ply,SBD,M
Boys,100,7,Uriel Arellano,Natalia,94.8,145.15,120.2,158.76,424.11,Single-ply,SBD,M
Boys,100,8,Matthew Billalobos,Natalia,98.11,154.22,97.52,170.1,421.84,Single-ply,SBD,M
Boys,100,9,Michael Martinez,Natalia,90.95,154.22,95.25,154.22,403.7,Single-ply,SBD,M
Boys,100,10,Angel Aguilar,Bandera,96.07,142.88,111.13,147.42,401.43,Single-ply,SBD,M
Boys,100,11,Jeremiah Gomez,Natalia,97.7,149.69,90.72,158.76,399.16,Single-ply,SBD,M
Boys,100,12,Gino Santos,San Antonio Holy Cross,96.48,120.2,79.38,183.7,383.29,Single-ply,SBD,M
Boys,100,13,Will Adams,Blanco,97.89,138.35,97.52,147.42,383.29,Single-ply,SBD,M
Boys,100,14,Nathan Cavazos,San Antonio Holy Cross,96.93,158.76,65.77,147.42,371.95,Single-ply,SBD,M
Boys,100,15,Chris Tenorio,San Antonio Southwest,95.93,117.93,104.33,138.35,360.61,Single-ply,SBD,M
Boys,100,16,Samuel Grodman,Bandera,91.35,147.42,83.91,124.74,356.07,Single-ply,SBD,M
Boys,100,17,Jonathan Luna,San Antonio Southwest,91.58,108.86,102.06,124.74,335.66,Single-ply,SBD,M
Boys,100,18,Marco Dominguez,San Antonio Southwest,91.4,97.52,81.65,111.13,290.3,Single-ply,SBD,M
Boys,110,1,Austen Flores,San Antonio Holy Cross,107.68,249.48,149.69,272.16,671.32,Single-ply,SBD,M
Boys,110,2,Jacob Thomas,Floresville,103.78,240.4,149.69,199.58,589.67,Single-ply,SBD,M
Boys,110,3,Chance Horton,Blanco,105.28,192.78,115.67,183.7,492.15,Single-ply,SBD,M
Boys,110,4,Eric Rodriguez,Floresville,107.14,170.1,124.74,183.7,478.54,Single-ply,SBD,M
Boys,110,5,AJ Ortiz,San Antonio Holy Cross,109.45,154.22,68.04,174.63,396.89,Single-ply,SBD,M
Boys,110,6,Jesus Gomez,San Antonio Southwest,104.33,131.54,99.79,136.08,367.41,Single-ply,SBD,M
Boys,110,7,Mario Sanchez,San Antonio Southwest,105.82,120.2,77.11,145.15,342.46,Single-ply,SBD,M
Boys,110,8,Joshua Pereida,San Antonio Southwest,107.05,117.93,79.38,115.67,312.98,Single-ply,SBD,M
Boys,110,DQ,Colton Perkins,Bandera,105.32,136.08,,,,Single-ply,SBD,M
Boys,110,DQ,Victor Garcia,Lytle,105.6,,,,,Single-ply,SBD,M
Boys,125,1,Santiago Leija,Natalia,118.48,238.14,142.88,240.4,621.42,Single-ply,SBD,M
Boys,125,2,Logan Crane,Bandera,110.31,215.46,136.08,195.04,546.58,Single-ply,SBD,M
Boys,125,3,Dylan Carrol,Castroville Medina Valley,117.3,204.12,127.01,199.58,530.7,Single-ply,SBD,M
Boys,125,4,George Lockamy,Floresville,117.44,206.38,115.67,192.78,514.83,Single-ply,SBD,M
Boys,125,5,Juan Jose Perez,Lytle,117.89,195.04,108.86,183.7,487.61,Single-ply,SBD,M
Boys,125,6,Pedro Castillo,Floresville,120.43,188.24,113.4,174.63,476.27,Single-ply,SBD,M
Boys,125,7,Arturo Lopez,San Antonio Southwest,124.19,167.83,95.25,163.29,426.38,Single-ply,SBD,M
Boys,125,8,Paul Billalobos,Natalia,117.34,167.83,86.18,167.83,421.84,Single-ply,SBD,M
Boys,125,9,Damien Hernandez,San Antonio Holy Cross,114.71,142.88,111.13,158.76,412.77,Single-ply,SBD,M
Boys,125,10,Oscar Sandoval #2,San Antonio Southwest,111.18,90.72,61.23,106.59,258.55,Single-ply,SBD,M
Boys,125+,1,Joseph Peña #1,San Antonio Holy Cross,158.94,362.87,206.38,256.28,825.54,Single-ply,SBD,M
Boys,125+,2,Odie De La Rosa,Castroville Medina Valley,148.55,249.48,158.76,215.46,623.69,Single-ply,SBD,M
Boys,125+,3,Victor Cruz,Natalia,131.72,222.26,129.27,208.65,560.19,Single-ply,SBD,M
Boys,125+,4,Moses Flores,Castroville Medina Valley,134.9,176.9,127.01,172.37,476.27,Single-ply,SBD,M
Boys,125+,5,Jeremiah Price,San Antonio Southwest,131.59,124.74,113.4,163.29,401.43,Single-ply,SBD,M
Boys,125+,6,George Ortiz,San Antonio Southwest,135.67,147.42,88.45,165.56,401.43,Single-ply,SBD,M
Boys,125+,7,Caleb Calamaco,San Antonio Southwest,129,140.61,99.79,156.49,396.89,Single-ply,SBD,M
Boys,125+,DQ,Mike Kessler,Castroville Medina Valley,144.42,247.21,131.54,,,Single-ply,SBD,M
