Division,WeightClassKg,Place,Name,Team,BodyweightKg,Best3SquatKg,Best3BenchKg,Best3DeadliftKg,TotalKg,Equipment,Event,Sex
Boys,52,1,Brandon Fernandez,Poteet,47.63,133.81,74.84,136.08,344.73,Single-ply,SBD,M
Boys,56,1,Brian Lazo,Crystal City,54.79,90.72,49.9,97.52,238.14,Single-ply,SBD,M
Boys,60,1,Colton Bean,Devine,58.88,142.88,77.11,145.15,365.14,Single-ply,SBD,M
Boys,60,DQ,Taylor Weber,Jourdanton,59.78,,,,,Single-ply,SBD,M
Boys,67.5,1,Stephen Garza,Lytle,66.86,170.1,97.52,204.12,471.74,Single-ply,SBD,M
Boys,67.5,2,David Ortega,Lytle,66.86,161.03,92.99,197.31,451.32,Single-ply,SBD,M
Boys,67.5,3,Luke Torres,Devine,62.69,172.37,104.33,172.37,449.06,Single-ply,SBD,M
Boys,67.5,4,Aaron Sanchez,Poteet,65.95,165.56,97.52,174.63,437.72,Single-ply,SBD,M
Boys,67.5,5,Maverick Graham,Lytle,61.6,165.56,97.52,170.1,433.18,Single-ply,SBD,M
Boys,67.5,6,Chris Garcia,Pleasanton,65.59,158.76,97.52,163.29,419.57,Single-ply,SBD,M
Boys,67.5,7,Juan Guzman,Crystal City,63.14,142.88,88.45,149.69,381.02,Single-ply,SBD,M
Boys,67.5,8,Paul Olvera,Crystal City,66.5,120.2,63.5,138.35,322.05,Single-ply,SBD,M
Boys,67.5,9,Vicente Ibarra,Crystal City,62.23,102.06,65.77,129.27,297.1,Single-ply,SBD,M
Boys,67.5,DQ,Garrett McDonald,Jourdanton,60.06,174.63,,,,Single-ply,SBD,M
Boys,67.5,DQ,Deull Arnold,Jourdanton,66.41,140.61,,,,Single-ply,SBD,M
Boys,75,1,Ricardo Saldana,Pleasanton,71.03,208.65,124.74,167.83,501.22,Single-ply,SBD,M
Boys,75,2,Jose Fargason,Devine,67.31,163.29,104.33,181.44,449.06,Single-ply,SBD,M
Boys,75,3,Sergio Rodriguez,Pleasanton,73.66,163.29,92.99,183.7,439.98,Single-ply,SBD,M
Boys,75,4,Ralph Garrett,Lytle,72.94,172.37,102.06,163.29,437.72,Single-ply,SBD,M
Boys,82.5,1,Lucas Byrd,Devine,76.84,210.92,120.2,215.46,546.58,Single-ply,SBD,M
Boys,82.5,2,Joseph Perez,Lytle,81.19,190.51,115.67,185.97,492.15,Single-ply,SBD,M
Boys,82.5,3,Dakota Woffard,Devine,81.83,170.1,124.74,170.1,464.93,Single-ply,SBD,M
Boys,82.5,4,Nathan Hernandez,Pleasanton,81.65,158.76,124.74,158.76,442.25,Single-ply,SBD,M
Boys,82.5,5,Tim Carrasco,Poteet,81.28,156.49,88.45,190.51,435.45,Single-ply,SBD,M
Boys,82.5,6,Jordan Valdez,Jourdanton,80.83,179.17,113.4,,292.57,Single-ply,SB,M
Boys,90,1,Austin Felan,Devine,88.99,210.92,142.88,181.44,535.24,Single-ply,SBD,M
Boys,90,2,DeAndre Harden,Lytle,87.72,195.04,122.47,195.04,512.56,Single-ply,SBD,M
Boys,90,3,Michael Gomez,Poteet,82.28,190.51,104.33,185.97,480.81,Single-ply,SBD,M
Boys,90,5,Noah Bunger,Jourdanton,87.18,142.88,79.38,,222.26,Single-ply,SB,M
Boys,90,DQ,Evan Pawelek,Jourdanton,88.9,183.7,,,,Single-ply,SBD,M
Boys,90,DQ,Rickey Rosales,Jourdanton,87.63,,,,,Single-ply,SBD,M
Boys,100,1,Tyler Crisp,Poteet,95.8,260.82,120.2,244.94,625.96,Single-ply,SBD,M
Boys,100,2,Da'von Simmons,Crystal City,98.88,240.4,129.27,183.7,553.38,Single-ply,SBD,M
Boys,100,3,Mark Puente,Crystal City,98.79,222.26,142.88,179.17,544.31,Single-ply,SBD,M
Boys,90,4,Alex Luna,Crystal City,89.99,142.88,97.52,167.83,408.23,Single-ply,SBD,M
Boys,100,4,Adriel Tovar,Poteet,94.8,181.44,102.06,197.31,480.81,Single-ply,SBD,M
Boys,100,5,Diego Hernandez,Devine,95.71,167.83,95.25,199.58,462.66,Single-ply,SBD,M
Boys,100,6,Moses Carrasco,Poteet,91.63,174.63,88.45,188.24,451.32,Single-ply,SBD,M
Boys,100,7,Joe Gutierrez,Crystal City,95.35,170.1,92.99,158.76,421.84,Single-ply,SBD,M
Boys,100,8,Christian Hernandez,Devine,98.61,158.76,92.99,136.08,387.82,Single-ply,SBD,M
Boys,100,9,Lino Castro,Crystal City,95.44,131.54,72.57,127.01,331.12,Single-ply,SBD,M
Boys,110,1,Anthony Allegre,Poteet,109.04,190.51,113.4,188.24,492.15,Single-ply,SBD,M
Boys,110,2,Sam Ritchey,Poteet,105.05,188.24,117.93,181.44,487.61,Single-ply,SBD,M
Boys,110,3,Amador Colmenero,Lytle,107.68,167.83,108.86,176.9,453.59,Single-ply,SBD,M
Boys,110,4,Victor Garcia,Lytle,106.23,163.29,127.01,158.76,449.06,Single-ply,SBD,M
Boys,110,5,Mark Ruiz,Crystal City,104.51,170.1,86.18,185.97,442.25,Single-ply,SBD,M
Boys,125,1,Austin Soto,Devine,123.65,274.42,204.12,258.55,737.09,Single-ply,SBD,M
Boys,125,2,Christian Arredondo,Devine,117.3,222.26,151.95,188.24,562.45,Single-ply,SBD,M
Boys,125,3,Tim Sanchez,Pleasanton,116.39,254.01,102.06,190.51,546.58,Single-ply,SBD,M
Boys,125,4,Brian Briones,Jourdanton,120.38,174.63,115.67,174.63,464.93,Single-ply,SBD,M
Boys,125,5,Carlos Romero,Poteet,124.65,163.29,83.91,199.58,446.79,Single-ply,SBD,M
Boys,125,DQ,Jose Juan Perez,Lytle,118.3,204.12,,,,Single-ply,SBD,M
Boys,125+,1,Oscar Castillo,Pleasanton,125.92,294.84,170.1,249.48,714.41,Single-ply,SBD,M
Boys,125+,2,Jacob Pace,Pleasanton,130.36,285.76,138.35,229.06,653.17,Single-ply,SBD,M
Boys,125+,3,Joshua Van Dong,Lytle,134.08,136.08,102.06,149.69,387.82,Single-ply,SBD,M
Boys,125+,DQ,Ben Pagan,Poteet,162.11,,,,,Single-ply,SBD,M
Boys,,DQ,Kevin Rubalcava,Pleasanton,,,,,,Single-ply,SBD,M
Boys,,DQ,Ethan Solomon,Pleasanton,,,,,,Single-ply,SBD,M
Boys,,DQ,Sisto Pacheco,Pleasanton,,,,,,Single-ply,SBD,M
Boys,,DQ,Jacob Fanno,Jourdanton,,,,,,Single-ply,SBD,M
Boys,,DQ,Alexander Galvan,Jourdanton,,,,,,Single-ply,SBD,M
