Name,Division,BodyweightKg,WeightClassKg,AgeClass,Squat1Kg,Squat2Kg,Squat3Kg,Best3SquatKg,Bench1Kg,Bench2Kg,Bench3Kg,Best3BenchKg,Deadlift1Kg,Deadlift2Kg,Deadlift3Kg,Best3DeadliftKg,TotalKg,Place,Sex,Event,Equipment,BirthDate
Rhys Williams,M-C-SJ,62.7,66,14-17.5,60,65,70,70,45,50,52.5,52.5,80,90,100,100,222.5,1,M,SBD,Raw,
Ibnu Ayyub,M-C-Sen,65.5,66,23.5-38.5,165,167.5,172.5,172.5,95,102.5,-110,102.5,190,200,-210.5,200,475,1,M,SBD,Raw,
Leigh Edwards,M-C-Sen,65.7,66,23.5-38.5,140,145,-147.5,145,105,-107.5,112.5,112.5,142.5,145,152.5,152.5,410,2,M,SBD,Raw,
Roger Powell,M-C-M5,63.9,66,79.5-99,70,80,90,90,50,55,,55,120,130,-140,130,275,1,M,SBD,Raw,
Ted Byrne,M-C-M3,62.9,66,59.5-68.5,110,120,125,125,75,77.5,80,80,140,170,187.5,187.5,392.5,1,M,SBD,Raw,
Sam Pickersgill,M-C-SJ,72.5,74,14-17.5,60,65,-72.5,65,45,50,-55,50,100,110,-117.5,110,225,1,M,SBD,Raw,
James Roberts,M-C-Sen,72,74,23.5-38.5,180,190,200,200,135,-142.5,-142.5,135,220,230,,230,565,1,M,SBD,Raw,
Jody Carvell,M-C-M1,72.5,74,39.5-48.5,140,150,-157.5,150,80,85,90,90,170,190,197.5,197.5,437.5,1,M,SBD,Raw,
Tom Shipton,M-C-JR,82.1,83,18.5-22.5,190,197.5,202.5,202.5,127.5,132.5,140,140,200,210,215,215,557.5,1,M,SBD,Raw,
Jakub Zareba,M-C-JR,82,83,18.5-22.5,160,170,180,180,100,107.5,112.5,112.5,220,237.5,250,250,542.5,2,M,SBD,Raw,
Bevan Prior,M-C-Sen,78.9,83,23.5-38.5,125,-140,-140,125,70,77.5,-82.5,77.5,140,150,170,170,372.5,1,M,SBD,Raw,
Shaun Haynes,M-C-M1,82.1,83,39.5-48.5,160,180,200,200,120,130,140,140,180,220,-230,220,560,1,M,SBD,Raw,
Ben Pape,M-C-JR,92.8,93,18.5-22.5,235,250.5,-260,250.5,125,135,142.5,142.5,260,275,-282.5,275,668,1,M,SBD,Raw,1996-11-19
Ubayd Ahmed,M-C-JR,90.8,93,18.5-22.5,200,210,-212.5,210,110,115,120,120,220,-227.5,227.5,227.5,557.5,2,M,SBD,Raw,
Andrew Russell,M-C-JR,89.7,93,18.5-22.5,175,190,200,200,112.5,120,127.5,127.5,205,-220,222.5,222.5,550,3,M,SBD,Raw,
Henry Taylor,M-C-JR,92.3,93,18.5-22.5,-157.5,157.5,162.5,162.5,85,92.5,97.5,97.5,175,182.5,190,190,450,4,M,SBD,Raw,
Simeon Singh,M-C-JR,88.2,93,18.5-22.5,130,-137.5,142.5,142.5,90,95,100,100,150,160,175,175,417.5,5,M,SBD,Raw,
James Hill,M-C-SJ,87.5,93,18.5-22.5,120,127.5,132.5,132.5,92.5,-100,102.5,102.5,170,177.5,180,180,415,1,M,SBD,Raw,
Jamie Green,M-C-SJ,92.8,93,14-17.5,100,110,120,120,105,115,120,120,140,150,-160,150,390,2,M,SBD,Raw,
Euan Tempest,M-C-SJ,86.9,93,14-17.5,105,112.5,117.5,117.5,70,75,80,80,120,130,145,145,342.5,3,M,SBD,Raw,
Tom Vivian,M-C-Sen,90.1,93,23.5-38.5,180,190,200,200,120,125,-130,125,200,210,220,220,545,1,M,SBD,Raw,
Josh Branter,M-C-Sen,90.1,93,23.5-38.5,170,180,185,185,107.5,115,117.5,117.5,207.5,220,-227.5,220,522.5,2,M,SBD,Raw,
Jim Davison,M-C-Sen,88.4,93,23.5-38.5,165,175,180,180,85,-90,90,90,190,200,205,205,475,3,M,SBD,Raw,
Suraj Jewatha,M-C-Sen,83.4,93,23.5-38.5,150,160,170,170,100,107.5,112.5,112.5,170,-175,-175,170,452.5,4,M,SBD,Raw,
Jason Talbot,M-C-M1,90.3,93,39.5-49.5,140,155,170,170,140,150,155,155,140,175,200,200,525,1,M,SBD,Raw,
Alistair Mag,M-C-M1,91.9,93,39.5-49.5,-170,170,180,180,110,115,120,120,215,220,225,225,525,2,M,SBD,Raw,
Oscar Burton,M-C-SJ,100.1,105,14-17.5,190,197.5,202.5,202.5,115,120,122.5,122.5,212.5,225,-232.5,225,550,1,M,SBD,Raw,
Joe Mercer,M-C-SJ,100.3,105,14-17.5,125,132.5,140,140,90,97.5,102.5,102.5,180,192.5,200,200,442.5,2,M,SBD,Raw,
Simon Smyth,M-C-Sen,101.2,105,23.5-38.5,220,230,-235,230,135,142.5,145,145,200,-220,-220,200,575,1,M,SBD,Raw,
Darren Lloyd,M-C-M2,104,105,49.5-58.5,160,,,160,150,-160,165,165,200,220,-230,220,545,1,M,SBD,Raw,
Casey Dunn,M-C-JR,106.5,120,18.5-22.5,195,210,220,220,120,125,,125,235,245,-255,245,590,1,M,SBD,Raw,
Alex Van Hagen,M-C-Sen,116.6,120,23.5-38.5,220,232.5,-245,232.5,140,150,-155,150,255,272.5,282.5,282.5,665,1,M,SBD,Raw,
Themis Karavellas,M-C-Sen,105.7,120,23.5-38.5,192.5,202.5,210,210,142.5,150,152.5,152.5,197.5,210,-220,210,572.5,2,M,SBD,Raw,
Chris Gibbons,M-C-Sen,110.3,120,23.5-38.5,175,182.5,190,190,110,120,127.5,127.5,185,200,220,220,537.5,3,M,SBD,Raw,
Richard Gough,M-C-M1,141.4,120+,18.5-22.5,90,100,-110,100,70,80,-85,80,120,130,,130,310,1,M,SBD,Raw,
Dianne Hextall,F-C-M2,45.8,47,49.5-58.5,50,55,-57.5,55,-32.5,32.5,36,36,75,80,85.5,85.5,176.5,1,F,SBD,Raw,
Michelle Franklin,F-C-M2,51.1,52,49.5-58.5,60,70,,70,40,47.5,52.5,52.5,92.5,100,,100,222.5,1,F,SBD,Raw,
Angela Houldershaw,F-C-M2,62.3,63,49.5-58.5,70,75,-80,75,40,45,47.5,47.5,105,110,112.5,112.5,235,1,F,SBD,Raw,
Julie Rose,F-C-M2,71.8,72,49.5-58.5,85,90,95,95,47.5,50,52.5,52.5,95,105,112.5,112.5,260,1,F,SBD,Raw,
Annabel Hunt,F-C-M1,54.8,57,39.5-48.5,90,95,-100,95,42.5,45,47.5,47.5,127.5,135,-138,135,277.5,1,F,SBD,Raw,
Herminia Greaves,F-C-M1,61.1,63,39.5-48.5,47.5,52.5,57.5,57.5,27.5,30,32.5,32.5,62.5,67.5,72.5,72.5,162.5,1,F,SBD,Raw,
Wendie Kirkland,F-C-M1,71,72,39.5-48.5,112.5,120,125,125,67.5,72.5,-78,72.5,120,130,140,140,337.5,1,F,SBD,Raw,
Jodi Weaver,F-C-M1,84,84,39.5-48.5,120,125,130,130,57.5,60,62.5,62.5,117.5,125,130,130,322.5,1,F,SBD,Raw,
Nicola Maycock,F-C-M1,82.9,84,39.5-48.5,85,92.5,-100,92.5,50,55,-57.5,55,110,117.5,125,125,272.5,2,F,SBD,Raw,
Lisa Welch,F-C-M1,83.4,84,39.5-48.5,90,95,100,100,40,42.5,45,45,107.5,115,120,120,265,3,F,SBD,Raw,
Sally Robinson,F-C-M1,82.3,84,39.5-48.5,80,-87.5,-87.5,80,50,55,57.5,57.5,100,110,117.5,117.5,255,4,F,SBD,Raw,
Rebecca Wilson,F-C-M1,82.4,84,39.5-48.5,-80,80,85,85,45,47.5,50,50,87.5,95,100,100,235,5,F,SBD,Raw,
Jo Parry,F-C-M1,76.6,84,39.5-48.5,60,62.5,67.5,67.5,35,40,42.5,42.5,90,100,110,110,220,6,F,SBD,Raw,
Sarah Sullivan,F-C-M1,78.5,84,39.5-48.5,-50,50,-55,50,25,27.5,30,30,57.5,62.5,65,65,145,7,F,SBD,Raw,
Claire Lilley,F-C-Snr,56.3,57,23.5-38.5,105,110,115,115,-67.5,67.5,70,70,135,140,,140,325,1,F,SBD,Raw,
Sophie Hardy,F-C-Snr,61.8,63,23.5-38.5,130,-135,-135,130,70,-75,-75,70,140,142.5,145,145,345,1,F,SBD,Raw,
Sarah Barron,F-C-Snr,59.7,63,23.5-38.5,92.5,100,-105,100,52.5,-57.5,-57.5,52.5,102.5,110,117.5,117.5,270,2,F,SBD,Raw,
Cassie Cliff,F-C-Snr,63,63,23.5-38.5,80,90,-95,90,50,57.5,-60,57.5,85,100,-102.5,100,247.5,3,F,SBD,Raw,
Sadie York,F-C-Snr,65.4,72,23.5-38.5,85,92.5,100,100,35,40,42.5,42.5,100,110,117.5,117.5,260,1,F,SBD,Raw,
Natalie Hill,F-C-Snr,67.8,72,23.5-38.5,85,-90,-90,85,35,40,42.5,42.5,100,107.5,115,115,242.5,2,F,SBD,Raw,
Lisa White,F-C-Snr,68,72,23.5-38.5,55,60,62.5,62.5,27.5,30,32.5,32.5,62.5,70,77.5,77.5,172.5,3,F,SBD,Raw,
Nicola Heathcote,F-C-Snr,68.3,72,23.5-38.5,42.5,47.5,50,50,27.5,30,32.5,32.5,57.5,62.5,65,65,147.5,4,F,SBD,Raw,
Paula Bowyer,F-C-Snr,78.6,84,23.5-38.5,70,75,80,80,37.5,40,42.5,42.5,90,-97.5,97.5,97.5,220,1,F,SBD,Raw,
Gillian Irvine,F-C-Snr,77.7,84,23.5-38.5,-75,-75,75,75,37.5,40,-42.5,40,87.5,-95,95,95,210,2,F,SBD,Raw,
Sarah Bouskill,F-C-Snr,115.1,84+,23.5-38.5,140,151,-155,151,90,95,100,100,150,165,-172.5,165,416,1,F,SBD,Raw,
Hannah Stansfield,F-C-Snr,90,84+,23.5-38.5,112.5,120,125,125,50,55,60,60,127.5,135,140,140,325,2,F,SBD,Raw,
Hollie Gardner,F-C-Snr,88.6,84+,23.5-38.5,95,105,112.5,112.5,42.5,47.5,52.5,52.5,125,135,142.5,142.5,307.5,3,F,SBD,Raw,
Terri Walker,F-C-Snr,102.5,84+,23.5-38.5,70,75,80,80,50,52.5,55,55,102.5,110,117.5,117.5,252.5,4,F,SBD,Raw,
Sade Garrison,F-C-Snr,100,84+,23.5-38.5,72.5,77.5,80,80,30,35,37.5,37.5,105,110,-112.5,110,227.5,5,F,SBD,Raw,
Rebbeca Dobbs,F-C-Snr,88.6,84+,23.5-38.5,67.5,72.5,75,75,40,42.5,-45,42.5,75,80,85,85,202.5,6,F,SBD,Raw,
Tasmin Gamble,F-C-JR,45.3,47,18.5-22.5,65,67.5,72.5,72.5,35,37.5,-40,37.5,75,80,85.5,85.5,195.5,1,F,SBD,Raw,
April Hui,F-C-JR,50.8,52,18.5-22.5,75,-82.5,82.5,82.5,40,45,-50,45,95,102.5,110,110,237.5,1,F,SBD,Raw,
Lily Belsher,F-C-JR,50.2,52,18.5-22.5,45,50,52.5,52.5,25,27.5,31,31,60,67.5,75.5,75.5,159,2,F,SBD,Raw,
Fern Wilson,F-C-JR,62.2,63,18.5-22.5,67.5,72.5,77.5,77.5,37.5,42.5,45,45,82.5,87.5,92.5,92.5,215,1,F,SBD,Raw,
Ashley Lewis,F-C-JR,70.8,72,18.5-22.5,85,92.5,-100,92.5,70,72.5,-75,72.5,105,112.5,120,120,285,1,F,SBD,Raw,
Ruby Hrynisak,F-C-JR,78.1,84,18.5-22.5,130,135,,135,60,67.5,72.5,72.5,120,135,,135,342.5,1,F,SBD,Raw,
