Division,WeightClassKg,Place,Name,Team,BodyweightKg,Best3SquatKg,Best3BenchKg,Best3DeadliftKg,TotalKg,Equipment,Event,Sex
Boys,52,1,Jerry Fail,Elkhart,49.26,102.06,52.16,102.06,256.28,Single-ply,SBD,M
Boys,56,1,Chandler Prnka,Malakoff,53.25,140.61,65.77,140.61,347,Single-ply,SBD,M
Boys,56,2,Cannon Churchman,Palestine Westwood,55.79,145.15,65.77,136.08,347,Single-ply,SBD,M
Boys,56,3,KaDonte Watkins,Palestine Westwood,53.16,104.33,61.23,127.01,292.57,Single-ply,SBD,M
Boys,60,1,Kyle Kennerk,Cayuga,59.87,124.74,65.77,138.35,328.85,Single-ply,SBD,M
Boys,60,2,Cooper Jordan,Elkhart,59.15,122.47,83.91,,206.38,Single-ply,SB,M
Boys,67.5,1,Demarkus Ray,Elkhart,66.04,181.44,102.06,183.7,467.2,Single-ply,SBD,M
Boys,67.5,2,Nathan Cheatham,Palestine Westwood,63.87,136.08,79.38,145.15,360.61,Single-ply,SBD,M
Boys,75,1,Michael Jones,Elkhart,74.12,204.12,120.2,217.72,542.04,Single-ply,SBD,M
Boys,75,2,Taylor Vincent,Cayuga,72.57,188.24,86.18,158.76,433.18,Single-ply,SBD,M
Boys,75,3,Ethan Snow,Malakoff,71.94,188.24,79.38,149.69,417.3,Single-ply,SBD,M
Boys,75,4,Jp Hucklebridge,Palestine Westwood,73.21,158.76,79.38,161.03,399.16,Single-ply,SBD,M
Boys,82.5,1,Ryan Lindsay,Elkhart,81.56,240.4,120.2,222.26,582.87,Single-ply,SBD,M
Boys,82.5,2,Nate Bell,Elkhart,77.11,226.8,131.54,199.58,557.92,Single-ply,SBD,M
Boys,82.5,3,Mike Agan,Elkhart,80.92,215.46,133.81,197.31,546.58,Single-ply,SBD,M
Boys,82.5,4,Kevin Kennerk,Cayuga,79.56,172.37,77.11,181.44,430.91,Single-ply,SBD,M
Boys,82.5,5,Cassen Grasch,Cayuga,76.57,147.42,86.18,,233.6,Single-ply,SB,M
Boys,90,1,Gavin Defore,Elkhart,89.36,226.8,149.69,224.53,601.01,Single-ply,SBD,M
Boys,90,2,Jamar Clewis,Palestine Westwood,89.27,231.33,120.2,195.04,546.58,Single-ply,SBD,M
Boys,100,1,Brendan Harcrow,Cayuga,98.16,222.26,142.88,222.26,587.4,Single-ply,SBD,M
Boys,100,2,Caleb Adams,Malakoff,90.54,188.24,117.93,181.44,487.61,Single-ply,SBD,M
Boys,100,3,Austin Prevost,Malakoff,92.44,181.44,92.99,167.83,442.25,Single-ply,SBD,M
Boys,100,4,Tristan LeGard,Cayuga,96.16,147.42,113.4,149.69,410.5,Single-ply,SBD,M
Boys,100,5,Matthew Barber,Cayuga,96.62,136.08,74.84,147.42,358.34,Single-ply,SBD,M
Boys,100,DQ,Brendan McClintock,Malakoff,91.72,,,,,Single-ply,SBD,M
Boys,110,1,TJ Jones,Elkhart,108.32,260.82,142.88,238.14,641.83,Single-ply,SBD,M
Boys,110,2,Dontavious Robinson,Palestine Westwood,106.87,167.83,90.72,170.1,428.64,Single-ply,SBD,M
Boys,110,3,Joe Ingram,Cayuga,109.59,149.69,74.84,183.7,408.23,Single-ply,SBD,M
Boys,125,1,Keevon Jackson,Palestine Westwood,121.74,231.33,99.79,185.97,517.1,Single-ply,SBD,M
Boys,125,2,Lincoln Rogers,Malakoff,113.22,185.97,117.93,172.37,476.27,Single-ply,SBD,M
Boys,125+,1,Coby Wilbanks,Malakoff,146.42,258.55,136.08,,394.63,Single-ply,SB,M
