WeightClassKg,Division,Sex,Name,Country,BirthYear,BodyweightKg,Bench1Kg,Bench2Kg,Bench3Kg,Best3BenchKg,Place,Bench4Kg,TotalKg,Equipment,Event
44,Masters 1,F,Petra Held,Germany,1958,43.2,57.5,62.5,-65,62.5,1,,62.5,Single-ply,B
48,Masters 1,F,Doris Illeditsch-Wanner,Germany,1963,47.9,77.5,80,82.5,82.5,1,,82.5,Single-ply,B
48,Masters 1,F,Rossella Montalti,Italy,1959,46.75,-55,-55,55,55,2,,55,Single-ply,B
52,Masters 1,F,Karin Engelbrecht,Germany,1956,51.45,82.5,-85,85,85,1,,85,Single-ply,B
52,Masters 1,F,Catherine Langevin,France,1962,50.45,70,-75,75,75,2,,75,Single-ply,B
52,Masters 1,F,Lucette Desfarges,France,1957,51.55,-65,65,-70,65,3,,65,Single-ply,B
56,Masters 1,F,Bernadette Andreani,France,1958,55.1,70,72.5,75,75,1,,75,Single-ply,B
56,Masters 1,F,Paola Guidi,Italy,1962,54.9,67.5,-72.5,72.5,72.5,2,,72.5,Single-ply,B
56,Masters 1,F,Leigh Haines,USA,1960,55.6,-72.5,-72.5,72.5,72.5,3,,72.5,Single-ply,B
56,Masters 1,F,Dana Deutch,USA,1962,55.4,65,70,-77.5,70,4,,70,Single-ply,B
56,Masters 1,F,Klothilde Bruder,Germany,1956,55.55,65,-72.5,-75,65,5,,65,Single-ply,B
60,Masters 1,F,Daniele Taret,France,1958,59.15,100,107.5,-110,107.5,1,,107.5,Single-ply,B
60,Masters 1,F,Angela Simons,USA,1961,58.4,97.5,-102.5,-105,97.5,2,,97.5,Single-ply,B
60,Masters 1,F,Monika Schnölzer,Germany,1963,58.25,85,90,92.5,92.5,3,,92.5,Single-ply,B
60,Masters 1,F,Patricia Siveny,USA,1960,58.3,-70,-70,70,70,4,,70,Single-ply,B
67.5,Masters 1,F,Eva Hohmann,Germany,1957,65.85,-105,105,-110,105,1,,105,Single-ply,B
67.5,Masters 1,F,Evelyne Herbin,France,1956,67.45,-95,95,-100,95,2,,95,Single-ply,B
67.5,Masters 1,F,Josefine Nemeth,Hungary,1955,64.4,75,-80,-82.5,75,3,,75,Single-ply,B
67.5,Masters 1,F,Edith Fenzl,Austria,1964,63.6,37.5,-42.5,42.5,42.5,4,,42.5,Single-ply,B
75,Masters 1,F,Regina Haas,Germany,1962,69.15,105,-110,110,110,1,,110,Single-ply,B
75,Masters 1,F,Äsa Halvorsson,Sweden,1962,73.6,105,110,-112.5,110,2,,110,Single-ply,B
75,Masters 1,F,Ursula Häuser,Germany,1960,72.45,100,-105,-105,100,3,,100,Single-ply,B
75,Masters 1,F,Maureen Post,USA,1957,68.95,-102.5,-102.5,-102.5,,DQ,,,Single-ply,B
82.5,Masters 1,F,Barbara Pawlik,Poland,1959,81.9,100,105,-110,105,1,,105,Single-ply,B
82.5,Masters 1,F,Birgit Witt,Germany,1963,81.6,90,95,-97.5,95,2,,95,Single-ply,B
82.5,Masters 1,F,Pamela Zangl,USA,1961,76.8,82.5,87.5,-95,87.5,3,,87.5,Single-ply,B
82.5,Masters 1,F,Sarpa Kokkonen,Finland,1958,75.5,67.5,-75,-87.5,67.5,4,,67.5,Single-ply,B
90,Masters 1,F,Ulrike Herchenhein,Germany,1962,89.25,122.5,130,135,135,1,,135,Single-ply,B
90+,Masters 1,F,Merja Mynttinen,Finland,1958,104.5,135,143,145,145,1,,145,Single-ply,B
90+,Masters 1,F,Paulette Calhoun,USA,1958,94.45,95,100,-105,100,2,,100,Single-ply,B
90+,Masters 1,F,Jacqueline Pepper,UK,1960,111.65,65,75,-87.5,75,3,,75,Single-ply,B
44,Masters 2,F,Claudine Lacombe,France,1951,42.2,57.5,-60,60,60,1,-61,60,Single-ply,B
48,Masters 2,F,Vuokko Viitasaari,Finland,1954,47.55,70,72.5,-77.5,72.5,1,,72.5,Single-ply,B
48,Masters 2,F,Riitta Vaulakorpi,Finland,1954,47.6,65,-70,-77.5,65,2,,65,Single-ply,B
48,Masters 2,F,Maryse Suire,France,1946,47.15,57.5,60,-62.5,60,3,,60,Single-ply,B
52,Masters 2,F,Aira Knutars,Finland,1954,51.45,75,80,82.5,82.5,1,,82.5,Single-ply,B
52,Masters 2,F,Eva Orenicová,Slovakia,1951,49.6,-75,75,80,80,2,,80,Single-ply,B
52,Masters 2,F,Carmen Genermont,France,1948,50.45,57.5,60,-62.5,60,3,,60,Single-ply,B
52,Masters 2,F,Françoise Heligon,France,1943,48.05,55,57.5,-60,57.5,4,,57.5,Single-ply,B
52,Masters 2,F,Seiia Turunen,Finland,1947,49.2,52.5,57.5,-62.5,57.5,5,,57.5,Single-ply,B
52,Masters 2,F,Jeanne Harms,USA,1953,50.4,-52.5,52.5,-60,52.5,6,,52.5,Single-ply,B
56,Masters 2,F,Hildegard Kasper,Austria,1948,54.25,60,65,-67.5,65,1,,65,Single-ply,B
56,Masters 2,F,Sabine Dreißig,Germany,1953,53.3,-55,-55,-55,,DQ,,,Single-ply,B
56,Masters 2,F,Heidi Taubman,France,1948,55.2,100,107.5,112.5,112.5,DQ,,,Single-ply,B
60,Masters 2,F,Aly Keizer,Netherlands,1951,59.25,82.5,85,-87.5,85,1,,85,Single-ply,B
60,Masters 2,F,Adina Hyková,Czechia,1943,58.8,72.5,75,-80,75,2,,75,Single-ply,B
60,Masters 2,F,Tonia Strik,Netherlands,1950,59.95,75,-77.5,-80,75,3,,75,Single-ply,B
60,Masters 2,F,Marie Šourková,Czechia,1944,58.8,60,-67.5,67.5,67.5,4,,67.5,Single-ply,B
60,Masters 2,F,Faith Ireland,USA,1942,59.35,-55,55,57.5,57.5,5,,57.5,Single-ply,B
60,Masters 2,F,Ursula Nothnagel,Germany,1936,59.25,50,52.5,55,55,6,,55,Single-ply,B
60,Masters 2,F,Marianne Lankau,Germany,1953,59.5,52.5,-57.5,-57.5,52.5,7,,52.5,Single-ply,B
67.5,Masters 2,F,Chiomy Sawa,Japan,1949,66,-110,-112.5,112.5,112.5,1,120.5,112.5,Single-ply,B
67.5,Masters 2,F,Anita Thimm,Germany,1950,62.55,75,80,-82.5,80,2,,80,Single-ply,B
67.5,Masters 2,F,Dagmar McSwain,Austria,1944,60.3,62.5,65,67.5,67.5,3,,67.5,Single-ply,B
67.5,Masters 2,F,Eula Compton,USA,1942,64.3,65,-72.5,-72.5,65,4,,65,Single-ply,B
67.5,Masters 2,F,Erika Wimmer,Germany,1940,67,60,-62.5,-65,60,5,,60,Single-ply,B
75,Masters 2,F,Helen Sauer,USA,1952,68.85,105,-110,-110,105,1,,105,Single-ply,B
75,Masters 2,F,Sinikka Järvenpää,Finland,1951,73.15,97.5,100,-107.5,100,2,,100,Single-ply,B
75,Masters 2,F,Katalin Rohrmann,Hungary,1953,72.55,80,85,90,90,3,,90,Single-ply,B
75,Masters 2,F,Anke Beninga,Germany,1954,72.55,62.5,65,70,70,4,,70,Single-ply,B
75,Masters 2,F,Renate Spiegel,Germany,1939,67.6,62.5,65,-70,65,5,,65,Single-ply,B
75,Masters 2,F,Donna Steele,USA,1943,69.5,-75,-75,-75,,DQ,,,Single-ply,B
82.5,Masters 2,F,Hana Takáčová,Czechia,1954,80.9,120,125,-130,125,1,,125,Single-ply,B
82.5,Masters 2,F,Ursula Eulenstein,Germany,1949,78.9,65,70,-75,70,2,,70,Single-ply,B
90,Masters 2,F,Rosemarie Beer,Austria,1945,83.1,110,115,-120,115,1,,115,Single-ply,B
90,Masters 2,F,Eva Speth,Germany,1954,85.35,85,92.5,-97.5,92.5,2,,92.5,Single-ply,B
52,Masters 1,M,Hiroyuki Ishiwatari,Japan,1959,51.7,140,-157.5,-157.5,140,1,,140,Single-ply,B
52,Masters 1,M,Okuda Hiroyuki,Japan,1957,51.05,105,110,-115,110,2,,110,Single-ply,B
52,Masters 1,M,Josef Fenzl,Austria,1960,51.8,55,60,-62.5,60,3,,60,Single-ply,B
56,Masters 1,M,Štefan Koľšovský,Slovakia,1961,55.7,135,142.5,-150,142.5,1,,142.5,Single-ply,B
56,Masters 1,M,Dušan Skirkanič,Slovakia,1961,55.95,105,112.5,-122.5,112.5,2,,112.5,Single-ply,B
56,Masters 1,M,Carmelo Virzi,Germany,1957,55.25,87.5,95,-100,95,3,,95,Single-ply,B
60,Masters 1,M,István Tóth,Hungary,1956,57.9,130,135,140,140,1,,140,Single-ply,B
60,Masters 1,M,John Corsello,USA,1958,59.3,120,125,127.5,127.5,2,,127.5,Single-ply,B
60,Masters 1,M,Jürgen Hary,Germany,1959,59.05,-112.5,112.5,-125,112.5,3,,112.5,Single-ply,B
67.5,Masters 1,M,Erkki Rajala,Finland,1962,66.7,170,-175,175,175,1,-191,175,Single-ply,B
67.5,Masters 1,M,Pekka Kihlström,Sweden,1959,67.15,-170,170,172.5,172.5,2,-190.5,172.5,Single-ply,B
67.5,Masters 1,M,Anton Mihok,Slovakia,1957,67.1,-160,-160,165,165,3,,165,Single-ply,B
67.5,Masters 1,M,Adriano DaCosta,France,1963,67,-157.5,157.5,162.5,162.5,4,,162.5,Single-ply,B
67.5,Masters 1,M,Peter Muigg,Austria,1958,66.8,147.5,-155,-162.5,147.5,5,,147.5,Single-ply,B
67.5,Masters 1,M,Mori Takashi,Japan,1963,66.85,-140,140,-145,140,6,,140,Single-ply,B
67.5,Masters 1,M,Peter Búrik,Slovakia,1963,66.7,125,-135,135,135,7,,135,Single-ply,B
67.5,Masters 1,M,Alexandrs Radzevics,Latvia,1963,67.2,152.5,162.5,-165,162.5,DQ,,,Single-ply,B
75,Masters 1,M,Didier Compain,France,1959,74.45,-180,180,182.5,182.5,1,,182.5,Single-ply,B
75,Masters 1,M,Detlef Heinrich,Germany,1956,74.7,-180,-180,182.5,182.5,2,,182.5,Single-ply,B
75,Masters 1,M,Detlef Götzke,Germany,1962,73.8,170,177.5,-180,177.5,3,,177.5,Single-ply,B
75,Masters 1,M,Miloš Ochlan,Slovakia,1962,74.55,-165,165,175,175,4,,175,Single-ply,B
75,Masters 1,M,Bruno Lespoix,France,1956,74.4,170,-177.5,-177.5,170,5,,170,Single-ply,B
75,Masters 1,M,Rémy Krayzel,Czechia,1955,74.95,150,155,162.5,162.5,6,,162.5,Single-ply,B
75,Masters 1,M,Taniguchi Koichi,Japan,1960,73,160,-170,-170,160,7,,160,Single-ply,B
75,Masters 1,M,Gerhard Leierzopf,Austria,1961,74.73,-155,155,160,160,8,,160,Single-ply,B
75,Masters 1,M,Raymond Fixmer,Luxembourg,1958,74.3,-150,150,-160,150,9,,150,Single-ply,B
75,Masters 1,M,Norbert Kreuzhuber,Austria,1956,73.8,-150,-150,-150,,DQ,,,Single-ply,B
82.5,Masters 1,M,Ishimoto Naoki,Japan,1962,80.95,205,210,212.5,212.5,1,,212.5,Single-ply,B
82.5,Masters 1,M,Greg Zangl,USA,1960,79,190,200,210,210,2,,210,Single-ply,B
82.5,Masters 1,M,Frank Heinrich,Germany,1958,81.9,-200,-200,202.5,202.5,3,,202.5,Single-ply,B
82.5,Masters 1,M,Veiko Friedrich,Germany,1964,80.5,195,200,-202.5,200,4,,200,Single-ply,B
82.5,Masters 1,M,Dave Normand,UK,1964,81.55,-170,-170,190,190,5,,190,Single-ply,B
82.5,Masters 1,M,Erik Rasmussen,Denmark,1962,81.05,185,-190,-190,185,6,,185,Single-ply,B
82.5,Masters 1,M,Patrick LeBlevennec,France,1963,81.4,-185,185,-190,185,7,,185,Single-ply,B
82.5,Masters 1,M,Čestmír Wolf,Czechia,1959,82.2,-185,185,-205,185,8,,185,Single-ply,B
82.5,Masters 1,M,Conny Andersson,Sweden,1959,81.95,170,-180,-187.5,170,9,,170,Single-ply,B
82.5,Masters 1,M,Dušan Cevár,Slovakia,1955,80.95,125,132.5,-140,132.5,10,,132.5,Single-ply,B
90,Masters 1,M,Klaus-Dieter Jacob,Germany,1961,89.3,210,217.5,-222.5,217.5,1,,217.5,Single-ply,B
90,Masters 1,M,Vincent Kondákor,Slovakia,1963,88.2,190,200,210,210,2,,210,Single-ply,B
90,Masters 1,M,Dana Rosenzweig,USA,1957,89.1,190,200,-210,200,3,,200,Single-ply,B
90,Masters 1,M,Pascal Pares,France,1958,88.25,192.5,-200,-205,192.5,4,,192.5,Single-ply,B
90,Masters 1,M,Krzysztof Kozielski,Poland,1962,89.05,185,192.5,-197.5,192.5,5,,192.5,Single-ply,B
90,Masters 1,M,Joel Roulot,France,1961,87.4,-190,-190,190,190,6,,190,Single-ply,B
90,Masters 1,M,John Brookes,UK,1955,88.3,180,190,-202.5,190,7,,190,Single-ply,B
90,Masters 1,M,Lars Jansson,Sweden,1956,88.9,150,-155,-200,150,8,,150,Single-ply,B
90,Masters 1,M,Vladimír Plávka,Slovakia,1960,86.95,135,145,-150,145,9,,145,Single-ply,B
90,Masters 1,M,Ashraf Riad OC Shabana,Egypt,1962,86.8,-185,190,-195,190,DQ,,,Single-ply,B
90,Masters 1,M,Bill Schlakowski,USA,1964,89,-220,-220,-222.5,,DQ,,,Single-ply,B
90,Masters 1,M,Kimmo Pakarinen,Finland,1963,89.6,-210,-210,-210,,DQ,,,Single-ply,B
90,Masters 1,M,Asama Shigetoshi,Japan,1959,90,-185,-185,-185,,DQ,,,Single-ply,B
100,Masters 1,M,Vladimir Volkov,Russia,1959,96.9,-242.5,242.5,250,250,1,260,250,Single-ply,B
100,Masters 1,M,Klaus Semskii,Germany,1964,99.6,-242.5,-242.5,242.5,242.5,2,,242.5,Single-ply,B
100,Masters 1,M,Richard Wenner,USA,1963,99.3,200,212.5,215,215,3,,215,Single-ply,B
100,Masters 1,M,Juha Lehto,Finland,1964,99.1,-210,210,-215,210,4,,210,Single-ply,B
100,Masters 1,M,Francisco Perez,Spain,1963,97.9,205,-210,-215,205,5,,205,Single-ply,B
100,Masters 1,M,Ian Kinghorn,UK,1957,98.35,195,-205,205,205,6,,205,Single-ply,B
100,Masters 1,M,Josef Spirka,Slovakia,1959,97.9,170,190,-205,190,7,,190,Single-ply,B
100,Masters 1,M,Peter Klimo,Slovakia,1961,97.9,-190,-190,190,190,8,,190,Single-ply,B
100,Masters 1,M,Søren Bertelsen,Denmark,1961,99.05,-170,175,-185,175,9,,175,Single-ply,B
110,Masters 1,M,Dave Doan,USA,1964,109.4,-260,-260,260,260,1,-275.5,260,Single-ply,B
110,Masters 1,M,Alexandre Koblov,Russia,1956,109.2,230,240,245,245,2,,245,Single-ply,B
110,Masters 1,M,Kari Vilppola,Finland,1955,109.9,225,232.5,242.5,242.5,3,,242.5,Single-ply,B
110,Masters 1,M,Gary Pamplin,USA,1957,107.4,227.5,-242.5,-245,227.5,4,,227.5,Single-ply,B
110,Masters 1,M,Thomas Stiemerling,Germany,1960,108.25,205,215,217.5,217.5,5,,217.5,Single-ply,B
110,Masters 1,M,Jozef Pesta,Slovakia,1955,104.75,190,200,210,210,6,,210,Single-ply,B
110,Masters 1,M,Vilém Bém,Czechia,1963,108.35,200,-207.5,-207.5,200,7,,200,Single-ply,B
110,Masters 1,M,Julian Massey,UK,1956,109.85,180,-200,-200,180,8,,180,Single-ply,B
110,Masters 1,M,Pavlo Mogylnykov,Ukraine,1964,109.5,-245,-245,-245,,DQ,,,Single-ply,B
110,Masters 1,M,Gerhard Schranz,Austria,1955,104.1,-207.5,-210,,,DQ,,,Single-ply,B
110,Masters 1,M,István Ágoston,Hungary,1962,102.3,-225,225,227.5,227.5,DQ,,,Single-ply,B
125,Masters 1,M,Brad Klinger,USA,1956,122.35,257.5,265,270,270,1,-288,270,Single-ply,B
125,Masters 1,M,Raoul Donati,USA,1963,115.6,-260,260,265,265,2,,265,Single-ply,B
125,Masters 1,M,Massimo Papini,Italy,1957,123.75,250,260,-267.5,260,3,,260,Single-ply,B
125,Masters 1,M,Rainer Volkmann,Germany,1961,119.6,245,255,-265,255,4,,255,Single-ply,B
125,Masters 1,M,Sergey Sidenko,Russia,1961,119.6,220,230,-237.5,230,5,,230,Single-ply,B
125,Masters 1,M,Sean Brown,Canada,1964,123.3,230,-237.5,-257.5,230,6,,230,Single-ply,B
125,Masters 1,M,Daniel Royer,Canada,1957,112.5,175,-185,-185,175,7,,175,Single-ply,B
125,Masters 1,M,Wieslaw Tochaczek,Poland,1960,119.3,150,-162.5,-162.5,150,8,,150,Single-ply,B
125,Masters 1,M,Piotr Pawlik,Poland,1955,123.9,-230,-230,-230,,DQ,,,Single-ply,B
125+,Masters 1,M,Ujiie Ichiro,Japan,1957,146.3,-245,250,262.5,262.5,1,263,262.5,Single-ply,B
125+,Masters 1,M,Ivan Hritz,Slovakia,1964,136.4,245,252.5,-262.5,252.5,2,,252.5,Single-ply,B
125+,Masters 1,M,Dan Gudreau,USA,1960,158.75,-287.5,-287.5,-287.5,,DQ,,,Single-ply,B
125+,Masters 1,M,Jürgen Lochner,Germany,1959,146.8,-235,-235,-235,,DQ,,,Single-ply,B
56,Masters 2,M,Joachim Lietzau,Germany,1950,55.05,120,125,131,131,1,-135,131,Single-ply,B
56,Masters 2,M,Czeslaw Kedziora,Poland,1951,55.8,102.5,-107.5,-107.5,102.5,2,,102.5,Single-ply,B
56,Masters 2,M,Alexander Moiseev,Belarus,1954,55.55,-97.5,97.5,-107.5,97.5,3,,97.5,Single-ply,B
56,Masters 2,M,Imba Katsuhiko,Japan,1947,55.2,80,90,-92.5,90,4,,90,Single-ply,B
56,Masters 2,M,Mashimo Seiichi,Japan,1947,55.65,-90,90,-102.5,90,5,,90,Single-ply,B
60,Masters 2,M,Kanaya Takashi,Japan,1948,58.4,120,127.5,-130,127.5,1,,127.5,Single-ply,B
60,Masters 2,M,Jean-Pierre Grondin,France,1952,59.6,115,120,-130,120,2,,120,Single-ply,B
67.5,Masters 2,M,Claude Sitruk,France,1950,62.5,-170,-170,170,170,1,,170,Single-ply,B
67.5,Masters 2,M,Mick James,UK,1949,66.3,-145,-147.5,147.5,147.5,2,,147.5,Single-ply,B
67.5,Masters 2,M,Jozsef Kapor,Hungary,1951,66.65,145,-150,-150,145,3,,145,Single-ply,B
67.5,Masters 2,M,Adam Jasiński,Poland,1951,67.4,140,-145,145,145,4,,145,Single-ply,B
67.5,Masters 2,M,Rudolf Böhm,Czechia,1952,65.9,142.5,-147.5,-147.5,142.5,5,,142.5,Single-ply,B
67.5,Masters 2,M,Jouko Kastegren,Finland,1954,67.35,125,-135,-140,125,6,,125,Single-ply,B
67.5,Masters 2,M,Burkhard Steffen,Germany,1950,67.45,120,-125,-127.5,120,7,,120,Single-ply,B
67.5,Masters 2,M,Birger Sundstøl,Norway,1954,66.35,112.5,-117.5,-117.5,112.5,8,,112.5,Single-ply,B
75,Masters 2,M,Kato Yuji,Japan,1948,73.9,-170,170,175,175,1,185.5,175,Single-ply,B
75,Masters 2,M,Allan Eriksson,Sweden,1946,74.7,155,160,-172.5,160,2,,160,Single-ply,B
75,Masters 2,M,Petr Hrubý,Czechia,1952,73.7,150,-155,-155,150,3,,150,Single-ply,B
75,Masters 2,M,Antonín Soušek,Czechia,1946,73.95,142.5,147.5,-152.5,147.5,4,,147.5,Single-ply,B
75,Masters 2,M,Harald Peschl,Germany,1945,74.15,140,145,-147.5,145,5,,145,Single-ply,B
75,Masters 2,M,Friedhelm Fuhr,Germany,1950,73.8,135,142.5,-150,142.5,6,,142.5,Single-ply,B
75,Masters 2,M,Attila Jaloveczki,Hungary,1947,74.8,-160,-160,-160,,DQ,,,Single-ply,B
82.5,Masters 2,M,Taisto Paananen,Finland,1949,81.4,177.5,185,190,190,1,,190,Single-ply,B
82.5,Masters 2,M,Bjarne Synstad,Norway,1951,79.85,180,185,-190,185,2,,185,Single-ply,B
82.5,Masters 2,M,Luciano DiRocco,Italy,1951,79.55,-160,165,175,175,3,,175,Single-ply,B
82.5,Masters 2,M,Alexander Vesic,Germany,1953,81.45,172.5,-177.5,-177.5,172.5,4,,172.5,Single-ply,B
82.5,Masters 2,M,Jozef Völgyák,Slovakia,1951,82.5,155,162.5,-167.5,162.5,5,,162.5,Single-ply,B
82.5,Masters 2,M,Rachid Amalou,France,1950,82.2,150,155,-162.5,155,6,,155,Single-ply,B
82.5,Masters 2,M,Christian Moyaux,France,1952,81.75,-150,150,-157.5,150,7,,150,Single-ply,B
82.5,Masters 2,M,František Kirchner,Czechia,1948,80.9,135,142.5,-150,142.5,8,,142.5,Single-ply,B
82.5,Masters 2,M,Bill Clayton,USA,1953,80.9,-135,135,-145,135,9,,135,Single-ply,B
90,Masters 2,M,Yokoyama Mutsuo,Japan,1954,89.45,-235,235,-240,235,1,,235,Single-ply,B
90,Masters 2,M,Unto Paananen,Sweden,1948,89.6,200,202.5,-212.5,202.5,2,,202.5,Single-ply,B
90,Masters 2,M,Marek Markwat,Poland,1952,89.7,-200,202.5,-212.5,202.5,3,,202.5,Single-ply,B
90,Masters 2,M,Roy Allen O'Dwyer,USA,1952,88.7,-182.5,182.5,187.5,187.5,4,,187.5,Single-ply,B
90,Masters 2,M,Louis Escolano,France,1945,83.7,170,180,-182.5,180,5,,180,Single-ply,B
90,Masters 2,M,Sven Thörngren,Sweden,1950,88.35,180,-190,-202.5,180,6,,180,Single-ply,B
90,Masters 2,M,Josef Ptáček,Czechia,1953,89.9,147.5,160,-167.5,160,7,,160,Single-ply,B
90,Masters 2,M,Emil Schmutzenhofer,Austria,1949,90,150,155,-160,155,8,,155,Single-ply,B
90,Masters 2,M,Miroslav Koprnicky,Canada,1951,88.2,147.5,-152.5,-152.5,147.5,9,,147.5,Single-ply,B
90,Masters 2,M,Steve Harms,USA,1952,86.45,132.5,140,-147.5,140,10,,140,Single-ply,B
90,Masters 2,M,Ladislav Tehlár,Slovakia,1948,89.8,140,-150,-150,140,11,,140,Single-ply,B
100,Masters 2,M,Luboš Maršík,Czechia,1952,99.5,215,-220,220,220,1,,220,Single-ply,B
100,Masters 2,M,Jean-Pierre Aymon,Austria,1954,98.85,205,210,215,215,2,,215,Single-ply,B
100,Masters 2,M,Tachibana Tadashi,Japan,1949,91.9,-202.5,-207.5,210,210,3,,210,Single-ply,B
100,Masters 2,M,Anders Carlsson,Sweden,1952,96.5,-200,200,-215,200,4,,200,Single-ply,B
100,Masters 2,M,Thomas Riehl,Germany,1952,99.2,180,-185,-185,180,5,,180,Single-ply,B
100,Masters 2,M,Vladimír Bátik,Slovakia,1953,99.2,180,-187.5,-187.5,180,6,,180,Single-ply,B
100,Masters 2,M,Reiio Jaakkola,Finland,1948,99.6,-170,170,177.5,177.5,7,,177.5,Single-ply,B
100,Masters 2,M,Jiří Horník,Czechia,1948,97,160,-165,-165,160,8,,160,Single-ply,B
100,Masters 2,M,Nico Grignard,Luxembourg,1954,96.5,117.5,125,-130,125,9,,125,Single-ply,B
100,Masters 2,M,Jukka Lehtinen,Finland,1954,98.5,-195,-197.5,-200,,DQ,,,Single-ply,B
110,Masters 2,M,Jerzy Furmanek,Poland,1952,104.2,240,-250,-250,240,1,,240,Single-ply,B
110,Masters 2,M,György Lovasz,Hungary,1947,108.7,-215,-215,215,215,2,,215,Single-ply,B
110,Masters 2,M,Kurt Nygård,Finland,1946,107.8,195,200,-202.5,200,3,,200,Single-ply,B
110,Masters 2,M,Laurent Durocher,France,1952,100.7,185,-192.5,192.5,192.5,4,,192.5,Single-ply,B
110,Masters 2,M,Crayton Taylor,USA,1946,108.9,-170,170,180,180,5,,180,Single-ply,B
110,Masters 2,M,Rolf Keim,Germany,1951,109.7,177.5,-182.5,-182.5,177.5,6,,177.5,Single-ply,B
110,Masters 2,M,Juraj Gyevat,Slovakia,1950,102.6,-165,165,175,175,7,,175,Single-ply,B
110,Masters 2,M,Allan Fuglsang,Denmark,1950,107.8,170,-190,-195,170,8,,170,Single-ply,B
110,Masters 2,M,Pavol Plávka,Slovakia,1953,107.1,-160,-160,160,160,9,,160,Single-ply,B
110,Masters 2,M,Tapani Mielty,Finland,1946,101.9,135,140,150,150,10,,150,Single-ply,B
110,Masters 2,M,Ken Crickmore,UK,1948,107.8,-150,150,-162.5,150,11,,150,Single-ply,B
110,Masters 2,M,Wojciech Grabowski,Poland,1951,107.5,-210,-210,-210,,DQ,,,Single-ply,B
110,Masters 2,M,Simon Reitzle,Germany,1949,108.1,-190,-195,-202.5,,DQ,,,Single-ply,B
125,Masters 2,M,Kevin Johnson,USA,1954,123.7,235,-242.5,250,250,1,-260,250,Single-ply,B
125,Masters 2,M,Niilo Maliniemi,Sweden,1946,115.8,220,-227.5,-235,220,2,,220,Single-ply,B
125,Masters 2,M,Mick King,UK,1950,120.3,-220,220,-235,220,3,,220,Single-ply,B
125,Masters 2,M,Walter Kurda,Germany,1953,112.4,-172.5,172.5,180,180,4,,180,Single-ply,B
125,Masters 2,M,Ivan Veselý,Czechia,1952,119.5,155,-165,-165,155,5,,155,Single-ply,B
125,Masters 2,M,Georg Boström,Sweden,1947,113.5,100,,,100,6,,100,Single-ply,B
125,Masters 2,M,Antonín Šota,Czechia,1952,111.8,-210,-210,-220,,DQ,,,Single-ply,B
125,Masters 2,M,Tuomo Löllö,Finland,1953,121.3,-210,-210,-210,,DQ,,,Single-ply,B
125,Masters 2,M,Veselin Vujovic,Serbia and Montenegro,1947,121,-180,-180,-182.5,,DQ,,,Single-ply,B
125+,Masters 2,M,Frank Beeler,USA,1953,141.2,240,257.5,260,260,1,262.5,260,Single-ply,B
125+,Masters 2,M,Bohumil Váňa,Czechia,1951,127.8,-250.5,250.5,-258,250.5,2,,250,Single-ply,B
125+,Masters 2,M,Pat Dennis,USA,1953,137.7,-242.5,242.5,-260,242.5,3,,242.5,Single-ply,B
125+,Masters 2,M,Raimo Aulis Sipiläinen,Finland,1949,134.6,225,237.5,-245,237.5,4,,237.5,Single-ply,B
125+,Masters 2,M,Lev Sprints,Russia,1952,138.6,-187.5,-187.5,-187.5,,DQ,,,Single-ply,B
56,Masters 3,M,Pierre Gallard,France,1944,55.5,125,130,-132.5,130,1,,130,Single-ply,B
56,Masters 3,M,Nabeshima Satoshi,Japan,1937,54.8,-80,80,100,100,2,,100,Single-ply,B
60,Masters 3,M,Fushimi Hiraku,Japan,1937,57.5,-120,120,125,125,1,130,125,Single-ply,B
60,Masters 3,M,Iwakami Katsuo,Japan,1943,58.4,105,110,115,115,2,,115,Single-ply,B
60,Masters 3,M,Bent Hansen,Denmark,1941,59.65,75,82.5,-87.5,82.5,3,,82.5,Single-ply,B
60,Masters 3,M,Rainer Geese,Germany,1943,58.9,-110,-110,-110,,DQ,,,Single-ply,B
67.5,Masters 3,M,Magome Toru,Japan,1943,66.95,160.5,-170,-170,160.5,1,,160.5,Single-ply,B
67.5,Masters 3,M,Daniel Epineau,France,1943,65.95,125,132.5,-135,132.5,2,,132.5,Single-ply,B
67.5,Masters 3,M,Ivan Zwick,USA,1939,65.9,-122.5,122.5,-132.5,122.5,3,,122.5,Single-ply,B
67.5,Masters 3,M,Ulrich Mielich,Germany,1939,66.9,65,70,72.5,72.5,4,,72.5,Single-ply,B
75,Masters 3,M,Itoh Ajia,Japan,1940,73.75,-150,150,155.5,155.5,1,-157.5,155.5,Single-ply,B
75,Masters 3,M,Attila Siklosi,Hungary,1942,74.8,-145,-145,145,145,2,,145,Single-ply,B
75,Masters 3,M,Matti Räihä,Finland,1943,74.3,137.5,-142.5,-142.5,137.5,3,,137.5,Single-ply,B
75,Masters 3,M,Kawashima Akira,Japan,1936,72.6,135,-140,-142.5,135,4,,135,Single-ply,B
75,Masters 3,M,Daniel Reybrouck,Belgium,1942,73.95,127.5,132.5,-137.5,132.5,5,,132.5,Single-ply,B
75,Masters 3,M,Louis Volnin,France,1936,71.9,130,-140,-140,130,6,,130,Single-ply,B
75,Masters 3,M,Börje Eriksson,Sweden,1942,73.75,-140,-140,-145,,DQ,,,Single-ply,B
75,Masters 3,M,Ludwig Pfaus,Germany,1942,71.5,-127.5,-127.5,-127.5,,DQ,,,Single-ply,B
82.5,Masters 3,M,William McFadyen,UK,1934,82.2,-155,155,-170.5,155,1,,155,Single-ply,B
82.5,Masters 3,M,Hans Jorgensen,Denmark,1944,80.25,-130,130,137.5,137.5,2,,137.5,Single-ply,B
82.5,Masters 3,M,Rainer Schötz,Germany,1943,78.55,135,-140,-140,135,3,,135,Single-ply,B
82.5,Masters 3,M,Pascal Chabeau,France,1936,81.6,-132.5,132.5,-137.5,132.5,4,,132.5,Single-ply,B
82.5,Masters 3,M,Karel Šourek,Czechia,1943,79.8,110,120,-122.5,120,5,,120,Single-ply,B
82.5,Masters 3,M,Kumakura Hideo,Japan,1936,77.5,-147.5,-147.5,-147.5,,DQ,,,Single-ply,B
82.5,Masters 3,M,Janusz Golik,Poland,1941,80.65,-100,-100,-100,,DQ,,,Single-ply,B
82.5,Masters 3,M,Josef Wimmer,Germany,1936,80.05,-112.5,-117.5,-117.5,,DQ,,,Single-ply,B
90,Masters 3,M,Günter Wittkowski,Germany,1940,88.8,165,-172.5,172.5,172.5,1,,172.5,Single-ply,B
90,Masters 3,M,Kawabe Katsuji,Japan,1942,87.85,155,-160,-165,155,2,,155,Single-ply,B
90,Masters 3,M,Bela Bolgarfalyy,Hungary,1943,88.6,137.5,145,-150,145,3,,145,Single-ply,B
90,Masters 3,M,Petr Uher,Czechia,1934,88.1,140,-145,-145,140,4,,140,Single-ply,B
90,Masters 3,M,Gerd Fell,Germany,1940,87.6,130,137.5,-145,137.5,5,,137.5,Single-ply,B
90,Masters 3,M,Norman Anderson,UK,1937,85.2,-130,130,-150,130,6,,130,Single-ply,B
90,Masters 3,M,Adolf Rohrbacher,Austria,1938,87.2,125,-130,-130,125,7,,125,Single-ply,B
100,Masters 3,M,Juhani Äiiö,Finland,1941,98.15,185,203,210,210,1,,210,Single-ply,B
100,Masters 3,M,Marc LeBolay,France,1938,98.5,175,180,-185,180,2,,180,Single-ply,B
100,Masters 3,M,Raimo Niemi,Finland,1940,96.95,-145,-145,145,145,3,,145,Single-ply,B
100,Masters 3,M,Josef Pohlkötter,Germany,1937,95.65,130,135,-140,135,4,,135,Single-ply,B
100,Masters 3,M,Lou Demuth,Luxembourg,1943,95.7,122.5,127.5,132.5,132.5,5,,132.5,Single-ply,B
100,Masters 3,M,Louis Sposato,USA,1939,92.6,-170,-170,-170,,DQ,,,Single-ply,B
100,Masters 3,M,Barry Scott,UK,1938,95.45,-125,-127.5,-127.5,,DQ,,,Single-ply,B
110,Masters 3,M,Christer Nylund,Finland,1944,109.2,-185,-185,185,185,1,,185,Single-ply,B
110,Masters 3,M,Julius Madsen,Denmark,1937,100.7,150,160,165,165,2,,165,Single-ply,B
110,Masters 3,M,Wilhelm Thell,Austria,1939,104.6,150,160,-165,160,3,,160,Single-ply,B
110,Masters 3,M,Max Dublet,France,1942,104.6,150,157.5,-162.5,157.5,4,,157.5,Single-ply,B
110,Masters 3,M,Leif Waldeck,Sweden,1939,102.3,140,150,-157.5,150,5,,150,Single-ply,B
110,Masters 3,M,Clifford Tallman,USA,1943,105.9,-172.5,-172.5,-172.5,,DQ,,,Single-ply,B
110,Masters 3,M,Klaus Feldmann,Germany,1936,101.1,-132.5,-132.5,-132.5,,DQ,,,Single-ply,B
125,Masters 3,M,Peter Rumbler,Germany,1939,118.8,162.5,172.5,180,180,1,,180,Single-ply,B
125,Masters 3,M,Raimo Sandelin,Finland,1940,120.5,160,-170,-172.5,160,2,,160,Single-ply,B
125,Masters 3,M,Ralph Sofferdine,USA,1937,122.5,-190,-190,-190,,DQ,,,Single-ply,B
125,Masters 3,M,Murray Marsch,USA,1940,112.4,-177.5,-180,-180,,DQ,,,Single-ply,B
125+,Masters 3,M,Mauno Kontto,Finland,1941,127.7,185,-192.5,,185,1,,185,Single-ply,B
125+,Masters 3,M,Sven Huberth,Sweden,1943,128.55,160,-170,-170,160,2,,160,Single-ply,B
