Place,Sex,Name,Event,Division,WeightClassKg,Equipment,BodyweightKg,Squat1Kg,Squat2Kg,Squat3Kg,Best3SquatKg,Bench1Kg,Bench2Kg,Bench3Kg,Best3BenchKg,Deadlift1Kg,Deadlift2Kg,Deadlift3Kg,Best3DeadliftKg,TotalKg,BirthYear
1,M,Gerald Lindas,B,M3,74,Single-ply,71.8,,,,,97.5,102.5,-107.5,102.5,,,,,102.5,1936
1,F,Jamie Donner,B,O,52,Single-ply,51.6,,,,,50,55,-57.5,55,,,,,55,1997
1,M,Rich Kelly,B,M2,105,Single-ply,102.2,,,,,-185,185,-197.5,185,,,,,185,1954
1,M,Seth Calaway,SBD,R-T,93,Raw,87.9,160,180,195,195,132.5,140,147.5,147.5,160,185,200,200,542.5,1996
2,M,Larry Schulte,SBD,R-T,93,Raw,89.7,175,185,-192.5,185,125,-132.5,-132.5,125,220,-237.5,-237.5,220,530,1996
1,M,Joe Allen,SBD,R-T,105,Raw,98.3,180,195,210,210,120,130,-140,130,215,230,240,240,580,1996
2,M,Erik Eaton,SBD,R-T,105,Raw,94.1,187.5,202.5,210,210,122.5,132.5,137.5,137.5,197.5,212.5,222.5,222.5,570,1998
1,M,Quinn Parker,SBD,T,59,Single-ply,57.9,90,100,105,105,52.5,-60,-60,52.5,90,105,115,115,272.5,2002
1,M,Zaven Ouzounian,SBD,T,74,Single-ply,72.4,-192.5,192.5,212.5,212.5,110,117.5,122.5,122.5,187.5,200,207.5,207.5,542.5,1999
2,M,Mitchell Gibson,SBD,T,74,Single-ply,72.1,167.5,180,-187.5,180,80,-82.5,-82.5,80,155,165,-170,165,425,1999
1,M,Reece Heyerdahl,SBD,T,83,Single-ply,82.8,165,177.5,187.5,187.5,102.5,-107.5,107.5,107.5,145,182.5,197.5,197.5,492.5,2001
1,M,Spencer Marusic,SBD,T,105,Single-ply,100.9,-210,210,-225,210,142.5,150,152.5,152.5,242.5,257.5,-272.5,257.5,620,1997
2,M,Joshua Mauel,SBD,T,105,Single-ply,103.6,-165,175,185,185,-102.5,-115,115,115,165,175,-185,175,475,1999
3,M,Jacob Bolwerk,SBD,T,105,Single-ply,98.5,100,110,122.5,122.5,112.5,115,120,120,125,142.5,170,170,412.5,1998
1,M,Greg Lamansky,SBD,M,74,Single-ply,71.8,140,152.5,-155,152.5,100,107.5,112.5,112.5,170,180,187.5,187.5,452.5,1956
1,M,Dennis Smits,SBD,M,93,Single-ply,89.6,-230,240,-250,240,155,-162.5,-162.5,155,220,237.5,-250,237.5,632.5,1959
1,M,John Winker,SBD,M,93,Single-ply,89.4,147.5,155,162.5,162.5,107.5,112.5,-120,112.5,152.5,162.5,175,175,450,1972
1,M,Larry Sparling,SBD,M,105,Single-ply,101.3,170,180,-182.5,180,122.5,130,137.5,137.5,222.5,237.5,250,250,567.5,1963
2,M,Chris Eastman,SBD,M,105,Single-ply,96.7,135,150,-165,150,125,140,142.5,142.5,147,160,185,185,477.5,1969
DQ,M,Tom Mollan,SBD,M,105,Single-ply,102,-125,-125,-125,,125,135,137.5,137.5,,,,,,
1,M,David Francis,SBD,M,120,Single-ply,119.9,185,-192.5,192.5,192.5,142.5,145,-147.5,145,190,210,220,220,557.5,1962
1,M,Rodney Herbison,SBD,M,120,Single-ply,112.2,-130,130,-137.5,130,-80,85,-92.5,85,125,147.5,160,160,375,1954
1,M,Jerome Leak,SBD,O,59,Single-ply,53.1,112.5,125,127.5,127.5,72.5,-77.5,77.5,77.5,147.5,160,162.5,162.5,367.5,1995
1,M,Michael Schuelke,SBD,O,83,Single-ply,83,190,202.5,212.5,212.5,100,102.5,105,105,195,202.5,-210,202.5,520,1969
1,M,Russel Johnston,SBD,O,93,Single-ply,92.4,287.5,302.5,-307.5,302.5,185,-192.5,192.5,192.5,250,267.5,-277.5,267.5,762.5,
2,M,Matt Teske,SBD,O,93,Single-ply,92.3,220,-240,-240,220,155,-162.5,-162.5,155,247.5,272.5,-277.5,272.5,647.5,1978
3,M,Andrew Kannel,SBD,O,93,Single-ply,92.4,-215,215,230,230,115,120,132.5,132.5,-220,220,245,245,607.5,1991
1,M,Rob Carlson,SBD,O,120,Single-ply,112.2,-240,247.5,-275,247.5,150,157.5,162.5,162.5,215,227.5,242.5,242.5,652.5,
1,M,Greg Kiriaki,SBD,O,120+,Single-ply,127.5,302.5,-317.5,-330,302.5,182.5,195,-205,195,295,-305,305,305,802.5,1983
1,M,Justin Nelson,SBD,R-O,74,Raw,73.8,200,212.5,-215,212.5,137.5,145,152.5,152.5,215,225,-237.5,225,590,1991
2,M,Tyler Brandt,SBD,R-O,74,Raw,71.5,142.5,157.5,-180,157.5,97.5,110,112.5,112.5,192.5,-202.5,202.5,202.5,472.5,1992
1,M,John Haack,SBD,R-O,83,Raw,81.7,250,265,-272.5,265,-175,175,-192.5,175,295,307.5,-312.5,307.5,747.5,1993
2,M,Brian Beal,SBD,R-O,83,Raw,80.1,212.5,222.5,230,230,135,140,147.5,147.5,242.5,257.5,265,265,642.5,1993
3,M,Matthew Zalar,SBD,R-O,83,Raw,81.1,185,-205,-205,185,102.5,-117.5,-117.5,102.5,197.5,217.5,230,230,517.5,
1,M,Caleb Happel,SBD,R-O,93,Raw,92.2,220,237.5,247.5,247.5,157.5,167.5,-177.5,167.5,250,272.5,-285,272.5,687.5,1995
2,M,Brendan Johnson,SBD,R-O,93,Raw,91.4,215,232.5,237.5,237.5,147.5,-155,155,155,250,265,-272.5,265,657.5,1992
3,M,Michael Berg,SBD,R-O,93,Raw,91.2,217.5,-227.5,227.5,227.5,142.5,150,-155,150,260,275,-285,275,652.5,1991
4,M,Tim Wermeling,SBD,R-O,93,Raw,89.5,195,212.5,-227.5,212.5,-147.5,157.5,-165,157.5,202.5,227.5,-242.5,227.5,597.5,1989
5,M,Kipp Hinz,SBD,R-O,93,Raw,85.5,205,222.5,232.5,232.5,110,117.5,125,125,-227.5,227.5,-272.5,227.5,585,1989
6,M,Brody Kothe,SBD,R-O,93,Raw,91.9,180,195,-210,195,135,155,-160,155,222.5,235,-250,235,585,
7,M,Brandon Danowski,SBD,R-O,93,Raw,92.3,185,195,200,200,115,125,-132.5,125,195,210,220,220,545,1994
8,M,Jon Eiden,SBD,R-O,93,Raw,92.6,165,172.5,180,180,110,120,-127.5,120,192.5,197.5,-205,197.5,497.5,
9,M,Matt Peroutky,SBD,R-O,93,Raw,91.5,145,,,145,120,125,130,130,197.5,202.5,212.5,212.5,487.5,1989
1,M,Benjamin Clewien,SBD,R-O,105,Raw,102.6,-232.5,232.5,245,245,172.5,-180,-180,172.5,-247.5,247.5,-262.5,247.5,665,1989
2,M,Sean Herbison,SBD,R-O,105,Raw,103.4,192.5,205,217.5,217.5,125,137.5,-145,137.5,220,265,-290,265,620,1990
3,M,Nicholas Nordin,SBD,R-O,105,Raw,94,140,145,-150,145,-112.5,112.5,117.5,117.5,175,185,192.5,192.5,455,1995
DQ,M,Jeff Timler,SBD,R-O,105,Raw,95.2,132.5,142.5,145,145,-125,-125,-125,,170,180,-185,180,,
1,M,Jacob Lamberton,SBD,R-O,120,Raw,116.9,245,255,-265,255,135,142.5,145,145,227.5,240,-255,240,640,1995
2,M,Russell Diamond,SBD,R-O,120,Raw,114.2,185,202.5,-217.5,202.5,137.5,155,-162.5,155,220,237.5,250,250,607.5,1980
3,M,Luke Lansbach,SBD,R-O,120,Raw,112.6,202.5,220,227.5,227.5,135,147.5,-155,147.5,-200,-220,220,220,595,1985
4,M,Alec Sime,SBD,R-O,120,Raw,114.2,215,-227.5,-227.5,215,140,-152.5,-152.5,140,220,227.5,-237.5,227.5,582.5,1991
5,M,Matt Cullen,SBD,R-O,120,Raw,119.3,165,170,-172.5,170,137.5,142.5,-145,142.5,237.5,247.5,255,255,567.5,1982
6,M,Joseph Nordin,SBD,R-O,120,Raw,112.3,175,185,-192.5,185,130,-137.5,137.5,137.5,212.5,222.5,-227.5,222.5,545,1992
7,M,Jason Johnson,SBD,R-O,120,Raw,115.9,160,-167.5,167.5,167.5,127.5,132.5,-137.5,132.5,190,202.5,-207.5,202.5,502.5,1980
8,M,Jason Allen,SBD,R-O,120,Raw,118.8,-147.5,150,-160,150,132.5,140,-142.5,140,192.5,-205,-212.5,192.5,482.5,1977
9,M,Kristopher Barr,SBD,R-O,120,Raw,105.6,125,140,145,145,115,-127.5,127.5,127.5,125,140,160,160,432.5,
DQ,M,Patrick Little,SBD,R-O,120,Raw,116.4,220,227.5,-235,227.5,160,-175,-175,160,-265,,,,,1994
1,M,Caleb Posselt,SBD,R-O,120+,Raw,132.8,200,212.5,227.5,227.5,137.5,147.5,-155,147.5,255,272.5,285,285,660,1994
2,M,Mike Allard,SBD,R-O,120+,Raw,166.5,185,192.5,207.5,207.5,147.5,162.5,-172.5,162.5,227.5,240,250,250,620,
3,M,Brandon Williams,SBD,R-O,120+,Raw,130.5,157.5,170,182.5,182.5,-85,90,97.5,97.5,157.5,170,182.5,182.5,462.5,1981
1,F,Kelley Sherwin,SBD,R-M,47,Raw,45.9,82.5,92.5,-95,92.5,47.5,55,-60,55,107.5,117.5,125,125,272.5,1972
1,F,Lauren Lent,SBD,T,57,Single-ply,55.1,177.5,187.5,192.5,192.5,85,90,92.5,92.5,170,180,-185,180,465,1997
1,F,Kennedy Ketzer,SBD,T,63,Single-ply,62.7,97.5,102.5,110,110,52.5,57.5,60,60,105,112.5,120,120,290,2000
2,F,Ciera Vopeklak,SBD,T,63,Single-ply,61.3,-80,90,-95,90,37.5,40,-42.5,40,82.5,92.5,100,100,230,
1,F,Lexxie Roesler,SBD,T,72,Single-ply,68.4,127.5,140,142.5,142.5,37.5,42.5,-50,42.5,125,135,-139.5,135,320,1999
2,F,Morgan Graham,SBD,T,72,Single-ply,71.1,127.5,132.5,135,135,57.5,-62.5,-62.5,57.5,117.5,122.5,127.5,127.5,320,1996
1,F,Madelyn Woychik,SBD,T,84,Single-ply,77,117.5,127.5,-135,127.5,65,70,-75,70,117.5,125,-130,125,322.5,2000
1,F,Sophia Woychik,SBD,T,84+,Single-ply,110.2,180,192.5,-202.5,192.5,70,77.5,80,80,157.5,170,180,180,452.5,1997
2,F,Hailey Skroch,SBD,T,84+,Single-ply,94.1,157.5,170,-182.5,170,67.5,75,-80,75,-117.5,127.5,-140,127.5,372.5,1999
3,F,Anastasia Texley,SBD,T,84+,Single-ply,87,102.5,112.5,122.5,122.5,45,47.5,-50,47.5,105,110,115,115,285,2000
1,F,Jamie Donner,SBD,O,52,Single-ply,51.6,-100,102.5,107.5,107.5,50,55,-57.5,55,-105,112.5,120,120,282.5,1997
1,F,Sara Jean Lindbom,SBD,O,63,Single-ply,60.9,112.5,-125,-127.5,112.5,57.5,-65,-65,57.5,112.5,132.5,-152.5,132.5,302.5,
1,F,Leah Harvey,SBD,O,84,Single-ply,80.1,147.5,-162.5,-162.5,147.5,77.5,85,-90,85,142.5,150,160,160,392.5,1990
1,F,Kelley Sherwin,SBD,R-O,47,Raw,45.9,82.5,92.5,-95,92.5,47.5,55,-60,55,107.5,117.5,125,125,272.5,1972
1,F,Abigail Skiba,SBD,R-O,52,Raw,48,50,60,67.5,67.5,35,40,45,45,65,82.5,97.5,97.5,210,1993
1,F,Michelle Van Dusen,SBD,R-O,57,Raw,56.3,132.5,-142.5,145,145,67.5,-77.5,77.5,77.5,152.5,162.5,-167.5,162.5,385,1993
2,F,Stephanie Vetter,SBD,R-O,57,Raw,55.8,-105,105,115,115,60,65,-70,65,140,-150,-150,140,320,1981
3,F,Beth Luby,SBD,R-O,57,Raw,55.2,85,97.5,-107.5,97.5,45,52.5,-57.5,52.5,102.5,-115,-115,102.5,252.5,1992
4,F,Rachel Berkowitz,SBD,R-O,57,Raw,52.3,55,60,65,65,27.5,-30,-30,27.5,62.5,75,82.5,82.5,175,
1,F,Mikaela Raddatz,SBD,R-O,63,Raw,63,125,-137.5,-137.5,125,55,60,-65,60,130,142.5,147.5,147.5,332.5,1985
2,F,Stephanie School,SBD,R-O,63,Raw,58.8,75,80,85,85,42.5,47.5,50,50,85,100,115,115,250,1991
3,F,AJ Halbach,SBD,R-O,63,Raw,62.2,70,-77.5,77.5,77.5,47.5,52.5,55,55,105,112.5,117.5,117.5,250,1984
4,F,Kristina Grunke,SBD,R-O,63,Raw,61.9,85,90,92.5,92.5,47.5,52.5,-55,52.5,-55,90,-92.5,90,235,
1,F,Frances Marks,SBD,R-O,72,Raw,69.9,102.5,115,122.5,122.5,62.5,67.5,72.5,72.5,147.5,160,-165,160,355,1990
2,F,Courtney Mikl,SBD,R-O,72,Raw,68,90,100,107.5,107.5,52.5,57.5,62.5,62.5,120,135,-145,135,305,1988
3,F,Betina Chaon,SBD,R-O,72,Raw,65.8,85,95,100,100,42.5,45,-52.5,45,115,125,132.5,132.5,277.5,
4,F,Annie Meidl,SBD,R-O,72,Raw,70.4,60,67.5,77.5,77.5,42.5,47.5,-52.5,47.5,120,130,140,140,265,1987
5,F,Paige Bayer,SBD,R-O,72,Raw,68.8,80,85,-97.5,85,42.5,47.5,-52.5,47.5,102.5,107.5,127.5,127.5,260,1992
1,F,Yovanka Kienzle,SBD,R-O,84,Raw,82.9,102.5,105,-110,105,62.5,65,-70,65,125,132.5,-137.5,132.5,302.5,1982
2,F,Katie Nelson,SBD,R-O,84,Raw,77,95,105,-112.5,105,47.5,50,55,55,115,127.5,137.5,137.5,297.5,1990
1,F,Rebecka Cook,SBD,R-O,84+,Raw,131.3,155,165,172.5,172.5,65,70,75,75,135,145,155,155,402.5,1993
