Division,WeightClassKg,Place,Name,Team,BodyweightKg,Best3SquatKg,Best3BenchKg,Best3DeadliftKg,TotalKg,Equipment,Event,Sex
Boys J.V.,56,1,Fabian Apaez,Somerset,55.79,79.38,61.23,99.79,240.4,Single-ply,SBD,M
Boys J.V.,60,1,Demetrios Monreal,Devine,59.87,136.08,90.72,147.42,374.21,Single-ply,SBD,M
Boys J.V.,67.5,1,Antonio Garcia,Somerset,61.96,113.4,86.18,167.83,367.41,Single-ply,SBD,M
Boys J.V.,67.5,2,Danny Villanueva,Kyle Lehman,66.32,127.01,70.31,147.42,344.73,Single-ply,SBD,M
Boys J.V.,75,1,Albert Salazar,Somerset,73.94,161.03,92.99,161.03,415.04,Single-ply,SBD,M
Boys J.V.,75,2,Marcos Cruz,Carrizo Springs,72.94,167.83,79.38,161.03,408.23,Single-ply,SBD,M
Boys J.V.,75,3,Jose Herrera,Somerset,74.39,127.01,81.65,170.1,378.75,Single-ply,SBD,M
Boys J.V.,75,4,Andrew Rodriguez,Kyle Lehman,68.49,142.88,83.91,138.35,365.14,Single-ply,SBD,M
Boys J.V.,82.5,1,Arnold Herrera,Somerset,80.74,224.53,129.27,210.92,564.72,Single-ply,SBD,M
Boys J.V.,82.5,2,Ricardo Gonzalez,Del Rio,80.65,170.1,92.99,142.88,405.97,Single-ply,SBD,M
Boys J.V.,82.5,3,Simon Sotiropoulos,Somerset,79.83,151.95,92.99,158.76,403.7,Single-ply,SBD,M
Boys J.V.,82.5,4,Cristian Benavente,San Antonio Southwest,78.93,138.35,88.45,149.69,376.48,Single-ply,SBD,M
Boys J.V.,82.5,5,Fabian Diego,Del Rio,78.83,108.86,97.52,136.08,342.46,Single-ply,SBD,M
Boys J.V.,82.5,6,Nick Padilla,Del Rio,79.47,133.81,65.77,138.35,337.93,Single-ply,SBD,M
Boys J.V.,82.5,7,Micah Torres,Kyle Lehman,79.29,111.13,77.11,136.08,324.32,Single-ply,SBD,M
Boys J.V.,82.5,DQ,Joseph Martinez,Somerset,82.1,,,,,Single-ply,SBD,M
Boys J.V.,90,1,David Castro,Carrizo Springs,88.09,181.44,122.47,172.37,476.27,Single-ply,SBD,M
Boys J.V.,90,2,Tanner Hardcastle,Devine,85.82,142.88,97.52,151.95,392.36,Single-ply,SBD,M
Boys J.V.,90,3,Daniel Gonzalez,Del Rio,85.55,133.81,102.06,154.22,390.09,Single-ply,SBD,M
Boys J.V.,90,4,Ivan Valencia,San Antonio Southwest,89.36,147.42,92.99,147.42,387.82,Single-ply,SBD,M
Boys J.V.,100,1,Manuel Garcia,Somerset,96.16,233.6,104.33,190.51,528.44,Single-ply,SBD,M
Boys J.V.,100,2,Rafael Salinas,Somerset,99.79,190.51,97.52,201.85,489.88,Single-ply,SBD,M
Boys J.V.,100,3,Jonathan Luna,San Antonio Southwest,92.26,138.35,102.06,138.35,378.75,Single-ply,SBD,M
Boys J.V.,100,DQ,Reno Garza,Somerset,98.88,,,,,Single-ply,SBD,M
Boys J.V.,110,DQ,Louis Rico,Somerset,109.77,,,,,Single-ply,SBD,M
Boys J.V.,125,1,Christian Adame,San Antonio Southwest,120.11,176.9,113.4,215.46,505.76,Single-ply,SBD,M
Boys J.V.,125,2,Arturo Lopez,San Antonio Southwest,123.92,183.7,104.33,165.56,453.59,Single-ply,SBD,M
Boys J.V.,125,3,Oscar Sandoval #2,San Antonio Southwest,111.22,113.4,68.04,120.2,301.64,Single-ply,SBD,M
Boys J.V.,125+,1,Isaiah Reyna,Somerset,131.54,226.8,90.72,226.8,544.31,Single-ply,SBD,M
Boys J.V.,125+,2,Caleb Calamaco,San Antonio Southwest,126.37,165.56,97.52,176.9,439.98,Single-ply,SBD,M
Boys J.V.,,DQ,Chris Tenorio,San Antonio Southwest,,,,,,Single-ply,SBD,M
Boys J.V.,,DQ,Tristian Herrera,San Antonio Southwest,,,,,,Single-ply,SBD,M
Boys J.V.,,DQ,Marco Dominguez,San Antonio Southwest,,,,,,Single-ply,SBD,M
Boys J.V.,,DQ,Jesus Gomez,San Antonio Southwest,,,,,,Single-ply,SBD,M
Boys J.V.,,DQ,Mario Sanchez,San Antonio Southwest,,,,,,Single-ply,SBD,M
Boys J.V.,,DQ,Edgar Fujarte,San Antonio Southwest,,,,,,Single-ply,SBD,M
Boys J.V.,,DQ,Michael Huebenthal,San Antonio Southwest,,,,,,Single-ply,SBD,M
Boys J.V.,,DQ,Isaiah Ibarra,San Antonio Southwest,,,,,,Single-ply,SBD,M
Boys J.V.,,DQ,Diego Lomeli,San Antonio Southwest,,,,,,Single-ply,SBD,M
Boys J.V.,,DQ,Jesus Mendoza-Estrada,San Antonio Southwest,,,,,,Single-ply,SBD,M
Boys J.V.,,DQ,George Ortiz,San Antonio Southwest,,,,,,Single-ply,SBD,M
Boys J.V.,,DQ,Joshua Martinez,San Antonio Southwest,,,,,,Single-ply,SBD,M
Boys J.V.,,DQ,Jacob Vargas,San Antonio Southwest,,,,,,Single-ply,SBD,M
Boys J.V.,,DQ,Jacob Huerta,San Antonio Southwest,,,,,,Single-ply,SBD,M
Boys J.V.,,DQ,Brian Rubiino,Del Rio,,,,,,Single-ply,SBD,M
Boys J.V.,,DQ,Jacob Rocha,Carrizo Springs,,,,,,Single-ply,SBD,M
Boys J.V.,,DQ,Gavin Vara,Uvalde,,,,,,Single-ply,SBD,M
Boys J.V.,,DQ,Juan Castillo,Elgin,,,,,,Single-ply,SBD,M
Boys J.V.,,DQ,Anthony Yanez,Elgin,,,,,,Single-ply,SBD,M
Boys J.V.,,DQ,Cody Arbogast,Elgin,,,,,,Single-ply,SBD,M
Boys Ninth Grade,52,1,Rudy Sanchez,Somerset,50.8,97.52,54.43,127.01,278.96,Single-ply,SBD,M
Boys Ninth Grade,56,1,Eli Luna,Somerset,55.16,124.74,61.23,124.74,310.71,Single-ply,SBD,M
Boys Ninth Grade,60,1,Julian Rico,Somerset,59.42,158.76,77.11,158.76,394.63,Single-ply,SBD,M
Boys Ninth Grade,67.5,1,Hunter Hernandez,Somerset,66.68,158.76,92.99,165.56,417.3,Single-ply,SBD,M
Boys Ninth Grade,67.5,2,Nathan Franklin,Somerset,64.86,122.47,72.57,117.93,312.98,Single-ply,SBD,M
Boys Ninth Grade,75,1,Alejandro Flores,Del Rio,73.39,161.03,97.52,183.7,442.25,Single-ply,SBD,M
Boys Ninth Grade,75,2,Michael Gonzales,Somerset,74.84,142.88,77.11,151.95,371.95,Single-ply,SBD,M
Boys Ninth Grade,75,3,Rowdy Wood,Somerset,68.49,81.65,54.43,120.2,256.28,Single-ply,SBD,M
Boys Ninth Grade,82.5,1,John Duenas,Somerset,81.65,183.7,92.99,176.9,453.59,Single-ply,SBD,M
Boys Ninth Grade,82.5,2,Jace Hackerbeil,Devine,75.93,149.69,90.72,149.69,390.09,Single-ply,SBD,M
Boys Ninth Grade,82.5,3,Noah Escamilla,Somerset,79.38,147.42,79.38,136.08,362.87,Single-ply,SBD,M
Boys Ninth Grade,82.5,4,Elias Torres,Somerset,77.11,102.06,92.99,163.29,358.34,Single-ply,SBD,M
Boys Ninth Grade,82.5,5,Emilio Cordero,Somerset,80.29,115.67,83.91,149.69,349.27,Single-ply,SBD,M
Boys Ninth Grade,90,1,Joey Hernandez,Somerset,83.46,145.15,102.06,176.9,424.11,Single-ply,SBD,M
Boys Ninth Grade,90,DQ,Carver Carver,Devine,87.54,145.15,,,,Single-ply,SBD,M
Boys Ninth Grade,100,1,Geonimo Flores,Somerset,99.34,158.76,90.72,176.9,426.38,Single-ply,SBD,M
Boys Ninth Grade,100,2,Christian Hernandez,Devine,97.79,163.29,90.72,151.95,405.97,Single-ply,SBD,M
Boys Ninth Grade,100,DQ,Adrian Jaime,Somerset,99.79,,,,,Single-ply,SBD,M
Boys Ninth Grade,110,1,Daniel Ramos,Somerset,106.14,115.67,92.99,,208.65,Single-ply,SB,M
Boys Ninth Grade,125,1,Miguel Costilla,Del Rio,110.13,183.7,106.59,204.12,494.42,Single-ply,SBD,M
Boys Ninth Grade,125+,DQ,Michael Perez,Somerset,127.01,,,,,Single-ply,SBD,M
Boys Ninth Grade,,DQ,Alfonso Carballo,San Antonio Southwest,,,,,,Single-ply,SBD,M
Boys Ninth Grade,,DQ,Abiel Chapa,San Antonio Southwest,,,,,,Single-ply,SBD,M
Boys Ninth Grade,,DQ,Gavin Guajardo,San Antonio Southwest,,,,,,Single-ply,SBD,M
Boys Ninth Grade,,DQ,Jermiah Price,San Antonio Southwest,,,,,,Single-ply,SBD,M
Boys Ninth Grade,,DQ,Jose De Alba,San Antonio Southwest,,,,,,Single-ply,SBD,M
Boys Ninth Grade,,DQ,Joshua Pereida,San Antonio Southwest,,,,,,Single-ply,SBD,M
Boys Ninth Grade,,DQ,Noah Jones,San Antonio Southwest,,,,,,Single-ply,SBD,M
Boys,52,1,Brandon Fernandez,Poteet,47.63,138.35,81.65,138.35,358.34,Single-ply,SBD,M
Boys,52,2,Johnny Gomez,Rocksprings,50.17,133.81,74.84,136.08,344.73,Single-ply,SBD,M
Boys,52,3,Marc Jacquez,Uvalde,47.26,102.06,58.97,115.67,276.69,Single-ply,SBD,M
Boys,52,4,Jacob Forrester,Center Point,42.82,77.11,36.29,83.91,197.31,Single-ply,SBD,M
Boys,56,1,Eulicez Gonzalez,San Antonio Southside,54.88,172.37,102.06,172.37,446.79,Single-ply,SBD,M
Boys,56,2,Lorenzo Barfield,San Antonio Southwest,53.8,115.67,65.77,133.81,315.25,Single-ply,SBD,M
Boys,56,3,Brytin Brown,Port Lavaca Calhoun,54.61,120.2,61.23,124.74,306.17,Single-ply,SBD,M
Boys,60,1,Moc Moo,Port Lavaca Calhoun,59.69,208.65,122.47,208.65,539.77,Single-ply,SBD,M
Boys,60,2,Taylor Weber,Jourdanton,59.78,151.95,90.72,151.95,394.63,Single-ply,SBD,M
Boys,60,3,Vince Ochoa,Dilley,55.97,147.42,88.45,156.49,392.36,Single-ply,SBD,M
Boys,60,4,Jajuan Singleton,Elgin,58.88,149.69,79.38,158.76,387.82,Single-ply,SBD,M
Boys,60,5,Michael Felkins,Port Lavaca Calhoun,56.79,136.08,83.91,151.95,371.95,Single-ply,SBD,M
Boys,60,6,Hayden Johnson,Center Point,58.79,142.88,74.84,149.69,367.41,Single-ply,SBD,M
Boys,60,7,Abraham Davila,Uvalde,59.69,111.13,58.97,124.74,294.84,Single-ply,SBD,M
Boys,60,8,Thomas Morales,Center Point,58.88,102.06,63.5,113.4,278.96,Single-ply,SBD,M
Boys,60,DQ,Colton Bean,Devine,55.97,131.54,,,,Single-ply,SBD,M
Boys,67.5,1,Jacob Fanno,Jourdanton,67.13,231.33,120.2,208.65,560.19,Single-ply,SBD,M
Boys,67.5,2,Diego Perez #1,Rocksprings,67.13,192.78,115.67,190.51,498.95,Single-ply,SBD,M
Boys,67.5,3,Jose Fargason,Devine,67.04,165.56,108.86,185.97,460.4,Single-ply,SBD,M
Boys,67.5,4,Julian Mata,Kyle Lehman,65.77,170.1,102.06,185.97,458.13,Single-ply,SBD,M
Boys,67.5,5,Aaron Sanchez,Poteet,66.41,172.37,92.99,181.44,446.79,Single-ply,SBD,M
Boys,67.5,6,Dominik Espinoza,Center Point,65.23,170.1,90.72,176.9,437.72,Single-ply,SBD,M
Boys,67.5,7,Anthony Aranda,Dilley,65.86,167.83,86.18,174.63,428.64,Single-ply,SBD,M
Boys,67.5,8,Garrett McDonald,Jourdanton,62.69,183.7,81.65,158.76,424.11,Single-ply,SBD,M
Boys,67.5,9,Cameron Saucedo,Kyle Lehman,60.24,158.76,102.06,156.49,417.3,Single-ply,SBD,M
Boys,67.5,10,Ray Heiser,Kyle Lehman,64.59,158.76,81.65,174.63,415.04,Single-ply,SBD,M
Boys,67.5,11,Marco Burkman-Flaig,San Antonio Cole,64.86,165.56,79.38,151.95,396.89,Single-ply,SBD,M
Boys,67.5,12,Anthony Clowdus,Elgin,65.86,142.88,79.38,158.76,381.02,Single-ply,SBD,M
Boys,67.5,13,Chandler Brill,Kyle Lehman,64.59,131.54,88.45,147.42,367.41,Single-ply,SBD,M
Boys,67.5,14,Pierce Ramirez,Dilley,65.68,151.95,68.04,147.42,367.41,Single-ply,SBD,M
Boys,67.5,15,Deull Arnold,Jourdanton,66.77,136.08,83.91,133.81,353.8,Single-ply,SBD,M
Boys,67.5,16,Israel Garcia,Kyle Lehman,64.32,131.54,79.38,138.35,349.27,Single-ply,SBD,M
Boys,67.5,17,Paco Ramirez,Rocksprings,62.41,129.27,68.04,147.42,344.73,Single-ply,SBD,M
Boys,67.5,18,Trenton Cabiness,Center Point,66.95,117.93,63.5,117.93,299.37,Single-ply,SBD,M
Boys,67.5,DQ,John Gamez,San Antonio Brooks Academy,63.68,156.49,,,,Single-ply,SBD,M
Boys,67.5,DQ,Alex Galvan,Jourdanton,67.13,122.47,81.65,,,Single-ply,SBD,M
Boys,75,1,Daniel Leita,Port Lavaca Calhoun,74.3,254.01,154.22,276.69,684.92,Single-ply,SBD,M
Boys,75,2,Gilibaldo Garcia,San Antonio Brooks Academy,72.48,233.6,117.93,244.94,596.47,Single-ply,SBD,M
Boys,75,3,Cesar Gonzalez,Somerset,70.31,226.8,111.13,215.46,553.38,Single-ply,SBD,M
Boys,75,4,Steven Ramirez,Devine,72.85,217.72,122.47,213.19,553.38,Single-ply,SBD,M
Boys,75,5,Kevin Cervantes,Elgin,74.03,188.24,129.27,210.92,528.44,Single-ply,SBD,M
Boys,75,6,Cristino Garcia,San Antonio Kennedy,70.58,197.31,111.13,208.65,517.1,Single-ply,SBD,M
Boys,75,7,Roy DeLeon,Somerset,68.95,195.04,108.86,210.92,514.83,Single-ply,SBD,M
Boys,75,8,Enrique Garza,Dilley,68.86,195.04,115.67,195.04,505.76,Single-ply,SBD,M
Boys,75,9,Nick Rodriguez,Dilley,70.94,190.51,113.4,199.58,503.49,Single-ply,SBD,M
Boys,75,10,Alberto Rodriguez,San Antonio Southwest,70.03,179.17,117.93,190.51,487.61,Single-ply,SBD,M
Boys,75,11,Juan Flores,Rocksprings,70.67,185.97,95.25,201.85,483.08,Single-ply,SBD,M
Boys,75,12,Frank Mendez,Carrizo Springs,74.12,183.7,102.06,197.31,483.08,Single-ply,SBD,M
Boys,75,13,Leif Griffin,San Antonio Southwest,73.57,199.58,102.06,167.83,469.47,Single-ply,SBD,M
Boys,75,14,Johnny Salinas,San Antonio Memorial,73.12,167.83,102.06,195.04,464.93,Single-ply,SBD,M
Boys,75,15,Noah Smith,Uvalde,69.4,183.7,83.91,195.04,462.66,Single-ply,SBD,M
Boys,75,16,Chris Castillo,Uvalde,73.94,154.22,97.52,174.63,426.38,Single-ply,SBD,M
Boys,75,17,Ruben Renteria,San Antonio Southwest,71.58,156.49,90.72,165.56,412.77,Single-ply,SBD,M
Boys,75,18,Aatu Maenpaa,Devine,72.12,163.29,83.91,133.81,381.02,Single-ply,SBD,M
Boys,75,19,Elijah Galindo,Uvalde,72.57,106.59,83.91,170.1,360.61,Single-ply,SBD,M
Boys,75,20,Isaiah Foreman,San Antonio Southside,74.12,124.74,88.45,147.42,360.61,Single-ply,SBD,M
Boys,75,21,Dayton High,Seguin,69.94,120.2,65.77,142.88,328.85,Single-ply,SBD,M
Boys,75,DQ,Shelbie Hill,Elgin,69.58,158.76,,,,Single-ply,SBD,M
Boys,82.5,1,Anthony Estrada,Somerset,80.74,272.16,154.22,272.16,698.53,Single-ply,SBD,M
Boys,82.5,2,Dylan Delgado,Somerset,81.65,272.16,106.59,226.8,605.55,Single-ply,SBD,M
Boys,82.5,3,Alex Rivas,Seguin,82.1,231.33,133.81,226.8,591.94,Single-ply,SBD,M
Boys,82.5,4,Meme Moreno,Somerset,80.74,249.48,127.01,208.65,585.13,Single-ply,SBD,M
Boys,82.5,5,Lucas Byrd,Devine,76.84,224.53,124.74,226.8,576.06,Single-ply,SBD,M
Boys,82.5,6,Raziel Galindo,Rocksprings,78.2,206.38,131.54,233.6,571.53,Single-ply,SBD,M
Boys,82.5,7,Joseph Lopez,Kyle Lehman,76.57,197.31,120.2,226.8,544.31,Single-ply,SBD,M
Boys,82.5,8,Edward Keirstead,San Antonio Southwest,80.29,219.99,129.27,190.51,539.77,Single-ply,SBD,M
Boys,82.5,9,Jesse Lopez,Port Lavaca Calhoun,82.1,219.99,113.4,181.44,514.83,Single-ply,SBD,M
Boys,82.5,10,Jamie Rios,Port Lavaca Calhoun,79.29,210.92,102.06,199.58,512.56,Single-ply,SBD,M
Boys,82.5,11,Eric Gonzales #2,Carrizo Springs,76.29,192.78,104.33,206.38,503.49,Single-ply,SBD,M
Boys,82.5,12,Nathan Bryson,Kyle Lehman,80.92,181.44,124.74,188.24,494.42,Single-ply,SBD,M
Boys,82.5,13,Jordan Valdez,Jourdanton,81.92,188.24,120.2,183.7,492.15,Single-ply,SBD,M
Boys,82.5,14,Mike Gomez,Poteet,81.92,192.78,108.86,190.51,492.15,Single-ply,SBD,M
Boys,82.5,15,Eduardo Vintura,Kyle Lehman,81.37,176.9,113.4,190.51,480.81,Single-ply,SBD,M
Boys,82.5,16,Nick Propst,San Antonio Southwest,81.37,172.37,113.4,181.44,467.2,Single-ply,SBD,M
Boys,82.5,17,Dakota Wofford,Devine,80.38,142.88,127.01,172.37,442.25,Single-ply,SBD,M
Boys,82.5,18,Tim Carrasco,Poteet,80.01,167.83,88.45,181.44,437.72,Single-ply,SBD,M
Boys,82.5,19,Airiq Delarosa,Seguin,81.56,165.56,127.01,142.88,435.45,Single-ply,SBD,M
Boys,82.5,20,Paulo Valdez,Center Point,76.84,174.63,92.99,165.56,433.18,Single-ply,SBD,M
Boys,82.5,21,Chanse Hernandez,Seguin,80.92,163.29,102.06,167.83,433.18,Single-ply,SBD,M
Boys,82.5,22,Jeremiah Aviles,Seguin,81.37,147.42,97.52,188.24,433.18,Single-ply,SBD,M
Boys,82.5,23,Tim Haller,San Antonio Southwest,76.48,156.49,108.86,163.29,428.64,Single-ply,SBD,M
Boys,82.5,24,Josiah Carrizalez,Uvalde,75.21,145.15,81.65,181.44,408.23,Single-ply,SBD,M
Boys,82.5,DQ,Ad Munoz,Seguin,79.56,142.88,102.06,170.1,,Single-ply,SBD,M
Boys,82.5,DQ,Abel Flores,Somerset,82.1,,,,,Single-ply,SBD,M
Boys,90,1,Nathon Cantu,San Antonio Brooks Academy,87.63,285.76,170.1,224.53,680.39,Single-ply,SBD,M
Boys,90,2,Mario Mendoza,Carrizo Springs,89.27,240.4,163.29,226.8,630.49,Single-ply,SBD,M
Boys,90,3,Luis Guzman,San Antonio Southside,88.54,260.82,133.81,224.53,619.15,Single-ply,SBD,M
Boys,90,4,Manny Arguijo,Del Rio,83.19,199.58,122.47,206.38,528.44,Single-ply,SBD,M
Boys,90,5,Austin Felan,Devine,89.09,213.19,131.54,183.7,528.44,Single-ply,SBD,M
Boys,90,6,Tre Moreno,Kyle Lehman,84.73,204.12,115.67,204.12,523.9,Single-ply,SBD,M
Boys,90,7,Patrick Rhodes,San Antonio Cole,88.99,192.78,129.27,188.24,510.29,Single-ply,SBD,M
Boys,90,8,Luis Frausto,Del Rio,87.54,183.7,122.47,201.85,508.02,Single-ply,SBD,M
Boys,90,9,Marty Trevino,Dilley,86.82,195.04,108.86,197.31,501.22,Single-ply,SBD,M
Boys,90,10,Josh Ewald,Kyle Lehman,86.91,185.97,111.13,204.12,501.22,Single-ply,SBD,M
Boys,90,11,Ruben Pimentel,San Antonio Memorial,88.27,188.24,124.74,188.24,501.22,Single-ply,SBD,M
Boys,90,12,Seth Sanchez,Kyle Lehman,88,183.7,120.2,190.51,494.42,Single-ply,SBD,M
Boys,90,13,Juan Salazar,Seguin,88.99,197.31,117.93,176.9,492.15,Single-ply,SBD,M
Boys,90,14,Evan Pawelek,Jourdanton,89.54,192.78,104.33,185.97,483.08,Single-ply,SBD,M
Boys,90,15,Chris Harvey,Elgin,83.55,183.7,102.06,179.17,464.93,Single-ply,SBD,M
Boys,90,16,Lino Tripp,San Antonio Cole,86.91,170.1,95.25,172.37,437.72,Single-ply,SBD,M
Boys,90,17,Isaac Gaspar,Elgin,85.91,158.76,88.45,183.7,430.91,Single-ply,SBD,M
Boys,90,18,Bryan Ramirez,Kyle Lehman,87.63,142.88,92.99,145.15,381.02,Single-ply,SBD,M
Boys,90,19,Juan Martinez,Dilley,83.64,136.08,79.38,133.81,349.27,Single-ply,SBD,M
Boys,90,DQ,Noah Bunger,Jourdanton,85.73,149.69,,,,Single-ply,SBD,M
Boys,90,DQ,Abel Villarreal,Somerset,89.81,,,,,Single-ply,SBD,M
Boys,90,DQ,George Perez,Somerset,89.81,,,,,Single-ply,SBD,M
Boys,90,DQ,Robert Guzman,Somerset,89.81,,,,,Single-ply,SBD,M
Boys,100,1,Eddie Garcia,Port Lavaca Calhoun,98.97,317.51,170.1,265.35,752.96,Single-ply,SBD,M
Boys,100,2,Joseph Bueno,Somerset,95.71,258.55,174.63,249.48,682.66,Single-ply,SBD,M
Boys,100,3,Mateo Garcia,San Antonio Memorial,99.79,276.69,131.54,235.87,644.1,Single-ply,SBD,M
Boys,100,4,De'Angelo Sutton,Seguin,90.81,210.92,115.67,226.8,553.38,Single-ply,SBD,M
Boys,100,5,Henry Higuera,Kyle Lehman,95.53,204.12,108.86,226.8,539.77,Single-ply,SBD,M
Boys,100,6,Ethan Chapa,Center Point,94.62,208.65,127.01,201.85,537.51,Single-ply,SBD,M
Boys,100,7,Azel Dimerry,Del Rio,90.99,217.72,106.59,208.65,532.97,Single-ply,SBD,M
Boys,100,8,Xavier Torres,San Antonio Southside,97.79,206.38,111.13,204.12,521.63,Single-ply,SBD,M
Boys,100,9,Dizan Rodriguez,Del Rio,99.79,192.78,127.01,201.85,521.63,Single-ply,SBD,M
Boys,100,10,Harley Franklin,Elgin,93.98,183.7,102.06,231.33,517.1,Single-ply,SBD,M
Boys,100,11,Jerome Wreh,Elgin,92.99,197.31,104.33,192.78,494.42,Single-ply,SBD,M
Boys,100,12,Adriel Tovar,Poteet,94.71,183.7,104.33,195.04,483.08,Single-ply,SBD,M
Boys,100,13,Reagan Brown,Devine,90.72,181.44,117.93,163.29,462.66,Single-ply,SBD,M
Boys,100,14,Aaron Ward,Seguin,98.43,165.56,102.06,188.24,455.86,Single-ply,SBD,M
Boys,100,15,Moses Carrasco,Poteet,91.08,188.24,83.91,181.44,453.59,Single-ply,SBD,M
Boys,100,16,Diego Hernandez,Devine,95.62,174.63,88.45,161.03,424.11,Single-ply,SBD,M
Boys,100,17,George Garza,Uvalde,97.34,111.13,63.5,124.74,299.37,Single-ply,SBD,M
Boys,110,1,Eddie Moreno,Somerset,109.32,278.96,176.9,267.62,723.48,Single-ply,SBD,M
Boys,110,2,Matthew Castro,Carrizo Springs,107.95,265.35,133.81,238.14,637.3,Single-ply,SBD,M
Boys,110,3,Patrick Zaiontz,San Antonio Brooks Academy,104.78,229.06,181.44,224.53,635.03,Single-ply,SBD,M
Boys,110,4,Thomas Chavez,Port Lavaca Calhoun,103.33,272.16,113.4,208.65,594.21,Single-ply,SBD,M
Boys,110,5,Joe Medoza,Del Rio,105.51,213.19,142.88,206.38,562.45,Single-ply,SBD,M
Boys,110,6,Francisco Uhl,San Antonio Southwest,106.68,170.1,140.61,204.12,514.83,Single-ply,SBD,M
Boys,110,7,Anthony Alegre,Poteet,108.59,204.12,111.13,197.31,512.56,Single-ply,SBD,M
Boys,110,8,Matt Williams,Uvalde,103.06,204.12,111.13,183.7,498.95,Single-ply,SBD,M
Boys,110,9,Sam Ritchey,Poteet,103.78,195.04,113.4,188.24,496.68,Single-ply,SBD,M
Boys,110,10,Francisco Ledesma,Seguin,106.5,183.7,106.59,197.31,487.61,Single-ply,SBD,M
Boys,110,11,John Navejas,Elgin,105.96,179.17,106.59,199.58,485.34,Single-ply,SBD,M
Boys,125,1,James Woods,Somerset,124.28,333.39,174.63,278.96,786.98,Single-ply,SBD,M
Boys,125,2,Austin Soto,Devine,123.65,283.5,213.19,258.55,755.23,Single-ply,SBD,M
Boys,125,3,Jorge Flores,San Antonio Memorial,118.39,254.01,142.88,229.06,625.96,Single-ply,SBD,M
Boys,125,4,Eliel Salazar,Elgin,115.12,238.14,142.88,238.14,619.15,Single-ply,SBD,M
Boys,125,5,Ethan Garcia,Kyle Lehman,117.75,249.48,131.54,235.87,616.89,Single-ply,SBD,M
Boys,125,6,Terry Cook,Elgin,112.85,238.14,133.81,238.14,610.08,Single-ply,SBD,M
Boys,125,7,Ray Martinez,Port Lavaca Calhoun,116.75,254.01,147.42,195.04,596.47,Single-ply,SBD,M
Boys,125,8,Christian Arredondo,Devine,115.94,238.14,163.29,183.7,585.13,Single-ply,SBD,M
Boys,125,9,Steve Segura,San Antonio Southwest,121.2,222.26,145.15,192.78,560.19,Single-ply,SBD,M
Boys,125,10,Jason Carrillo,Rocksprings,110.59,226.8,124.74,197.31,548.85,Single-ply,SBD,M
Boys,125,11,Marcus Luna,San Antonio Southwest,114.76,204.12,142.88,197.31,544.31,Single-ply,SBD,M
Boys,125,12,Brandon Orosco,Carrizo Springs,119.75,219.99,127.01,197.31,544.31,Single-ply,SBD,M
Boys,125,13,Jose Murillo,San Antonio Southwest,116.39,201.85,113.4,181.44,496.68,Single-ply,SBD,M
Boys,125,14,Symon Alvarez,San Antonio Southwest,114.12,165.56,131.54,174.63,471.74,Single-ply,SBD,M
Boys,125,15,Bryan Briones,Jourdanton,119.66,174.63,117.93,174.63,467.2,Single-ply,SBD,M
Boys,125,16,Anthony Walters,San Antonio Cole,114.12,172.37,117.93,172.37,462.66,Single-ply,SBD,M
Boys,125,17,Carlos Romero,Poteet,123.6,174.63,83.91,181.44,439.98,Single-ply,SBD,M
Boys,125+,1,Carlos Morales,Kyle Lehman,139.43,240.4,154.22,226.8,621.42,Single-ply,SBD,M
Boys,125+,2,Joseph Rodriguez,Del Rio,150.32,208.65,151.95,240.4,601.01,Single-ply,SBD,M
Boys,125+,3,Fred Enriquez,Rocksprings,149.96,251.74,129.27,215.46,596.47,Single-ply,SBD,M
Boys,125+,4,Leo Madera,Port Lavaca Calhoun,136.8,235.87,145.15,213.19,594.21,Single-ply,SBD,M
Boys,125+,5,Ty Roaches,Kyle Lehman,127.46,258.55,142.88,190.51,591.94,Single-ply,SBD,M
Boys,125,6,Abee Hinojosa,Del Rio,124.92,204.12,111.13,213.19,528.44,Single-ply,SBD,M
Boys,125+,7,Ryan Ruiz,Uvalde,137.62,81.65,65.77,113.4,260.82,Single-ply,SBD,M
Boys,125+,DQ,Kevin Del Toro,San Antonio Kennedy,129,217.72,,,,Single-ply,SBD,M
Boys,125+,DQ,Ben Pagen,Poteet,163.38,176.9,99.79,,,Single-ply,SBD,M
Boys,125+,DQ,Sebastian Ramirez,Somerset,125.19,,,,,Single-ply,SBD,M
Boys,,DQ,Tyler Crisp,Poteet,,,,,,Single-ply,SBD,M
Boys,,DQ,Joe Rodriguez,Del Rio,,,,,,Single-ply,SBD,M
Boys,,DQ,Emilio Constancio,Del Rio,,,,,,Single-ply,SBD,M
Boys,,DQ,Jaden Bocanegra,Del Rio,,,,,,Single-ply,SBD,M
Boys,,DQ,Joe Martinez,Del Rio,,,,,,Single-ply,SBD,M
Boys,,DQ,Isaiah Riojas,San Antonio Southwest,,,,,,Single-ply,SBD,M
Boys,,DQ,Isaaac Foreman,San Antonio Southside,,,,,,Single-ply,SBD,M
Boys,,DQ,Daniel Jimenez,San Antonio Southside,,,,,,Single-ply,SBD,M
Boys,,DQ,Michael Mitchell,San Antonio Southside,,,,,,Single-ply,SBD,M
Boys,,DQ,Elijah Amaro,San Antonio Southwest,,,,,,Single-ply,SBD,M
Boys,,DQ,Roger Lara,San Antonio Southwest,,,,,,Single-ply,SBD,M
Boys,,DQ,Phil Herrera,San Antonio Southwest,,,,,,Single-ply,SBD,M
Boys,,DQ,Adrian Melendez-Leon,San Antonio Southwest,,,,,,Single-ply,SBD,M
Boys,,DQ,Bradyn Hare,Port Lavaca Calhoun,,,,,,Single-ply,SBD,M
Boys,,DQ,Luis Perales,Carrizo Springs,,,,,,Single-ply,SBD,M
Boys,,DQ,Ralph Burgos,Kyle Lehman,,,,,,Single-ply,SBD,M
Boys,,DQ,Xavier Rivera,Port Lavaca Calhoun,,,,,,Single-ply,SBD,M
Boys,,DQ,Angel Rodea,San Antonio Kennedy,,,,,,Single-ply,SBD,M
Boys,,DQ,Rene De La Cruz,San Antonio Kennedy,,,,,,Single-ply,SBD,M
Boys,,DQ,Justin Guevara,San Antonio Kennedy,,,,,,Single-ply,SBD,M
Boys,,DQ,Manuel Ortiz,San Antonio Kennedy,,,,,,Single-ply,SBD,M
Boys,,DQ,Eloy Barrera,Uvalde,,,,,,Single-ply,SBD,M
Boys,,DQ,Francisco Ramirez,San Antonio Kennedy,,,,,,Single-ply,SBD,M
Boys,,DQ,Jesua M Eguia,San Antonio Kennedy,,,,,,Single-ply,SBD,M
Boys,,DQ,Manuel Cruz,San Antonio Kennedy,,,,,,Single-ply,SBD,M
Boys,,DQ,Andrew Romeo,San Antonio Kennedy,,,,,,Single-ply,SBD,M
Boys,,DQ,Robert Pena-Valdez,San Antonio Kennedy,,,,,,Single-ply,SBD,M
Boys,,DQ,Ricky Rosales,Jourdanton,,,,,,Single-ply,SBD,M
