Division,WeightClassKg,Place,Name,Team,BodyweightKg,Best3SquatKg,Best3BenchKg,Best3DeadliftKg,TotalKg,Equipment,Event,Sex
Boys,56,1,Kyle Bailey,Karnes City,53.98,154.22,92.99,151.95,399.16,Single-ply,SBD,M
Boys,56,2,Mason Williams,Yorktown,52.8,142.88,77.11,149.69,369.68,Single-ply,SBD,M
Boys,56,3,JT Bryce,George West,54.16,120.2,68.04,115.67,303.91,Single-ply,SBD,M
Boys,56,4,Bailey Parrett,Yorktown,55.79,111.13,70.31,117.93,299.37,Single-ply,SBD,M
Boys,60,1,Samuel Moczygemba,Poth,59.42,149.69,99.79,140.61,390.09,Single-ply,SBD,M
Boys,60,2,Chris Velazquez,Geronimo Navarro,57.79,142.88,81.65,138.35,362.87,Single-ply,SBD,M
Boys,60,3,David Wederstrandt,Geronimo Navarro,59.65,136.08,68.04,142.88,347,Single-ply,SBD,M
Boys,60,4,Christian Pina,Runge,59.01,122.47,68.04,151.95,342.46,Single-ply,SBD,M
Boys,60,5,Carlos Alvizo,Poth,57.56,111.13,65.77,124.74,301.64,Single-ply,SBD,M
Boys,60,6,Justin Duarte,George West,58.74,88.45,63.5,104.33,256.28,Single-ply,SBD,M
Boys,67.5,1,Noah Rodriguez,Kenedy,67.13,174.63,92.99,192.78,460.4,Single-ply,SBD,M
Boys,67.5,2,Michael Rodriguez,Stockdale,67.13,165.56,92.99,165.56,424.11,Single-ply,SBD,M
Boys,67.5,3,Diego Martinez,Stockdale,65.32,151.95,86.18,161.03,399.16,Single-ply,SBD,M
Boys,67.5,4,Francisco Sanchez,Pleasanton,65.05,142.88,88.45,145.15,376.48,Single-ply,SBD,M
Boys,67.5,5,Chris Garcia,Pleasanton,60.65,136.08,79.38,140.61,356.07,Single-ply,SBD,M
Boys,67.5,6,Jason Denson,Karnes City,66.41,136.08,68.04,142.88,347,Single-ply,SBD,M
Boys,67.5,7,Nicholas Bourne,Karnes City,65.05,127.01,56.7,124.74,308.44,Single-ply,SBD,M
Boys,67.5,DQ,Johnny Reger,Poth,67.13,154.22,72.57,,,Single-ply,SBD,M
Boys,67.5,DQ,Jason Cadena,Three Rivers,66.59,142.88,,,,Single-ply,SBD,M
Boys,75,1,Isaiah Dennis,Pettus,72.12,181.44,104.33,204.12,489.88,Single-ply,SBD,M
Boys,75,2,Brent Gisler,Karnes City,73.62,172.37,111.13,181.44,464.93,Single-ply,SBD,M
Boys,75,3,Gilibaldo Garcia,San Antonio Brooks Academy,71.89,172.37,88.45,199.58,460.4,Single-ply,SBD,M
Boys,75,4,Marcus Almeida,Stockdale,71.44,174.63,102.06,181.44,458.13,Single-ply,SBD,M
Boys,75,5,Neil Vallejo,Pleasanton,70.67,170.1,92.99,192.78,455.86,Single-ply,SBD,M
Boys,75,6,William Reyna,Geronimo Navarro,68.81,161.03,102.06,190.51,453.59,Single-ply,SBD,M
Boys,75,7,Robert Schmidt,Karnes City,74.66,170.1,102.06,181.44,453.59,Single-ply,SBD,M
Boys,75,8,Adrian Fuentes,George West,68.58,147.42,104.33,172.37,424.11,Single-ply,SBD,M
Boys,75,9,Jared Copper,Geronimo Navarro,69.13,151.95,90.72,181.44,424.11,Single-ply,SBD,M
Boys,75,10,Kaden Crouch,Stockdale,73.66,151.95,111.13,156.49,419.57,Single-ply,SBD,M
Boys,75,11,Tyler Talley,Stockdale,72.8,136.08,108.86,165.56,410.5,Single-ply,SBD,M
Boys,75,12,Jhett George,Poth,68.9,151.95,102.06,145.15,399.16,Single-ply,SBD,M
Boys,75,13,Isaiah Enriquez,Karnes City,73.21,147.42,81.65,167.83,396.89,Single-ply,SBD,M
Boys,75,14,Andrew Guerra,Pleasanton,73.3,142.88,92.99,154.22,390.09,Single-ply,SBD,M
Boys,75,15,John Carrillo,Three Rivers,70.9,154.22,77.11,149.69,381.02,Single-ply,SBD,M
Boys,75,16,Colton Salinas,Pettus,72.67,138.35,72.57,163.29,374.21,Single-ply,SBD,M
Boys,75,DQ,Darin Rios,Runge,70.81,102.06,,,,Single-ply,SBD,M
Boys,82.5,1,Brandon Munoz,George West,81.65,224.53,133.81,226.8,585.13,Single-ply,SBD,M
Boys,82.5,2,Andres Moncada,Karnes City,82.01,210.92,117.93,226.8,555.65,Single-ply,SBD,M
Boys,82.5,3,Nate Smith,George West,81.47,215.46,117.93,217.72,551.11,Single-ply,SBD,M
Boys,82.5,4,Mitchell Rees,Karnes City,81.65,208.65,122.47,213.19,544.31,Single-ply,SBD,M
Boys,82.5,5,Jake Wright,Geronimo Navarro,80.29,195.04,113.4,217.72,526.17,Single-ply,SBD,M
Boys,82.5,6,Dawson Bednorz,Three Rivers,80.33,195.04,104.33,174.63,474,Single-ply,SBD,M
Boys,82.5,7,Marshall Morris,Pleasanton,79.65,163.29,88.45,149.69,401.43,Single-ply,SBD,M
Boys,82.5,8,Gavin Garcia,Pleasanton,78.88,102.06,61.23,124.74,288.03,Single-ply,SBD,M
Boys,90,1,Lane McClelland,George West,83.01,229.06,151.95,238.14,619.15,Single-ply,SBD,M
Boys,90,2,Nathon Cantu,San Antonio Brooks Academy,88.09,249.48,154.22,215.46,619.15,Single-ply,SBD,M
Boys,90,3,Ilias Rodriguez,Three Rivers,85.87,188.24,102.06,201.85,492.15,Single-ply,SBD,M
Boys,90,4,Ethan Bernal,George West,86.45,174.63,97.52,185.97,458.13,Single-ply,SBD,M
Boys,90,5,Rawson Young,Geronimo Navarro,84.19,147.42,108.86,183.7,439.98,Single-ply,SBD,M
Boys,90,6,Sean Allen,Poth,88.9,167.83,111.13,156.49,435.45,Single-ply,SBD,M
Boys,90,7,Josh Gonzales,Pleasanton,87.82,158.76,106.59,165.56,430.91,Single-ply,SBD,M
Boys,90,8,Ethan Solomon,Pleasanton,88.41,158.76,77.11,167.83,403.7,Single-ply,SBD,M
Boys,90,9,Matthew Leal,Runge,86.95,127.01,86.18,147.42,360.61,Single-ply,SBD,M
Boys,90,10,Nathaniel Gomez,Karnes City,88.09,138.35,79.38,124.74,342.46,Single-ply,SBD,M
Boys,90,11,Damien Cerda,Runge,89.63,124.74,61.23,136.08,322.05,Single-ply,SBD,M
Boys,90,DQ,Jose Gonzalez #3,Runge,85.18,,,,,Single-ply,SBD,M
Boys,90,DQ,Stone Sahd,Geronimo Navarro,88.41,174.63,108.86,,,Single-ply,SBD,M
Boys,100,1,Patrick Zaiontz,San Antonio Brooks Academy,98.38,188.24,176.9,215.46,580.6,Single-ply,SBD,M
Boys,100,2,Joseph Benavidez,Pettus,96.93,213.19,136.08,190.51,539.77,Single-ply,SBD,M
Boys,100,3,Kase Clark,Karnes City,98.93,195.04,108.86,195.04,498.95,Single-ply,SBD,M
Boys,100,4,Zackary Zaleski,Geronimo Navarro,92.08,149.69,104.33,190.51,444.52,Single-ply,SBD,M
Boys,100,5,Ryan Bowman,Karnes City,97.2,170.1,106.59,163.29,439.98,Single-ply,SBD,M
Boys,100,6,Jacob Hernandez,Stockdale,99.74,165.56,90.72,167.83,424.11,Single-ply,SBD,M
Boys,110,1,Lane Springs,Geronimo Navarro,109.09,281.23,172.37,226.8,680.39,Single-ply,SBD,M
Boys,110,2,Rudy Vasquez,Kenedy,107.46,217.72,124.74,217.72,560.19,Single-ply,SBD,M
Boys,110,3,Jalen Cano,Stockdale,106.91,208.65,108.86,190.51,508.02,Single-ply,SBD,M
Boys,110,4,Michael Rios,Runge,100.11,188.24,111.13,192.78,492.15,Single-ply,SBD,M
Boys,110,5,Joe Adam Ramirez,George West,102.69,136.08,81.65,167.83,385.55,Single-ply,SBD,M
Boys,125,1,Jonathon Ricks,Pleasanton,122.79,294.84,185.97,238.14,718.94,Single-ply,SBD,M
Boys,125,2,Dante Medina,Nixon Smiley,116.85,272.16,183.7,210.92,666.78,Single-ply,SBD,M
Boys,125,3,Sisto Pacheco,Pleasanton,124.15,283.5,161.03,217.72,662.24,Single-ply,SBD,M
Boys,125,4,Joshua Leal,Karnes City,123.15,226.8,158.76,226.8,612.35,Single-ply,SBD,M
Boys,125,5,Luis Sanchez,Three Rivers,120.2,238.14,142.88,229.06,610.08,Single-ply,SBD,M
Boys,125,6,Marshall Crabb,Geronimo Navarro,118.57,238.14,142.88,226.8,607.81,Single-ply,SBD,M
Boys,125,7,Justin Broll,Yorktown,120.93,219.99,131.54,204.12,555.65,Single-ply,SBD,M
Boys,125,8,Travis Covington,Stockdale,111.72,208.65,127.01,185.97,521.63,Single-ply,SBD,M
Boys,125,9,Robert Reyes,Runge,115.62,197.31,108.86,183.7,489.88,Single-ply,SBD,M
Boys,125,DQ,Coy Boehm,Yorktown,113.44,,,,,Single-ply,SBD,M
Boys,125+,1,Michael Diaz,Stockdale,135.4,265.35,170.1,247.21,682.66,Single-ply,SBD,M
Boys,125+,2,James Cooksey,Kenedy,131.77,278.96,163.29,238.14,680.39,Single-ply,SBD,M
Boys,125+,3,Martin Hidrogo,Stockdale,131.81,258.55,161.03,244.94,664.51,Single-ply,SBD,M
Boys,125+,4,Diego Garcia,Stockdale,141.88,256.28,142.88,226.8,625.96,Single-ply,SBD,M
Boys,125+,5,Tyler Howard,Geronimo Navarro,125.74,226.8,142.88,226.8,596.47,Single-ply,SBD,M
Boys,125+,6,Brandon Woltman,Pleasanton,145.97,226.8,133.81,210.92,571.53,Single-ply,SBD,M
Boys,125+,7,Mikey Chapa,Karnes City,144.7,206.38,122.47,199.58,528.44,Single-ply,SBD,M
Boys,125+,8,Hunter Hackney,Runge,132.31,154.22,99.79,226.8,480.81,Single-ply,SBD,M
Boys,125+,9,Kyle Zaiontz,Poth,131.31,195.04,88.45,165.56,449.06,Single-ply,SBD,M
