Place,Name,BodyweightKg,Squat1Kg,Squat2Kg,Squat3Kg,Best3SquatKg,Bench1Kg,Bench2Kg,Bench3Kg,Best3BenchKg,Deadlift1Kg,Deadlift2Kg,Deadlift3Kg,Best3DeadliftKg,TotalKg,WeightClassKg,Sex,CyrillicName,BirthYear,Event,Equipment,Division
1,Igor Ilchenko,50.9,140,150,-157.5,150,-72.5,75,-80,75,145,155,162.5,162.5,387.5,52,M,Ігор Ільченко,1985,SBD,Single-ply,Sub-Juniors
2,Roman Gusak,51.55,155,165,-170,165,62.5,65,67.5,67.5,140,145,-152.5,145,377.5,52,M,Роман Гусак,1986,SBD,Single-ply,Sub-Juniors
3,Viktor Blazhenko,50.6,140,150,157.5,157.5,50,57.5,60,60,145,152.5,-155,152.5,370,52,M,Виктор Блаженко,1988,SBD,Single-ply,Sub-Juniors
4,Oleksandr Sitnikov,51.05,115,125,-130,125,70,-80,-80,70,140,155,-165,155,350,52,M,Олександр Ситніков,1987,SBD,Single-ply,Sub-Juniors
5,Oleksiy Artsymovych,51.35,110,-115,115,115,50,-57.5,57.5,57.5,115,-120,-120,115,287.5,52,M,Олексій Арцимович,1987,SBD,Single-ply,Sub-Juniors
1,Mykola Rus,55,150,160,-165,160,80,87.5,-90,87.5,170,180,185,185,432.5,56,M,Микола Рус,1985,SBD,Single-ply,Sub-Juniors
2,Anatoliy Muchichka,56,140,150,157.5,157.5,85,90,-92.5,90,140,150,160,160,407.5,56,M,Анатолій Мучичка,1987,SBD,Single-ply,Sub-Juniors
3,Sergiy Terzi,54.85,145,155,162.5,162.5,85,92.5,-95,92.5,-150,-150,150,150,405,56,M,Сергій Терзі,1987,SBD,Single-ply,Sub-Juniors
4,Dmitriy Kochnev,52.4,-140,140,-145,140,-85,85,92.5,92.5,135,145,150,150,382.5,56,M,Дмитрий Кочнев,1986,SBD,Single-ply,Sub-Juniors
5,Pavlo Kazachok,54.95,120,130,140,140,65,70,-75,70,150,-165,-165,150,360,56,M,Павло Казачок,1987,SBD,Single-ply,Sub-Juniors
1,Oleg Kurchenkov,59.8,190,200,-205,200,107.5,112.5,-115,112.5,-180,185,205,205,517.5,60,M,Олег Курченков,1986,SBD,Single-ply,Sub-Juniors
2,Sergiy Minichev,60,170,185,-195,185,95,100,-102.5,100,190,-210,-210,190,475,60,M,Сергій Мінічев,1986,SBD,Single-ply,Sub-Juniors
3,Pavlo Nagirnyy,58.95,160,170,-185,170,80,90,92.5,92.5,150,160,165,165,427.5,60,M,Павло Нагірний,1985,SBD,Single-ply,Sub-Juniors
4,Petr Tsapenko,58.5,130,140,150,150,75,80,-85,80,155,-165,175,175,405,60,M,Петр Цапенко,1985,SBD,Single-ply,Sub-Juniors
5,Aleksey Petrov,59.4,140,155,165,165,85,-92.5,-92.5,85,140,155,-160,155,405,60,M,Алексей Петров,1987,SBD,Single-ply,Sub-Juniors
6,Ivan Stepanchenko,59.6,135,-150,-150,135,85,95,-100,95,150,165,-175,165,395,60,M,Іван Степанченко,1986,SBD,Single-ply,Sub-Juniors
7,Ivan Danilchuk,59.1,-135,135,140,140,100,-110,-112.5,100,135,140,-155,140,380,60,M,Іван Данильчук,1986,SBD,Single-ply,Sub-Juniors
8,Vasiliy Pavlyuk,58.5,130,145,-155,145,70,80,-85,80,130,140,147.5,147.5,372.5,60,M,Василий Павлюк,1988,SBD,Single-ply,Sub-Juniors
DQ,Denys Krasin,59,140,150,-155,150,-90,-90,-90,,,,,,,60,M,Денис Красін,1987,SBD,Single-ply,Sub-Juniors
1,Anatoliy Shapovalov,65.1,210,225,-232.5,225,120,130,135,135,190,200,-210,200,560,67.5,M,Анатолій Шаповалов,1985,SBD,Single-ply,Sub-Juniors
2,Volodymyr Pirogov,67.2,-210,210,-220,210,117.5,122.5,125,125,200,210,,210,545,67.5,M,Володимир Пирогов,1987,SBD,Single-ply,Sub-Juniors
3,Oleg Kotiy,66.8,-200,200,-210,200,95,100,-105,100,190,200,202.5,202.5,502.5,67.5,M,Олег Котій,1985,SBD,Single-ply,Sub-Juniors
4,Andrey Dobridnev,66.2,190,-200,200,200,100,110,115,115,180,-187.5,-187.5,180,495,67.5,M,Андрей Добриднев,1985,SBD,Single-ply,Sub-Juniors
5,Vyacheslav Nazaykin,65,180,-195,-195,180,95,-100,100,100,200,-220,-222.5,200,480,67.5,M,В'ячеслав Назайкін,1985,SBD,Single-ply,Sub-Juniors
6,Maksym Mukovoz,66.2,-180,180,-190,180,100,-110,-110,100,180,190,-200,190,470,67.5,M,Максим Муковоз,1986,SBD,Single-ply,Sub-Juniors
7,Andriy Shpirko,65,155,-165,-170,155,110,117.5,-122.5,117.5,180,190,-200,190,462.5,67.5,M,Андрій Шпірко,1985,SBD,Single-ply,Sub-Juniors
8,Aleksandr Kormilo,64.9,150,160,-170,160,70,-75,-75,70,190,200,-210,200,430,67.5,M,Александр Кормило,1986,SBD,Single-ply,Sub-Juniors
9,Oleg Bilenko,66.3,140,150,160,160,75,82.5,87.5,87.5,140,160,172.5,172.5,420,67.5,M,Олег Биленко,1986,SBD,Single-ply,Sub-Juniors
10,Igor Khmelnitskiy,65.7,-140,150,-160,150,75,80,-85,80,155,170,182.5,182.5,412.5,67.5,M,Игорь Хмельницкий,1988,SBD,Single-ply,Sub-Juniors
11,Maksim Buduchenko,63.3,140,157.5,162.5,162.5,65,72.5,-77.5,72.5,147.5,157.5,162.5,162.5,397.5,67.5,M,Максим Будученко,1986,SBD,Single-ply,Sub-Juniors
1,Andriy Krymov,72.8,200,210,-220,210,160,170,-177.5,170,200,220,230,230,610,75,M,Андрій Кримов,1985,SBD,Single-ply,Sub-Juniors
2,Bogdan Pasenko,74.3,185,-200,200,200,130,-140,140,140,180,190,-200,190,530,75,M,Богдан Пасенко,1985,SBD,Single-ply,Sub-Juniors
3,Oleksiy Vyalkin,71.4,190,-200,-200,190,120,-130,-130,120,-180,180,-205,180,490,75,M,Олексій Вялкін,1985,SBD,Single-ply,Sub-Juniors
4,Oleksandr Martynyuk,68.2,-130,-130,130,130,120,127.5,-130,127.5,160,170,175,175,432.5,75,M,Олександр Мартинюк,1985,SBD,Single-ply,Sub-Juniors
5,Sergiy Myshko,74,-150,160,-170,160,80,87.5,-90,87.5,165,175,-187.5,175,422.5,75,M,Сергій Мышко,1985,SBD,Single-ply,Sub-Juniors
DQ,Sergiy Nikolin,75,-185,-185,-185,,,,,,,,,,,75,M,Сергій Ніколін,1985,SBD,Single-ply,Sub-Juniors
1,Vitaliy Terstuyakh,81.6,-215,215,222.5,222.5,135,142.5,152.5,152.5,227.5,240,247.5,247.5,622.5,82.5,M,Віталій Терстуях,1985,SBD,Single-ply,Sub-Juniors
2,Dmytro Burmistrov,80.8,230,-250,-260,230,140,147.5,152.5,152.5,217.5,230,-237.5,230,612.5,82.5,M,Дмитро Бурмістров,1987,SBD,Single-ply,Sub-Juniors
3,Igor Shmakov,82.2,190,200,-210,200,110,120,-127.5,120,190,200,210,210,530,82.5,M,Ігор Шмаков,1986,SBD,Single-ply,Sub-Juniors
4,Ernest Serebryakov,79.2,175,190,-205,190,90,100,-105,100,175,-190,195,195,485,82.5,M,Ернест Серебряков,1987,SBD,Single-ply,Sub-Juniors
5,Georgiy Sekeresh,80.7,155,-165,170,170,-95,100,-105,100,155,170,175,175,445,82.5,M,Георгий Секереш,1987,SBD,Single-ply,Sub-Juniors
1,Sergiy Drevov,85.5,-220,220,250,250,130,142.5,-147.5,142.5,210,-225,-225,210,602.5,90,M,Сергій Древов,1985,SBD,Single-ply,Sub-Juniors
2,Oleksandr Shepil',82.7,200,220,230,230,110,120,125,125,190,210,220,220,575,90,M,Олександр Шепіль,1987,SBD,Single-ply,Sub-Juniors
3,Igor Kolisnichenko,85.6,-195,195,205,205,120,127.5,132.5,132.5,200,215,-230,215,552.5,90,M,Игорь Колисниченко,1985,SBD,Single-ply,Sub-Juniors
4,Anatoliy Andruschak,82.55,-190,190,-200,190,-120,120,130,130,190,200,205,205,525,90,M,Анатолій Андрущак,1985,SBD,Single-ply,Sub-Juniors
5,Vyacheslav Radzevich,82.55,160,170,180,180,100,-107.5,-107.5,100,165,185,200,200,480,90,M,Вячеслав Радзевич,1985,SBD,Single-ply,Sub-Juniors
6,Andriy Veryutin,89.9,165,-180,180,180,105,-115,-115,105,160,175,182.5,182.5,467.5,90,M,Андрій Верютін,1986,SBD,Single-ply,Sub-Juniors
1,Konstantin Karpov,96.7,-200,-200,200,200,150,157.5,-160,157.5,220,230,-242.5,230,587.5,100,M,Константин Карпов,1985,SBD,Single-ply,Sub-Juniors
2,Matviy Miridi,92.3,205,215,225,225,100,110,-117.5,110,200,210,220,220,555,100,M,Матвій Міріді,1987,SBD,Single-ply,Sub-Juniors
1,Anton Dubrovskiy,104.2,190,202.5,-210,202.5,102.5,-112.5,115,115,190,210,-215,210,527.5,110,M,Антон Дубровський,1986,SBD,Single-ply,Sub-Juniors
DQ,Arsen Naboka,107,190,200,-205,200,87.5,95,-97.5,95,-195,-195,-195,,,110,M,Арсен Набока,1986,SBD,Single-ply,Sub-Juniors
DQ,Yevgen Prosyankin,102.5,-200,-200,-200,,,,,,,,,,,110,M,Евгений Просянкин,1986,SBD,Single-ply,Sub-Juniors
1,Lyudmyla Simko,44,80,-87.5,-87.5,80,35,-37.5,37.5,37.5,80,85,95,95,212.5,44,F,Людмила Сімко,1988,SBD,Single-ply,Sub-Juniors
2,Viktoriya Komyati,36.9,70,75,80,80,35,-40,-40,35,75,80,82.5,82.5,197.5,44,F,Вікторія Ком'яті,1987,SBD,Single-ply,Sub-Juniors
3,Vitaliya Varadi,39,45,50,-55,50,-25,-25,25,25,-65,-65,65,65,140,44,F,Виталия Варади,1989,SBD,Single-ply,Sub-Juniors
1,Yuliya Bulyga,47.45,60,-80,80,80,30,35,-37.5,35,70,85,-90,85,200,48,F,Юлия Булыга,1990,SBD,Single-ply,Sub-Juniors
1,Taisiya Kuznetsova,51.5,-135,-135,135,135,70,-77.5,-77.5,70,140,-150,-150,140,345,52,F,Таїсія Кузнецова,1986,SBD,Single-ply,Sub-Juniors
2,Anna Bulgakova,51.2,115,125,140,140,75,80,82.5,82.5,70,90,-105,90,312.5,52,F,Анна Булгакова,1989,SBD,Single-ply,Sub-Juniors
3,Olena Melnikova,51.2,100,110,115,115,65,-70,70,70,115,-120,-120,115,300,52,F,Олена Мельникова,1985,SBD,Single-ply,Sub-Juniors
4,Taisiya Gladchenko,51.7,100,-107.5,117.5,117.5,52.5,57.5,-60,57.5,120,-132.5,-132.5,120,295,52,F,Таїсія Гладченко,1986,SBD,Single-ply,Sub-Juniors
1,Irina Kotendzhi,55.7,115,-125,125,125,65,70,-75,70,122.5,130,135,135,330,56,F,Ірина Котенджи,1985,SBD,Single-ply,Sub-Juniors
2,Svitlana Kozyupa,54.8,-120,120,130,130,-65,65,70,70,115,-122.5,127.5,127.5,327.5,56,F,Світлана Козюпа,1987,SBD,Single-ply,Sub-Juniors
3,Mariya Zelenyak,54.2,75,80,-85,80,35,40,-42.5,40,100,-107.5,-107.5,100,220,56,F,Мария Зеленяк,1988,SBD,Single-ply,Sub-Juniors
DQ,Viktoriya Vovk,56,-95,-95,-95,,,,,,,,,,,56,F,Вікторія Вовк,1988,SBD,Single-ply,Sub-Juniors
1,Tetyana Skrypka,59.4,-160,165,-170,165,90,-95,95,95,160,165,170,170,430,60,F,Тетяна Скрипка,1987,SBD,Single-ply,Sub-Juniors
2,Yelyzaveta Nazina,59.2,120,130,135,135,57.5,62.5,67.5,67.5,115,125,130,130,332.5,60,F,Єлізавета Назіна,1988,SBD,Single-ply,Sub-Juniors
1,Anastasiya Balashenko,66.75,175,185,-195,185,-100,100,-105,100,175,185,-190,185,470,67.5,F,Анастасия Балашенко,1986,SBD,Single-ply,Sub-Juniors
2,Nadiya Petrovska,63.6,145,155,-165,155,100,-102.5,-105,100,145,150,155,155,410,67.5,F,Надія Петровська,1986,SBD,Single-ply,Sub-Juniors
3,Oksana Roman,60.7,-100,100,110,110,47.5,52.5,55,55,-120,120,130,130,295,67.5,F,Оксана Роман,1987,SBD,Single-ply,Sub-Juniors
1,Ulyana Oliynyk,68.7,-140,-140,140,140,80,87.5,-92.5,87.5,140,155,160,160,387.5,75,F,Уляна Олійник,1986,SBD,Single-ply,Sub-Juniors
2,Inna Borsalo,70.7,120,-130,130,130,60,65,-70,65,145,155,160,160,355,75,F,Інна Борсало,1986,SBD,Single-ply,Sub-Juniors
