Division,WeightClassKg,Place,Name,Team,BodyweightKg,Best3SquatKg,Best3BenchKg,Best3DeadliftKg,TotalKg,Equipment,Event,Sex
Boys,52,1,Juan Duran,Lubbock Cooper,48.08,106.59,74.84,142.88,324.32,Single-ply,SBD,M
Boys,52,2,Arturo Rodriquez,Meadow,51.26,113.4,58.97,138.35,310.71,Single-ply,SBD,M
Boys,52,3,Triston Davis,Sundown,48.08,97.52,63.5,120.2,281.23,Single-ply,SBD,M
Boys,52,4,Alex Urbano,Brownfield,46.63,65.77,43.09,83.91,192.78,Single-ply,SBD,M
Boys,56,1,Gavon Gardner,Meadow,53.89,117.93,58.97,140.61,317.51,Single-ply,SBD,M
Boys,56,2,Justin Rodriguez,Lubbock Cooper,54.34,102.06,61.23,122.47,285.76,Single-ply,SBD,M
Boys,56,3,Devin McCleskey,Tahoka,54.79,97.52,56.7,108.86,263.08,Single-ply,SBD,M
Boys,56,DQ,Jose Garcia,Brownfield,55.79,,,,,Single-ply,SBD,M
Boys,60,1,Ryan Punchard,Lubbock Cooper,59.87,120.2,74.84,136.08,331.12,Single-ply,SBD,M
Boys,60,2,Hadley Reynolds,Tahoka,56.61,108.86,61.23,113.4,283.5,Single-ply,SBD,M
Boys,60,3,Gary Duran,Brownfield,57.52,92.99,61.23,99.79,254.01,Single-ply,SBD,M
Boys,67.5,1,Abraham Trevino,Lubbock Cooper,66.22,138.35,102.06,167.83,408.23,Single-ply,SBD,M
Boys,67.5,2,Alek Cruz,Lubbock Cooper,64.77,154.22,90.72,151.95,396.89,Single-ply,SBD,M
Boys,67.5,3,Jonathan Flores,Meadow,65.32,136.08,83.91,165.56,385.55,Single-ply,SBD,M
Boys,67.5,4,Brandon Morris,Lubbock Cooper,67.13,147.42,92.99,145.15,385.55,Single-ply,SBD,M
Boys,67.5,5,Ethan Mullin,Meadow,62.96,122.47,70.31,142.88,335.66,Single-ply,SBD,M
Boys,67.5,6,Ethan Harper,Brownfield,66.22,97.52,52.16,106.59,256.28,Single-ply,SBD,M
Boys,67.5,7,Allan Hope,Tahoka,62.96,81.65,43.09,102.06,226.8,Single-ply,SBD,M
Boys,67.5,DQ,Gibby Vasquez,Brownfield,65.77,111.13,,,,Single-ply,SBD,M
Boys,67.5,DQ,Tanner Copeland,Lubbock Roosevelt,64.41,,,,,Single-ply,SBD,M
Boys,75,1,Cailer Woolam,Lubbock Cooper,73.03,192.78,120.2,226.8,539.77,Single-ply,SBD,M
Boys,75,2,Bj Trevino,Lubbock Cooper,72.94,170.1,95.25,172.37,437.72,Single-ply,SBD,M
Boys,75,3,Jon Chavez,Sundown,72.03,174.63,83.91,176.9,435.45,Single-ply,SBD,M
Boys,75,4,Brady Tekell,Meadow,69.85,151.95,92.99,174.63,419.57,Single-ply,SBD,M
Boys,75,5,Tycer Farmer,Lubbock Cooper,72.94,142.88,102.06,167.83,412.77,Single-ply,SBD,M
Boys,75,6,Andrew Castillo,Meadow,70.67,124.74,90.72,170.1,385.55,Single-ply,SBD,M
Boys,75,7,Kordell Baker,Tahoka,67.49,138.35,83.91,156.49,378.75,Single-ply,SBD,M
Boys,75,8,Justice Hayes,Tahoka,73.94,92.99,83.91,138.35,315.25,Single-ply,SBD,M
Boys,75,9,Nathan Besler,Brownfield,72.94,102.06,70.31,133.81,306.17,Single-ply,SBD,M
Boys,75,10,Aaron Aguirre,Brownfield,74.84,102.06,70.31,117.93,290.3,Single-ply,SBD,M
Boys,75,11,Ian Cobb,Tahoka,71.12,92.99,52.16,117.93,263.08,Single-ply,SBD,M
Boys,75,DQ,Daniel Aleman,Tahoka,71.67,136.08,,,,Single-ply,SBD,M
Boys,75,DQ,Prince Kim,Brownfield,72.12,,,,,Single-ply,SBD,M
Boys,82.5,1,Luis Torrez,Meadow,79.83,172.37,117.93,165.56,455.86,Single-ply,SBD,M
Boys,82.5,2,Rodney Warren,Brownfield,78.83,142.88,88.45,167.83,399.16,Single-ply,SBD,M
Boys,82.5,3,Dilyn Castle,Lubbock Roosevelt,79.38,142.88,90.72,149.69,383.29,Single-ply,SBD,M
Boys,82.5,4,Steven Sanchez,Meadow,76.57,127.01,92.99,161.03,381.02,Single-ply,SBD,M
Boys,82.5,5,Bradley Bandy,Brownfield,82.1,124.74,97.52,158.76,381.02,Single-ply,SBD,M
Boys,82.5,6,Ramon Vasquez,Brownfield,78.24,124.74,61.23,142.88,328.85,Single-ply,SBD,M
Boys,82.5,DQ,Mikkel Garza,Tahoka,78.38,174.63,79.38,,,Single-ply,SBD,M
Boys,90,1,Fili Jaquez,Lubbock Cooper,83.82,240.4,154.22,240.4,635.03,Single-ply,SBD,M
Boys,90,2,Devin Elmore,Sundown,87.45,208.65,136.08,163.29,508.02,Single-ply,SBD,M
Boys,90,3,Brady McClellan,Lubbock Cooper,84.37,172.37,92.99,179.17,444.52,Single-ply,SBD,M
Boys,90,4,Xavier Garcia,Sundown,83.82,167.83,104.33,167.83,439.98,Single-ply,SBD,M
Boys,90,5,Lane Rockey,Brownfield,87,104.33,68.04,124.74,297.1,Single-ply,SBD,M
Boys,90,DQ,Issac Rodriquez,Lubbock Roosevelt,86.18,,,,,Single-ply,SBD,M
Boys,100,1,Jackson Stevens,Lubbock Cooper,90.26,156.49,102.06,151.95,410.5,Single-ply,SBD,M
Boys,100,2,Andrew Waters,Lubbock Roosevelt,96.62,131.54,102.06,149.69,383.29,Single-ply,SBD,M
Boys,100,3,Dimitri Gomez,Lubbock Roosevelt,92.99,108.86,99.79,124.74,333.39,Single-ply,SBD,M
Boys,110,1,Caelan Decker,Tahoka,108.77,215.46,154.22,199.58,569.26,Single-ply,SBD,M
Boys,110,2,Jeremiah DeLeon,Tahoka,102.97,219.99,142.88,195.04,557.92,Single-ply,SBD,M
Boys,110,3,Eddie Aguirre,Brownfield,102.06,181.44,120.2,181.44,483.08,Single-ply,SBD,M
Boys,110,4,Sebastian Lopez,Lubbock Cooper,104.69,174.63,124.74,181.44,480.81,Single-ply,SBD,M
Boys,110,5,Jet Grant,Sundown,101.97,172.37,102.06,165.56,439.98,Single-ply,SBD,M
Boys,110,DQ,Roman Alvarado,Brownfield,108.77,185.97,113.4,,,Single-ply,SBD,M
Boys,125,1,Michael Gallegos,Lubbock Cooper,112.4,156.49,88.45,172.37,417.3,Single-ply,SBD,M
Boys,125+,1,Joseph Villarreal,Lubbock Roosevelt,133.72,185.97,113.4,192.78,492.15,Single-ply,SBD,M
Boys,125+,2,Tony Garcia,Tahoka,148.69,172.37,74.84,149.69,396.89,Single-ply,SBD,M
Boys,125+,3,Byron Lara,Lubbock Cooper,143.79,20.41,215.46,65.77,301.64,Single-ply,SBD,M
