Division,WeightClassKg,Place,Name,Team,BodyweightKg,Best3SquatKg,Best3BenchKg,Best3DeadliftKg,TotalKg,Equipment,Event,Sex
Boys,52,1,Benny Lara,Victoria West,51.62,156.49,79.38,163.29,399.16,Single-ply,SBD,M
Boys,52,2,Mason Williams,Yorktown,51.71,133.81,72.57,142.88,349.27,Single-ply,SBD,M
Boys,52,3,Juan Ramirez,Runge,51.71,102.06,56.7,115.67,274.42,Single-ply,SBD,M
Boys,52,4,Camrin Wleczyk,Van Vleck,46.9,65.77,38.56,92.99,197.31,Single-ply,SBD,M
Boys,56,1,Adrian Herrera,Yoakum,52.89,156.49,88.45,145.15,390.09,Single-ply,SBD,M
Boys,56,2,Kyle Bailey,Karnes City,52.44,147.42,88.45,147.42,383.29,Single-ply,SBD,M
Boys,56,3,Michae Casillas,Victoria West,55.16,138.35,90.72,147.42,376.48,Single-ply,SBD,M
Boys,56,4,Cody Faust,Yoakum,55.79,133.81,81.65,156.49,371.95,Single-ply,SBD,M
Boys,56,5,Stephen Hernandez,Victoria East,55.79,124.74,83.91,140.61,349.27,Single-ply,SBD,M
Boys,56,6,David Padilla,Bloomington,54.79,106.59,61.23,124.74,292.57,Single-ply,SBD,M
Boys,56,7,Arthur Sanchez,Victoria West,54.43,115.67,52.16,111.13,278.96,Single-ply,SBD,M
Boys,56,8,Devin Banda,Gonzales,54.88,102.06,56.7,115.67,274.42,Single-ply,SBD,M
Boys,56,9,Bailey Parrett,Yorktown,55.61,102.06,65.77,102.06,269.89,Single-ply,SBD,M
Boys,56,10,Ryan De la Garza,Goliad,52.98,90.72,45.36,,136.08,Single-ply,SB,M
Boys,56,11,Moses Cantu,Yorktown,54.43,79.38,,,79.38,Single-ply,S,M
Boys,60,1,Samuel Moczygemba,Poth,57.97,142.88,90.72,140.61,374.21,Single-ply,SBD,M
Boys,60,2,Gabrial Garcia,Yoakum,58.24,129.27,68.04,124.74,322.05,Single-ply,SBD,M
Boys,60,3,Moc Moo,Port Lavaca Calhoun,59.06,197.31,104.33,,301.64,Single-ply,SB,M
Boys,60,4,Abraham Espino,Van Vleck,59.51,106.59,70.31,120.2,297.1,Single-ply,SBD,M
Boys,60,DQ,Christian Pena,Runge,58.79,,,,,Single-ply,SBD,M
Boys,67.5,1,Johnathan Zclaya,Victoria East,63.87,190.51,115.67,185.97,492.15,Single-ply,SBD,M
Boys,67.5,2,Brandon Robles,Van Vleck,66.22,183.7,83.91,183.7,451.32,Single-ply,SBD,M
Boys,67.5,3,Abraham Ruiz,Victoria East,66.22,174.63,108.86,165.56,449.06,Single-ply,SBD,M
Boys,67.5,4,Chris Eastwood,Goliad,66.41,158.76,81.65,181.44,421.84,Single-ply,SBD,M
Boys,67.5,5,Denver Evans,Yoakum,65.23,149.69,88.45,170.1,408.23,Single-ply,SBD,M
Boys,67.5,6,Mike Rodriguez,Stockdale,67.13,158.76,81.65,158.76,399.16,Single-ply,SBD,M
Boys,67.5,7,Diego Martinez,Stockdale,64.68,142.88,88.45,156.49,387.82,Single-ply,SBD,M
Boys,67.5,8,Ben Villareal,Cuero,67.13,124.74,90.72,170.1,385.55,Single-ply,SBD,M
Boys,67.5,9,Zachary Rodriguez,Three Rivers,64.23,142.88,88.45,149.69,381.02,Single-ply,SBD,M
Boys,67.5,10,Jhett George,Poth,67.13,138.35,99.79,142.88,381.02,Single-ply,SBD,M
Boys,67.5,11,Jason Cadena,Three Rivers,65.95,145.15,83.91,147.42,376.48,Single-ply,SBD,M
Boys,67.5,12,Anastacio Perez,Yorktown,64.77,147.42,79.38,145.15,371.95,Single-ply,SBD,M
Boys,67.5,13,Johnny Reger,Poth,67.13,138.35,72.57,151.95,362.87,Single-ply,SBD,M
Boys,67.5,14,Heber Cardona,Gonzales,61.87,120.2,88.45,124.74,333.39,Single-ply,SBD,M
Boys,67.5,15,Christian Cabrera,Odem,60.33,106.59,61.23,129.27,297.1,Single-ply,SBD,M
Boys,75,1,Chayce Grevey,Victoria West,74.39,231.33,149.69,240.4,621.42,Single-ply,SBD,M
Boys,75,2,Hunter Dollery,Victoria West,74.3,217.72,127.01,222.26,566.99,Single-ply,SBD,M
Boys,75,3,Daniel Leita,Port Lavaca Calhoun,71.4,208.65,120.2,235.87,564.72,Single-ply,SBD,M
Boys,75,4,Dante Pizana,Odem,73.94,183.7,133.81,192.78,510.29,Single-ply,SBD,M
Boys,75,5,Kobe Blackmon,Van Vleck,72.57,183.7,113.4,204.12,501.22,Single-ply,SBD,M
Boys,75,6,Korey Taylor,Victoria West,73.94,176.9,106.59,210.92,494.42,Single-ply,SBD,M
Boys,75,7,Esai Gonzalez,Port Lavaca Calhoun,71.49,185.97,117.93,176.9,480.81,Single-ply,SBD,M
Boys,75,8,Brent Gisler,Karnes City,72.48,172.37,108.86,176.9,458.13,Single-ply,SBD,M
Boys,75,9,Isiah Dennis,Pettus,70.67,163.29,102.06,190.51,455.86,Single-ply,SBD,M
Boys,75,10,Marcus Almeida,Stockdale,70.76,170.1,106.59,172.37,449.06,Single-ply,SBD,M
Boys,75,11,Gilibaldo Garcia,San Antonio Brooks Academy,73.21,165.56,90.72,192.78,449.06,Single-ply,SBD,M
Boys,75,12,Robert Schmidt,Karnes City,73.66,165.56,102.06,181.44,449.06,Single-ply,SBD,M
Boys,75,13,Kaden Crouch,Stockdale,73.3,167.83,106.59,172.37,446.79,Single-ply,SBD,M
Boys,75,14,John Hodge,Pettus,73.21,158.76,88.45,179.17,426.38,Single-ply,SBD,M
Boys,75,15,Tyler Talley,Stockdale,72.03,136.08,106.59,161.03,403.7,Single-ply,SBD,M
Boys,75,16,Lee Remmers,Three Rivers,74.66,151.95,83.91,156.49,392.36,Single-ply,SBD,M
Boys,75,17,John Carrillo,Three Rivers,71.12,145.15,77.11,154.22,376.48,Single-ply,SBD,M
Boys,75,18,Zach Fuchs,Cuero,68.22,142.88,83.91,145.15,371.95,Single-ply,SBD,M
Boys,75,19,Isaiah Enriquez,Karnes City,72.48,138.35,65.77,163.29,367.41,Single-ply,SBD,M
Boys,75,20,Colten Salinas,Pettus,71.03,136.08,68.04,158.76,362.87,Single-ply,SBD,M
Boys,75,21,Cameron Mataff,Yoakum,74.84,142.88,61.23,124.74,328.85,Single-ply,SBD,M
Boys,75,22,Darren Rios,Runge,69.04,102.06,61.23,102.06,265.35,Single-ply,SBD,M
Boys,75,23,Noah Rodriguez,Kenedy,71.12,174.63,,,174.63,Single-ply,S,M
Boys,75,24,Dillan Wakefield,Van Vleck,71.4,156.49,,,156.49,Single-ply,S,M
Boys,75,25,Trey Ingram,Goliad,73.12,142.88,,,142.88,Single-ply,S,M
Boys,75,26,Sergio Torres,Gonzales,73.66,124.74,,,124.74,Single-ply,S,M
Boys,75,27,James Martinez,Gonzales,71.21,120.2,,,120.2,Single-ply,S,M
Boys,75,DQ,Adrian Rojas,Bloomington,71.03,,,,,Single-ply,SBD,M
Boys,82.5,1,Anthony McGuill,Refugio,79.83,226.8,131.54,242.67,601.01,Single-ply,SBD,M
Boys,82.5,2,Andres Moncada,Karnes City,81.1,206.38,117.93,217.72,542.04,Single-ply,SBD,M
Boys,82.5,3,Shaun Bryant,Victoria East,82.1,199.58,115.67,199.58,514.83,Single-ply,SBD,M
Boys,82.5,4,Peyton Sanchez,Port Lavaca Calhoun,82.1,183.7,127.01,188.24,498.95,Single-ply,SBD,M
Boys,82.5,5,Tyler Perez,Goliad,80.29,158.76,113.4,183.7,455.86,Single-ply,SBD,M
Boys,82.5,6,Dawson Bednorz,Three Rivers,81.1,183.7,102.06,165.56,451.32,Single-ply,SBD,M
Boys,82.5,7,Kyler McBlane,Stockdale,81.19,181.44,92.99,174.63,449.06,Single-ply,SBD,M
Boys,82.5,8,Tevin Moreno,Odem,77.2,142.88,83.91,154.22,381.02,Single-ply,SBD,M
Boys,82.5,9,Daniel Guillen,Victoria East,80.56,183.7,,,183.7,Single-ply,S,M
Boys,82.5,10,Johnny Martinez,Kenedy,77.2,133.81,,,133.81,Single-ply,S,M
Boys,82.5,DQ,Blake Galvan,Odem,77.11,,,,,Single-ply,SBD,M
Boys,82.5,DQ,Willie Gonalez,Odem,76.57,,,,,Single-ply,SBD,M
Boys,82.5,DQ,Alfanso Hernandez,Goliad,78.56,,,,,Single-ply,SBD,M
Boys,82.5,DQ,Nick Martinez,Van Vleck,81.37,,,,,Single-ply,SBD,M
Boys,90,1,Nathon Cantu,San Antonio Brooks Academy,87.63,242.67,154.22,210.92,607.81,Single-ply,SBD,M
Boys,90,2,Matt Stringham,Port Lavaca Calhoun,86.91,206.38,127.01,176.9,510.29,Single-ply,SBD,M
Boys,90,3,Ilias Rodriguez,Three Rivers,86.27,199.58,102.06,197.31,498.95,Single-ply,SBD,M
Boys,90,4,Sylias Montgomery,Port Lavaca Calhoun,89.18,199.58,97.52,201.85,498.95,Single-ply,SBD,M
Boys,90,5,Colten Irwin,Stockdale,87,156.49,92.99,165.56,415.04,Single-ply,SBD,M
Boys,90,6,Shawn Allen,Poth,89.45,154.22,106.59,142.88,403.7,Single-ply,SBD,M
Boys,90,7,Christian Montemayor,Van Vleck,86.18,142.88,102.06,154.22,399.16,Single-ply,SBD,M
Boys,90,8,Rene Osornia,Port Lavaca Calhoun,89.81,238.14,136.08,,374.21,Single-ply,SB,M
Boys,90,9,Manny Salazar,Refugio,83.82,102.06,83.91,183.7,369.68,Single-ply,SBD,M
Boys,90,10,Juan Inclan,Runge,88.18,99.79,63.5,127.01,290.3,Single-ply,SBD,M
Boys,90,11,Damian Cerda,Runge,88.27,115.67,58.97,106.59,281.23,Single-ply,SBD,M
Boys,90,DQ,Jose Gonzalez #3,Runge,82.64,,,,,Single-ply,SBD,M
Boys,90,DQ,Rashad Tolbert,Van Vleck,89.45,,,,,Single-ply,SBD,M
Boys,100,1,Zevaughn Shelton,Victoria West,94.8,235.87,131.54,226.8,594.21,Single-ply,SBD,M
Boys,100,2,John Perez,Port Lavaca Calhoun,97.07,226.8,124.74,185.97,537.51,Single-ply,SBD,M
Boys,100,3,Eric Luck,Victoria East,91.81,199.58,149.69,183.7,532.97,Single-ply,SBD,M
Boys,100,4,Leo Colom,Port Lavaca Calhoun,96.98,197.31,120.2,215.46,532.97,Single-ply,SBD,M
Boys,100,5,Trent Schauer,Gonzales,94.26,195.04,127.01,204.12,526.17,Single-ply,SBD,M
Boys,100,6,Toby Trevino,Goliad,96.43,195.04,120.2,185.97,501.22,Single-ply,SBD,M
Boys,100,7,Angel Hernandez,Goliad,93.98,188.24,81.65,208.65,478.54,Single-ply,SBD,M
Boys,100,8,Saige Peterson,Victoria East,94.71,165.56,97.52,170.1,433.18,Single-ply,SBD,M
Boys,100,9,David Garza,Cuero,99.06,167.83,90.72,158.76,417.3,Single-ply,SBD,M
Boys,100,10,Jacob Hernandez,Stockdale,99.34,156.49,97.52,161.03,415.04,Single-ply,SBD,M
Boys,100,11,Ryan Bowman,Karnes City,97.52,161.03,97.52,151.95,410.5,Single-ply,SBD,M
Boys,100,12,Joseph Benavides,Pettus,97.07,185.97,131.54,,317.51,Single-ply,SB,M
Boys,100,13,Patrick Zaiontz,San Antonio Brooks Academy,97.16,199.58,,,199.58,Single-ply,S,M
Boys,100,14,Kase Clark,Karnes City,98.16,192.78,,,192.78,Single-ply,S,M
Boys,100,15,Lane Elizondo,Van Vleck,94.8,106.59,,,106.59,Single-ply,S,M
Boys,110,1,Eddie Garcia,Port Lavaca Calhoun,105.96,317.51,156.49,249.48,723.48,Single-ply,SBD,M
Boys,110,2,Tristan Caballero,Yoakum,107.68,249.48,158.76,210.92,619.15,Single-ply,SBD,M
Boys,110,3,Jeremiah Cantu,Gonzales,109.32,226.8,129.27,208.65,564.72,Single-ply,SBD,M
Boys,110,4,Estevan Esqueda,Odem,109.32,208.65,149.69,195.04,553.38,Single-ply,SBD,M
Boys,110,5,Rudy Vasquez,Kenedy,108.5,208.65,124.74,213.19,546.58,Single-ply,SBD,M
Boys,110,6,Chase Weaver,Victoria West,107.5,204.12,127.01,183.7,514.83,Single-ply,SBD,M
Boys,110,7,Jalen Cano,Stockdale,107.59,199.58,113.4,181.44,494.42,Single-ply,SBD,M
Boys,110,8,Michael Rios,Runge,100.88,188.24,111.13,185.97,485.34,Single-ply,SBD,M
Boys,110,9,Nick Searcy,Cuero,102.15,183.7,108.86,172.37,464.93,Single-ply,SBD,M
Boys,110,10,Zach Guzman,Karnes City,106.96,172.37,92.99,154.22,419.57,Single-ply,SBD,M
Boys,110,11,Nick Duve,Yorktown,108.86,124.74,83.91,124.74,333.39,Single-ply,SBD,M
Boys,125,1,Dante Medina,Nixon Smiley,116.94,254.01,165.56,190.51,610.08,Single-ply,SBD,M
Boys,125,2,Drew Hathaway,Victoria West,124.28,235.87,147.42,210.92,594.21,Single-ply,SBD,M
Boys,125,3,Luis Sanchez,Three Rivers,122.92,249.48,131.54,208.65,589.67,Single-ply,SBD,M
Boys,125,4,Trace Mascorro,Refugio,112.13,215.46,149.69,213.19,578.33,Single-ply,SBD,M
Boys,125,5,Josh Leal,Karnes City,123.38,213.19,149.69,215.46,578.33,Single-ply,SBD,M
Boys,125,6,Justin Broll,Yorktown,119.93,204.12,129.27,183.7,517.1,Single-ply,SBD,M
Boys,125,7,Fabian Vargas,Goliad,112.85,219.99,70.31,174.63,464.93,Single-ply,SBD,M
Boys,125,8,Bradon Winters,Runge,124.47,165.56,99.79,183.7,449.06,Single-ply,SBD,M
Boys,125,9,Joey Dominguez,Yoakum,118.3,167.83,106.59,158.76,433.18,Single-ply,SBD,M
Boys,125,10,Coy Boehm,Yorktown,112.94,179.17,83.91,165.56,428.64,Single-ply,SBD,M
Boys,125,11,Nick Gomez,Yoakum,113.31,158.76,90.72,,249.48,Single-ply,SB,M
Boys,125,12,Malakye Adams,Victoria East,116.57,226.8,,,226.8,Single-ply,S,M
Boys,125,DQ,Ezra Naranjo,Odem,112.76,,,,,Single-ply,SBD,M
Boys,125+,1,Michael Diaz,Stockdale,134.26,258.55,165.56,233.6,657.71,Single-ply,SBD,M
Boys,125+,2,Martin Hidrogo,Stockdale,129.46,254.01,147.42,240.4,641.83,Single-ply,SBD,M
Boys,125+,3,Joel Wamget,Van Vleck,137.71,265.35,149.69,226.8,641.83,Single-ply,SBD,M
Boys,125+,4,Haden Hass,Cuero,127.28,229.06,102.06,183.7,514.83,Single-ply,SBD,M
Boys,125+,5,Mikey Chapa,Karnes City,142.97,199.58,115.67,192.78,508.02,Single-ply,SBD,M
Boys,125+,6,Gonzalo Flores,Victoria East,144.33,170.1,120.2,165.56,455.86,Single-ply,SBD,M
Boys,125+,7,Hunter Hackney,Runge,131,147.42,104.33,195.04,446.79,Single-ply,SBD,M
Boys,125+,8,Kyle Zaiontz,Poth,132.45,170.1,95.25,156.49,421.84,Single-ply,SBD,M
Boys,125+,9,Zach Shults,Yorktown,127.28,113.4,65.77,117.93,297.1,Single-ply,SBD,M
Boys,125+,10,James Cookrey,Kenedy,132,274.42,,,274.42,Single-ply,S,M
Boys,125+,11,Blake Weise,Goliad,133.9,265.35,,,265.35,Single-ply,S,M
Boys,125+,DQ,Emilio Vargas,Goliad,130.91,,,,,Single-ply,SBD,M
