Place,Name,BirthYear,Sex,BodyweightKg,Squat1Kg,Squat2Kg,Squat3Kg,Best3SquatKg,Bench1Kg,Bench2Kg,Bench3Kg,Best3BenchKg,Deadlift1Kg,Deadlift2Kg,Deadlift3Kg,Best3DeadliftKg,TotalKg,Equipment,WeightClassKg,Event,Division
1,Izzy Brown,1997,F,57,85,92.5,97.5,97.5,52.5,-55,55,55,95,105,110,110,262.5,Raw,57,SBD,Open
1,Anna Montgomery,1982,F,57.95,112.5,-117.5,-117.5,112.5,55,60,-62.5,60,152.5,160,165,165,337.5,Raw,63,SBD,Open
2,Katelyn Guirguis,1995,F,62.7,100,105,110,110,45,50,-52.5,50,125,130,140,140,300,Raw,63,SBD,Open
3,Jenelle Schultz,1977,F,59.5,85,90,95,95,60,-65,65,65,125,130,135,135,295,Raw,63,SBD,Open
4,Kelly Pierce,1988,F,60.95,82.5,87.5,-90,87.5,57.5,-60,-60,57.5,130,135,140,140,285,Raw,63,SBD,Open
1,Megan Reed,1993,F,71,150,157.5,160,160,87.5,-92.5,-92.5,87.5,162.5,175,180,180,427.5,Raw,72,SBD,Open
2,Linda Devonshire,1972,F,69.65,115,120,122.5,122.5,60,-65,-65,60,150,157.5,-160,157.5,340,Raw,72,SBD,Open
3,Meaghan Trovato,1979,F,67.85,120,-125,-125,120,62.5,65,67.5,67.5,140,142.5,145,145,332.5,Raw,72,SBD,Open
4,Peta Day,1959,F,71.7,102.5,105,107.5,107.5,60,-62.5,62.5,62.5,130,137.5,141.5,141.5,311.5,Raw,72,SBD,Open
5,Elisa Brockley,1991,F,65.2,97.5,105,-112.5,105,55,60,-62.5,60,100,110,122.5,122.5,287.5,Raw,72,SBD,Open
6,Holly Seglah,1997,F,67.75,90,97.5,-102.5,97.5,52.5,-55,55,55,115,125,132.5,132.5,285,Raw,72,SBD,Open
1,Amy O'Sullivan,1990,F,82.4,105,112.5,-120,112.5,60,65,-67.5,65,117.5,125,-135,125,302.5,Raw,84,SBD,Open
1,Melanie Lihou,1974,F,103.85,125,132.5,135,135,60,65,-67.5,65,132.5,140,150,150,350,Raw,84+,SBD,Open
2,Jess Riddell,1982,F,92.45,90,97.5,105,105,40,42.5,-47.5,42.5,120,130,135,135,282.5,Raw,84+,SBD,Open
1,Laetitia Grice,1990,F,77,,,,,90,-95,-95,90,,,,,90,Raw,84,B,Open
1,Jake Bryant,1994,M,65.95,175,180,187.5,187.5,120,125,130,130,185,200,207.5,207.5,525,Raw,66,SBD,Open
1,John Paul Cauchi,1992,M,73.7,217.5,235,-247.5,235,117.5,125,132.5,132.5,257.5,280,286,286,653.5,Raw,74,SBD,Open
2,Steven Day,1992,M,73.4,220,237.5,245.5,245.5,130,140,145,145,235,255,262.5,262.5,653,Raw,74,SBD,Open
3,Joey Zinghini,1988,M,73.6,205,215,222.5,222.5,135,140,142.5,142.5,252.5,267.5,-283,267.5,632.5,Raw,74,SBD,Open
4,Jeremy Wolfe,1976,M,72.1,125,135,147.5,147.5,100,115,-122.5,115,140,160,170,170,432.5,Raw,74,SBD,Open
5,Rod Wecker,1957,M,72.85,97.5,102.5,107.5,107.5,75,-80,-80,75,130,137.5,142.5,142.5,325,Raw,74,SBD,Open
1,Scott Meiklejohn,1991,M,79.9,-207.5,207.5,220,220,137.5,147.5,152.5,152.5,230,247.5,255,255,627.5,Raw,83,SBD,Open
2,Tyson Schmidt,1993,M,82.3,207.5,220,225,225,157.5,162.5,-165,162.5,225,-235,-235,225,612.5,Raw,83,SBD,Open
3,Lachlan Green,1990,M,83,185,195,-205,195,122.5,127.5,-130,127.5,205,215,,215,537.5,Raw,83,SBD,Open
4,Cooper Newitt,2002,M,81,160,170,177.5,177.5,132.5,140,145,145,187.5,197.5,205,205,527.5,Raw,83,SBD,Open
5,Vaughn Van Doren,1996,M,81.45,152.5,160,165,165,-105,-110,110,110,180,190,200,200,475,Raw,83,SBD,Open
1,Blake Mayocchi,1998,M,90.6,197.5,207.5,215,215,132.5,140,145,145,227.5,235,-242.5,235,595,Raw,93,SBD,Open
2,Allan Angliss,1995,M,91.9,180,195,200,200,125,130,135,135,195,210,222.5,222.5,557.5,Raw,93,SBD,Open
3,Nickolas Richter,1998,M,90.35,165,177.5,190,190,87.5,95,-100,95,185,200,215,215,500,Raw,93,SBD,Open
4,Andrew Jolley,1966,M,88.5,105,-110,110,110,70,72.5,-75,72.5,160,170,175,175,357.5,Raw,93,SBD,Open
1,Kaine Cullen,1987,M,102.9,232.5,245,250,250,182.5,192.5,-195,192.5,280,292.5,-302.5,292.5,735,Raw,105,SBD,Open
2,Abe Walton,1991,M,101.55,205,220,230,230,165,177.5,185,185,255,272.5,285,285,700,Raw,105,SBD,Open
3,Kahn Stephenson,1995,M,104.35,-195,195,205,205,155,-162.5,-162.5,155,250,-267.5,270,270,630,Raw,105,SBD,Open
4,Sam Thorne,1996,M,100.55,195,210,-222.5,210,125,132.5,-137.5,132.5,205,217.5,230,230,572.5,Raw,105,SBD,Open
5,Bruce Court,1958,M,96,105,115,120,120,67.5,-72.5,-72.5,67.5,125,132.5,140,140,327.5,Raw,105,SBD,Open
1,Mick O'Mara,1981,M,117.7,220,-235,235,235,132.5,-140,-140,132.5,255,275,282.5,282.5,650,Raw,120,SBD,Open
1,Tyron Senituli,1993,M,164.05,-320,342.5,358,358,225,241,-250,241,325,-345,345,345,944,Raw,120+,SBD,Open
2,Joshua Patacca,1996,M,139.25,265,280,-290,280,180,190,200,200,280,305,-325,305,785,Raw,120+,SBD,Open
3,Brock Cook,1985,M,181.4,270,287.5,300,300,167.5,-177.5,177.5,177.5,225,245,-255,245,722.5,Raw,120+,SBD,Open
4,Allan Styles,1976,M,139.95,210,220,230,230,140,160,-165,160,240,260,270,270,660,Raw,120+,SBD,Open
DQ,Kenny Urquhart,,M,104,235,242.5,-245,242.5,-140,-145,-145,,-230,,,,,Raw,105,SBD,Open
