Name,Sex,Age,Division,Equipment,BodyweightKg,WeightClassKg,Squat1Kg,Squat2Kg,Squat3Kg,Best3SquatKg,Bench1Kg,Bench2Kg,Bench3Kg,Best3BenchKg,Deadlift1Kg,Deadlift2Kg,Deadlift3Kg,Best3DeadliftKg,TotalKg,Event,Place
Aaron Moody,M,29,M_O_C_BPU,Wraps,108,110,250,265,-275,265,140,155,165,165,260,272.5,-282.5,272.5,702.5,SBD,1
Adrian Bradbury,M,36,M_O_C_ABPU,Wraps,123.95,125,175,185,200,200,110,125,-135,125,220,240,250,250,575,SBD,2
Agata Mychlinska,F,29,F_O_R_ABPU,Raw,71.1,75,85,92.5,100,100,35,42.5,-47.5,42.5,115,125,-135,125,267.5,SBD,1
Alex Foley,M,17,M_T2_C_ABPU,Wraps,74.8,75,137.5,145,-152.5,145,77.5,82.5,90,90,155,162.5,175,175,410,SBD,1
Alister Little,M,32,M_O_C_ABPU,Wraps,66.2,67.5,140,155,165,165,100,105,-110,105,180,-205,,180,450,SBD,2
Amy Brownridge,F,26,F_O_R_ABPU,Raw,67.5,67.5,,,,,,,,,,,,,,SBD,DQ
Anjanita Baker,F,43,F_M1_C_ABPU,Wraps,72.1,75,125,132.5,137.5,137.5,70,75,80,80,145,155,-165,155,372.5,SBD,2
Anna Fyodorova,F,25,F_O_C_BPU,Wraps,59.8,60,95,-110,120,120,55,62.5,67.5,67.5,100,120,-125,120,307.5,SBD,1
Anthony Read,M,31,M_O_C_BPU,Raw,138.4,140,,,,,150,160,170,170,,,,,170,B,1
Boyd Francis,M,27,M_O_C_ABPU,Wraps,95.8,100,160,180,200,200,115,125,135,135,230,240,255,255,590,SBD,1
Callum Pickering,M,26,M_O_R_ABPU,Raw,85,90,140,155,170,170,100,110,117.5,117.5,180,200,-210,200,487.5,SBD,2
Cheska Webb,F,30,F_O_R_ABPU,Raw,65.2,67.5,-70,75,90,90,55,60,-67.5,60,120,-130,130,130,280,SBD,1
Cleary Clifford,F,42,F_M1_C_ABPU,Wraps,81.2,82.5,-95,95,-105,95,47.5,-50,-50,47.5,120,125,127.5,127.5,270,SBD,1
Conor Neilly,M,26,M_O_C_BPU,Wraps,98.6,100,205,220,242.5,242.5,130,142.5,152.5,152.5,250,275,-292.5,275,670,SBD,1
Daniel Pope,M,28,M_O_R_BPU,Raw,114.35,125,-250,265,-280,265,170,-180,180,180,250,-275,-280,250,695,SBD,1
Danny Hylands,M,31,M_O_C_BPU,Wraps,97.95,100,200,220,-240,220,145,155,160,160,245,262.5,-270,262.5,642.5,SBD,2
Danny O'Brien,M,26,M_O_C_ABPU,Wraps,87.55,90,160,170,180,180,140,-145,-145,140,215,220,230,230,550,SBD,1
Darren Walker,M,50,M_M3_C_BPU,Wraps,99.7,100,200,212.5,220,220,150,157.5,162.5,162.5,235,250,260,260,642.5,SBD,1
Delroy McQueen,M,42,M_M1_C_BPU,Wraps,109.6,110,305,320,332.5,332.5,150,160,170,170,300,315,330,330,832.5,SBD,1
Dylan Cilliers,M,19,M_T3_C_ABPU,Wraps,73.5,75,-180,185,-192.5,185,105,110,115,115,220,230,240,240,540,SBD,1
Eimantas Sarpalis,M,25,M_O_R_BPU,Raw,107.45,110,180,205,212.5,212.5,130,155,160,160,220,240,260,260,632.5,SBD,1
Gioia Rossini,F,20,F_J_R_ABPU,Raw,47.3,48,30,40,45,45,35,40,45,45,85,95,100,100,190,SBD,1
Hollie Pearson,F,29,F_O_C_ABPU,Wraps,57.6,60,90,97.5,102.5,102.5,47.5,50,-52.5,50,110,-115,115,115,267.5,SBD,1
Hollie Tucker,F,29,F_O_C_BPU,Wraps,74.7,75,127.5,135,-140,135,55,60,-62.5,60,130,140,150,150,345,SBD,1
Ian White,M,32,M_O_C_ABPU,Wraps,107.25,110,-170,170,-180,170,75,-82.5,-82.5,75,180,-190,190,190,435,SBD,2
James Parker,M,24,M_O_R_ABPU,Raw,100,100,,,,,,,,,,,,,,SBD,DQ
Jan Puhlovsky,M,40,M_M1_C_BPU,Wraps,124.6,125,240,255,262.5,262.5,185,200,-207.5,200,225,235,245,245,707.5,SBD,1
Joanna Halliday,F,43,F_M1_C_ABPU,Wraps,71.2,75,135,140,145,145,82.5,85,87.5,87.5,150,160,-165,160,392.5,SBD,1
John East,M,32,M_O_C_ABPU,Wraps,65,67.5,150,160,175,175,107.5,112.5,117.5,117.5,180,190,195,195,487.5,SBD,1
John Paul Fanning,M,23,M_J_C_ABPU,Wraps,78.4,82.5,140,150,160,160,105,-112.5,115,115,190,205,215,215,490,SBD,2
John Penn,M,40,M_M1_C_ABPU,Wraps,91.95,100,155,170,180,180,100,110,-117.5,110,210,230,-250,230,520,SBD,1
Jordan Gretton-Doidge,M,29,M_O_R_ABPU,Raw,89.6,90,150,160,-170,160,130,140,145,145,210,225,235,235,540,SBD,1
Kane Francis,M,28,M_O_C_ABPU,Wraps,130,140,265,280,290,290,145,152.5,160,160,275,290,300,300,750,SBD,1
Kelly Brown #1,F,28,F_O_C_BPU,Wraps,62.9,67.5,165,175,185,185,80,85,90,90,170,180,190,190,465,SBD,1
Kevin Smith,M,55,M_M4_C_BPU,Wraps,87.05,90,140,150,155,155,-110,110,117.5,117.5,187.5,197.5,205,205,477.5,SBD,1
Ky Brown,M,27,M_O_R_BPU,Raw,100,100,,,,,,,,,,,,,,SBD,DQ
Lee Mungovan,M,38,M_O_C_ABPU,Wraps,122.9,125,180,195,207.5,207.5,150,160,165,165,195,210,222.5,222.5,595,SBD,1
Linda Hicks,F,56,F_M4_S_ABPU,Single-ply,67.5,67.5,110,120,-127.5,120,-87.5,87.5,-92.5,87.5,-140,140,145,145,352.5,SBD,1
Lucy Batchelor,F,37,F_O_C_ABPU,Wraps,65.7,67.5,65,-70,70,70,40,45,-47.5,45,80,85,90,90,205,SBD,2
Luke McDonald,M,38,M_O_C_BPU,Wraps,82.5,82.5,,,,,,,,,,,,,,SBD,DQ
Luke Nash,M,31,M_O_R_BPU,Raw,88.25,90,170,180,190,190,130,140,145,145,220,230,-235,230,565,SBD,1
Luke Tolman,M,19,M_T3_C_ABPU,Wraps,96.3,100,240,257.5,270,270,200,-212.5,212.5,212.5,-257.5,272.5,290,290,772.5,SBD,1
Mark Lawford,M,44,M_M1_C_ABPU,Wraps,126.3,140,215,230,-240,230,-185,185,-192.5,185,235,245,,245,660,SBD,1
Mark Lockstone,M,50,M_M3_C_ABPU,Wraps,76.3,82.5,-110,110,-120,110,70,75,-80,75,140,155,162.5,162.5,347.5,SBD,1
Matthew Bevan,M,35,M_O_C_ABPU,Wraps,114.75,125,160,-180,-180,160,115,120,-125,120,200,215,-232.5,215,495,SBD,3
Max Reynolds,M,20,M_J_R_ABPU,Raw,80.9,82.5,130,140,155,155,105,115,125,125,160,175,190,190,470,SBD,1
Mitchal Flowers,M,27,M_O_C_ABPU,Wraps,141,140+,,,,,,,,,,,,,,SBD,DQ
Mike Overkamp,M,31,M_O_C_BPU,Wraps,121.05,125,290,310,-330,310,185,195,205,205,305,340,-350,340,855,SBD,1
Nicola Swain,F,40,F_M1_C_ABPU,Wraps,60,60,100,110,112.5,112.5,65,-67.5,-67.5,65,125,130,140,140,317.5,SBD,1
Piotr Sulecki,M,29,M_O_R_BPU,Raw,86.15,90,165,-175,180,180,120,130,-135,130,195,210,-220,210,520,SBD,2
Rebecca Brown,F,37,F_O_R_ABPU,Raw,51.9,52,50,60,-70,60,35,40,-42.5,40,85,90,95,95,195,SBD,1
Richard Baker,M,48,M_M2_C_ABPU,Wraps,108.4,110,180,190,205,205,130,-140,140,140,200,227.5,237.5,237.5,582.5,SBD,1
Richard Cordner,M,39,M_O_R_ABPU,Raw,105.6,110,,,,,,,,,260,275,-285,275,275,D,1
Rob Bragg,M,27,M_O_C_BPU,Wraps,82.4,82.5,180,200,,200,-125,125,,125,215,,,215,540,SBD,1
Sam Hards,M,34,M_O_C_ABPU,Wraps,96,100,-175,175,185,185,145,150,-155,150,205,220,225,225,560,SBD,2
Scott Neary,M,28,M_O_C_ABPU,Wraps,106.1,110,220,-255,255,255,130,150,-162.5,150,230,250,-252.5,250,655,SBD,1
Sean Brown,M,21,M_J_C_ABPU,Wraps,73.6,75,170,180,-185,180,110,-115,-115,110,180,-195,-195,180,470,SBD,1
Sheryl Morris,F,30,F_O_C_ABPU,Wraps,66.1,67.5,70,75,85,85,35,45,-50,45,100,115,125,125,255,SBD,1
Sophie Fuller,F,22,F_J_C_ABPU,Wraps,64.5,67.5,85,95,105,105,45,52.5,-60,52.5,115,125,135,135,292.5,SBD,1
Stephen Reece,M,23,M_J_R_ABPU,Raw,100,100,,,,,,,,,,,,,,SBD,DQ
Tom Hawkins,M,21,M_J_R_ABPU,Raw,71.7,75,70,80,85,85,65,75,-82.5,75,80,90,100,100,260,SBD,1
Victoria Brodie,F,28,F_O_C_ABPU,Wraps,91,90+,,,,,,,,,,,,,,SBD,DQ
William Smith,M,23,M_J_C_ABPU,Wraps,80.7,82.5,185,200,-210,200,107.5,115,-120,115,220,235,-250,235,550,SBD,1
