Place,Name,Sex,Event,Division,WeightClassKg,Equipment,BirthYear,Team,State,BodyweightKg,Squat1Kg,Squat2Kg,Squat3Kg,Best3SquatKg,Bench1Kg,Bench2Kg,Bench3Kg,Best3BenchKg,Deadlift1Kg,Deadlift2Kg,Deadlift3Kg,Best3DeadliftKg,TotalKg
1,Holly Necaise,F,SBD,G,72,Single-ply,2000,,LA,67.40,-150,-150,150,150.0,77.5,85,-87.5,85.0,122.5,137.5,142.5,142.5,377.5
1,Anaya Davids,F,SBD,HSJV,47,Single-ply,2003,Neenah High School,WI,46.10,72.5,80,-87.5,80.0,30,32.5,35,35.0,72.5,80,87.5,87.5,202.5
1,Ally Spang,F,SBD,HSJV,52,Single-ply,2002,,WI,51.60,95,100,105,105.0,47.5,52.5,57.5,57.5,112.5,117.5,125,125.0,287.5
2,Katherine Bilac,F,SBD,HSJV,52,Single-ply,2002,,LA,51.90,-102.5,102.5,-107.5,102.5,-47.5,52.5,-57.5,52.5,102.5,115,120,120.0,275
3,Natalie Weckesser,F,SBD,HSJV,52,Single-ply,2001,Necedah High School,WI,51.80,102.5,105,110,110.0,37.5,40,42.5,42.5,105,110,-115,110.0,262.5
4,Alyssa Morehouse,F,SBD,HSJV,52,Single-ply,2002,Woodward Academy,IA,51.40,90,100,105,105.0,40,45,50,50.0,87.5,102.5,-115,102.5,257.5
1,Yalena Raya-Mora,F,SBD,HSJV,57,Single-ply,2003,,WI,54.40,100,107.5,115,115.0,52.5,57.5,-62.5,57.5,100,107.5,115,115.0,287.5
2,Riley Ganther,F,SBD,HSJV,57,Single-ply,2001,Necedah High School,WI,56.50,105,112.5,-120,112.5,37.5,42.5,45,45.0,112.5,120,-132.5,120.0,277.5
3,Brooke Appe,F,SBD,HSJV,57,Single-ply,2001,,LA,54.60,97.5,105,-110,105.0,42.5,45,47.5,47.5,97.5,107.5,-117.5,107.5,260
4,Naomi Harper,F,SBD,HSJV,57,Single-ply,2002,Hershey High School,PA,55.20,85,-112.5,-112.5,85.0,45,-50,-50,45.0,97.5,107.5,112.5,112.5,242.5
5,Maddison Battani,F,SBD,HSJV,57,Single-ply,2002,Woodward Academy,IA,52.90,85,95,-110,95.0,42.5,-47.5,-47.5,42.5,87.5,97.5,-105,97.5,235
1,Machaela Exner,F,SBD,HSJV,63,Single-ply,2001,Necedah High School,WI,61.40,145,155,165,165.0,70,75,82.5,82.5,142.5,152.5,162.5,162.5,410
2,Kayelyn Hadley,F,SBD,HSJV,63,Single-ply,2002,Necedah High School,WI,61.70,115,122.5,130,130.0,47.5,52.5,-57.5,52.5,105,115,122.5,122.5,305
3,Jasmine Popp,F,SBD,HSJV,63,Single-ply,2002,Necedah High School,WI,62.30,125,130,137.5,137.5,50,55,-60,55.0,107.5,112.5,-117.5,112.5,305
4,Haleigh Calaway,F,SBD,HSJV,63,Single-ply,2002,Neenah High School,WI,59.30,-102.5,107.5,115,115.0,42.5,47.5,-52.5,47.5,105,112.5,117.5,117.5,280
5,Melanie Johnson,F,SBD,HSJV,63,Single-ply,2001,Neenah High School,WI,60.50,95,102.5,105,105.0,42.5,-47.5,-47.5,42.5,105,-112.5,-115,105.0,252.5
1,Anna Renner,F,SBD,HSJV,72,Single-ply,2003,Necedah High School,WI,65.20,132.5,140,147.5,147.5,-47.5,47.5,52.5,52.5,120,127.5,132.5,132.5,332.5
2,Amanda Nickolai,F,SBD,HSJV,72,Single-ply,2002,Neenah High School,WI,69.60,115,-127.5,-135,115.0,50,57.5,62.5,62.5,120,130,132.5,132.5,310
3,Hailey De Guire,F,SBD,HSJV,72,Single-ply,2002,Necedah High School,WI,67.10,125,-130,132.5,132.5,52.5,57.5,60,60.0,107.5,112.5,115,115.0,307.5
4,Makaiah Baumgart,F,SBD,HSJV,72,Single-ply,2003,Woodward Academy,IA,68.00,-110,110,125,125.0,52.5,60,-65,60.0,105,117.5,-125,117.5,302.5
5,Cheyenne Polack,F,SBD,HSJV,72,Single-ply,2002,Necedah High School,WI,65.20,105,110,115,115.0,47.5,52.5,55,55.0,110,117.5,122.5,122.5,292.5
6,Alissa Saunders,F,SBD,HSJV,72,Single-ply,2003,Necedah High School,WI,71.80,112.5,-117.5,-117.5,112.5,50,55,-60,55.0,112.5,120,-127.5,120.0,287.5
7,Mikayla Hovorka,F,SBD,HSJV,72,Single-ply,2002,,WI,69.60,107.5,-115,-120,107.5,55,57.5,-60,57.5,77.5,87.5,97.5,97.5,262.5
1,Madelynn Mcfarland,F,SBD,HSJV,84,Single-ply,2001,,WI,81.90,157.5,-165,170,170.0,65,-70,-70,65.0,137.5,147.5,155,155.0,390
2,Makenzie Exner,F,SBD,HSJV,84,Single-ply,2002,Necedah High School,WI,82.90,-142.5,-142.5,142.5,142.5,47.5,50,-55,50.0,142.5,150,-157.5,150.0,342.5
3,Delilah Burgos,F,SBD,HSJV,84,Single-ply,2002,Cudahy High School,WI,78.10,102.5,112.5,-127.5,112.5,50,-55,-55,50.0,125,-130,-130,125.0,287.5
4,Amariasia Diggs,F,SBD,HSJV,84,Single-ply,2004,Woodward Academy,IA,80.70,92.5,102.5,112.5,112.5,55,-65,-65,55.0,95,110,-122.5,110.0,277.5
5,Mia Castagnetta,F,SBD,HSJV,84,Single-ply,2000,,LA,74.80,95,-100,-100,95.0,45,-52.5,52.5,52.5,95,100,105,105.0,252.5
1,Victoria Gorski,F,SBD,HSJV,84+,Single-ply,2001,Cudahy High School,WI,87.20,137.5,145,150,150.0,-62.5,62.5,67.5,67.5,142.5,150,162.5,162.5,380
2,Miah Slaton,F,SBD,HSJV,84+,Single-ply,2003,Necedah High School,WI,123.60,160,170,182.5,182.5,60,70,-72.5,70.0,105,112.5,127.5,127.5,380
3,Abby Fayard,F,SBD,HSJV,84+,Single-ply,2003,,LA,94.80,110,120,135,135.0,60,67.5,80,80.0,112.5,122.5,135,135.0,350
1,Grace Albarez,F,SBD,HSV,47,Single-ply,1999,Covington High school,LA,44.70,120,130,132.5,132.5,62.5,67.5,72.5,72.5,105,112.5,115,115.0,320
2,Delaney Ortiz,F,SBD,HSV,47,Single-ply,2000,Neenah High School,WI,46.70,107.5,-115,-115,107.5,47.5,52.5,-55,52.5,112.5,-117.5,-117.5,112.5,272.5
3,Kaylee Putman,F,SBD,HSV,47,Single-ply,1999,,LA,46.00,85,-92.5,-92.5,85.0,57.5,-60,60,60.0,102.5,-115,-115,102.5,247.5
4,Noelle Ladwig,F,SBD,HSV,47,Single-ply,2000,Necedah High School,WI,46.20,92.5,100,-107.5,100.0,35,37.5,42.5,42.5,87.5,97.5,105,105.0,247.5
5,Rose Huynh,F,SBD,HSV,47,Single-ply,2000,Abbeville,LA,46.90,80,87.5,92.5,92.5,35,-37.5,-37.5,35.0,77.5,85,90,90.0,217.5
6,Cara Martin-Senn,F,SBD,HSV,47,Single-ply,2000,,WI,46.30,77.5,-82.5,-82.5,77.5,35,-37.5,-37.5,35.0,82.5,87.5,92.5,92.5,205
1,Mikaela Leibfried,F,SBD,HSV,52,Single-ply,1999,,WI,51.50,-147.5,147.5,-160,147.5,-80,80,82.5,82.5,132.5,137.5,142.5,142.5,372.5
2,Quamecca Stafford,F,SBD,HSV,52,Single-ply,2003,,LA,49.70,112.5,122.5,130,130.0,-67.5,-67.5,70,70.0,142.5,155,-172.5,155.0,355
3,Ashley Lee,F,SBD,HSV,52,Single-ply,2001,Cudahy High School,WI,51.90,122.5,-125,-125,122.5,60,65,-67.5,65.0,125,-132.5,-132.5,125.0,312.5
4,Cara Scott,F,SBD,HSV,52,Single-ply,2001,Covington High school,LA,50.80,-112.5,112.5,-120,112.5,52.5,60,-65,60.0,105,115,127.5,127.5,300
5,Destiny LeBlanc,F,SBD,HSV,52,Single-ply,2001,Covington High school,LA,50.30,102.5,112.5,120,120.0,52.5,60,-62.5,60.0,102.5,110,117.5,117.5,297.5
6,Bridget Seghers,F,SBD,HSV,52,Single-ply,2002,Covington High school,LA,51.30,110,120,-125,120.0,55,65,-70,65.0,100,107.5,112.5,112.5,297.5
1,Britney Kopp,F,SBD,HSV,57,Single-ply,2001,Cudahy High School,WI,55.70,140,145,150,150.0,-72.5,-72.5,72.5,72.5,135,140,-145,140.0,362.5
2,Chelsea Baudoin,F,SBD,HSV,57,Single-ply,1999,Abbeville,LA,54.10,115,127.5,135,135.0,72.5,80,-87.5,80.0,117.5,127.5,135,135.0,350
3,Jennifer Salazar,F,SBD,HSV,57,Single-ply,2000,Independence High School,WI,55.10,125,132.5,-140,132.5,-62.5,65,67.5,67.5,125,132.5,137.5,137.5,337.5
4,Madison Catalanotto,F,SBD,HSV,57,Single-ply,2000,Covington High school,LA,56.80,120,125,132.5,132.5,65,75,-77.5,75.0,110,120,127.5,127.5,335
5,Lauren Freeck,F,SBD,HSV,57,Single-ply,2001,Cudahy High School,WI,55.80,107.5,117.5,127.5,127.5,55,57.5,-60,57.5,147.5,-157.5,-157.5,147.5,332.5
6,Taylor Wyngaard,F,SBD,HSV,57,Single-ply,2001,Neenah High School,WI,53.00,125,135,-140,135.0,60,65,70,70.0,112.5,122.5,-130,122.5,327.5
7,Haley Chojnacki,F,SBD,HSV,57,Single-ply,1999,,WI,56.10,120,130,-137.5,130.0,62.5,65,67.5,67.5,115,125,-137.5,125.0,322.5
8,Alexis Laiche,F,SBD,HSV,57,Single-ply,2002,,LA,56.00,112.5,125,130,130.0,52.5,60,-67.5,60.0,117.5,130,-147.5,130.0,320
9,Anh Khau,F,SBD,HSV,57,Single-ply,1999,Abbeville,LA,56.80,-107.5,-107.5,107.5,107.5,62.5,67.5,70,70.0,92.5,-105,-105,92.5,270
1,Courtney Corrente,F,SBD,HSV,63,Single-ply,2000,Neenah High School,WI,62.20,160,-170,175,175.0,62.5,67.5,72.5,72.5,167.5,177.5,-182.5,177.5,425
2,Alyzza Stann,F,SBD,HSV,63,Single-ply,2000,Covington High school,LA,61.10,150,165,-170,165.0,72.5,85,-90,85.0,150,160,-175,160.0,410
3,Abigail Flora,F,SBD,HSV,63,Single-ply,2001,,WI,60.30,137.5,147.5,-155,147.5,65,72.5,75,75.0,132.5,142.5,-157.5,142.5,365
4,Grace Tollar,F,SBD,HSV,63,Single-ply,2000,Neenah High School,WI,62.40,125,135,142.5,142.5,67.5,72.5,80,80.0,142.5,-152.5,-160,142.5,365
5,Makayla Jones,F,SBD,HSV,63,Single-ply,2001,Abbeville,LA,59.60,117.5,130,137.5,137.5,75,80,-82.5,80.0,107.5,117.5,125,125.0,342.5
6,Abigail Momberg,F,SBD,HSV,63,Single-ply,2000,Cudahy High School,WI,62.60,112.5,117.5,-125,117.5,60,65,-70,65.0,137.5,147.5,152.5,152.5,335
7,Jamie Regnier,F,SBD,HSV,63,Single-ply,2001,Neenah High School,WI,61.70,125,132.5,-142.5,132.5,52.5,57.5,62.5,62.5,122.5,132.5,137.5,137.5,332.5
8,Kelly Huerta,F,SBD,HSV,63,Single-ply,1999,Carrizo Springs High School,TX,61.20,-120,120,132.5,132.5,57.5,65,-72.5,65.0,120,130,-147.5,130.0,327.5
9,Mckenna Lewis,F,SBD,HSV,63,Single-ply,1999,Hershey High School,PA,61.80,117.5,-127.5,-127.5,117.5,57.5,-65,65,65.0,112.5,127.5,137.5,137.5,320
1,Shyanne Naquin,F,SBD,HSV,72,Single-ply,2000,,LA,65.20,147.5,160,175,175.0,92.5,105,110,110.0,142.5,155,160,160.0,445
2,Shay Naquin,F,SBD,HSV,72,Single-ply,2003,,LA,67.00,142.5,155,170,170.0,70,80,-85,80.0,142.5,157.5,170,170.0,420
3,Alexandrea Nall,F,SBD,HSV,72,Single-ply,2000,,TX,69.20,-165,165,-172.5,165.0,67.5,75,-77.5,75.0,165,172.5,177.5,177.5,417.5
4,Caitlyn Whipple,F,SBD,HSV,72,Single-ply,2000,,WI,69.70,170,-180,-180,170.0,72.5,-77.5,-77.5,72.5,170,-177.5,-180,170.0,412.5
5,Kennedy Ketzer,F,SBD,HSV,72,Single-ply,2000,,WI,70.80,145,155,165,165.0,82.5,87.5,-92.5,87.5,142.5,150,157.5,157.5,410
6,Abigail Saunders,F,SBD,HSV,72,Single-ply,2000,Necedah High School,WI,71.80,157.5,165,-172.5,165.0,65,72.5,-77.5,72.5,160,170,-175,170.0,407.5
7,Cloe Winters,F,SBD,HSV,72,Single-ply,2000,Necedah High School,WI,71.60,-147.5,147.5,157.5,157.5,55,60,62.5,62.5,150,157.5,-162.5,157.5,377.5
8,Rhonda Peronto,F,SBD,HSV,72,Single-ply,1999,Cudahy High School,WI,70.20,142.5,-150,150,150.0,67.5,72.5,77.5,77.5,137.5,142.5,-155,142.5,370
9,Erin Whipple,F,SBD,HSV,72,Single-ply,2001,,WI,67.10,142.5,-152.5,-152.5,142.5,55,-60,-60,55.0,147.5,-157.5,157.5,157.5,355
10,Joscelyn Collins,F,SBD,HSV,72,Single-ply,2002,Covington High school,LA,71.20,115,125,-132.5,125.0,75,82.5,90,90.0,115,125,132.5,132.5,347.5
11,Hailey Matherne,F,SBD,HSV,72,Single-ply,2001,,LA,69.40,115,125,132.5,132.5,65,70,72.5,72.5,120,-127.5,127.5,127.5,332.5
12,Reagan Ekstrom,F,SBD,HSV,72,Single-ply,1999,,WI,66.90,112.5,117.5,-125,117.5,60,62.5,-65,62.5,-147.5,-147.5,147.5,147.5,327.5
13,Isabella Mullally,F,SBD,HSV,72,Single-ply,2002,Neenah High School,WI,70.30,125,130,135,135.0,62.5,-67.5,67.5,67.5,115,125,-132.5,125.0,327.5
14,Emily Schneider,F,SBD,HSV,72,Single-ply,2000,Covington High school,LA,65.40,115,122.5,-132.5,122.5,60,65,-72.5,65.0,105,117.5,127.5,127.5,315
15,Kendal Frazier,F,SBD,HSV,72,Single-ply,2003,Covington High school,LA,66.50,-115,115,125,125.0,57.5,-65,-65,57.5,105,115,-122.5,115.0,297.5
1,Dallas Cavegn,F,SBD,HSV,84,Single-ply,2000,Neenah High School,WI,78.40,167.5,-177.5,185,185.0,85,92.5,102.5,102.5,145,157.5,167.5,167.5,455
2,Geri Fredrickson,F,SBD,HSV,84,Single-ply,2001,Independence High School,WI,79.00,-170,-175,175,175.0,82.5,87.5,-92.5,87.5,142.5,152.5,162.5,162.5,425
3,Madelyn Woychik,F,SBD,HSV,84,Single-ply,2000,Independence High School,WI,82.80,137.5,142.5,147.5,147.5,92.5,-97.5,-97.5,92.5,147.5,160,167.5,167.5,407.5
4,Heidi Colvin,F,SBD,HSV,84,Single-ply,1999,,WI,81.90,-165,-165,165,165.0,72.5,80,-85,80.0,160,-172.5,-172.5,160.0,405
5,Alexea Engel,F,SBD,HSV,84,Single-ply,1999,,WI,83.40,-155,155,162.5,162.5,-65,-65,65,65.0,137.5,147.5,-150,147.5,375
6,Samantha Kristian,F,SBD,HSV,84,Single-ply,2000,Necedah High School,WI,81.50,147.5,155,162.5,162.5,62.5,-67.5,67.5,67.5,135,-142.5,-150,135.0,365
7,Adasha Silas,F,SBD,HSV,84,Single-ply,1999,Covington High school,LA,79.60,110,122.5,132.5,132.5,65,75,-85,75.0,125,132.5,-157.5,132.5,340
1,Carlie Walker,F,SBD,HSV,84+,Single-ply,1999,,WI,155.90,205,215,-225,215.0,162.5,171,178,178.0,175,185,190,190.0,583
2,Kristen Opiela,F,SBD,HSV,84+,Single-ply,2000,Neenah High School,WI,107.30,-215,-220,220,220.0,92.5,-102.5,102.5,102.5,195,207.5,215,215.0,537.5
3,Danielle Eaglin,F,SBD,HSV,84+,Single-ply,2001,Neenah High School,WI,88.70,-165,170,180,180.0,77.5,85,92.5,92.5,155,167.5,175,175.0,447.5
4,Harmoni Brown,F,SBD,HSV,84+,Single-ply,2001,Covington High school,LA,119.10,155,170,180,180.0,102.5,110,117.5,117.5,140,150,-155,150.0,447.5
5,Sabrina Servais,F,SBD,HSV,84+,Single-ply,1999,,WI,109.40,187.5,-192.5,192.5,192.5,65,67.5,-70,67.5,147.5,155,170,170.0,430
6,Lainey Trahan,F,SBD,HSV,84+,Single-ply,2001,Abbeville,LA,120.20,137.5,157.5,167.5,167.5,105,110,115,115.0,127.5,147.5,-160,147.5,430
7,Melanie Louque,F,SBD,HSV,84+,Single-ply,2001,,LA,91.40,145,157.5,-162.5,157.5,72.5,80,-87.5,80.0,142.5,160,-165,160.0,397.5
8,Nicole Schmucki,F,SBD,HSV,84+,Single-ply,1999,,WI,110.50,132.5,-145,-145,132.5,85,92.5,-97.5,92.5,162.5,170,-175,170.0,395
9,Megan Peters,F,SBD,HSV,84+,Single-ply,2000,Hershey High School,PA,127.20,-150,155,-165,155.0,57.5,67.5,-72.5,67.5,117.5,130,140,140.0,362.5
1,Alana Feser,F,SBD,R-G,84,Raw,2001,,WI,73.80,85,90,95,95.0,47.5,52.5,55,55.0,102.5,110,117.5,117.5,267.5
1,Rachel Klein,F,SBD,R-HSJV,47,Raw,2002,,PA,46.30,72.5,77.5,-80,77.5,37.5,42.5,45,45.0,77.5,82.5,87.5,87.5,210
1,Olivia Tomasi,F,SBD,R-HSJV,52,Raw,2001,,WI,50.70,80,87.5,-90,87.5,37.5,42.5,-47.5,42.5,-102.5,102.5,-112.5,102.5,232.5
2,Kyla Kubera,F,SBD,R-HSJV,52,Raw,2003,,WI,50.30,70,75,-80,75.0,37.5,40,42.5,42.5,87.5,92.5,100,100.0,217.5
3,Emily Freagon,F,SBD,R-HSJV,52,Raw,2002,,WI,51.10,62.5,67.5,72.5,72.5,37.5,40,-42.5,40.0,80,-85,85,85.0,197.5
4,Peyton Paa,F,SBD,R-HSJV,52,Raw,2002,,SD,49.00,60,67.5,80,80.0,37.5,42.5,-45,42.5,70,-80,-80,70.0,192.5
5,Destine Farmer,F,SBD,R-HSJV,52,Raw,2002,Kasson-Mantorville High School,MN,50.70,47.5,62.5,67.5,67.5,25,-35,-35,25.0,-75,85,-90,85.0,177.5
1,Clare Hallum,F,SBD,R-HSJV,57,Raw,2002,Elk Mound High School,WI,54.50,82.5,87.5,95,95.0,37.5,42.5,-45,42.5,97.5,105,110,110.0,247.5
DQ,Ezme Ressler,F,SBD,R-HSJV,57,Raw,2003,,WI,54.60,70,75,-77.5,75.0,37.5,40,-42.5,40.0,-85,-85,-85,,
1,Jordan Braund,F,SBD,R-HSJV,63,Raw,2002,,WI,62.40,110,-122.5,122.5,122.5,55,60,-62.5,60.0,125,137.5,142.5,142.5,325
2,Olivia Pappadopoulos,F,SBD,R-HSJV,63,Raw,2001,,WI,61.90,77.5,85,90,90.0,55,-57.5,-57.5,55.0,120,132.5,-137.5,132.5,277.5
3,Elizabeth Meyer,F,SBD,R-HSJV,63,Raw,2002,,WI,60.40,85,92.5,-95,92.5,42.5,45,47.5,47.5,117.5,125,135,135.0,275
4,Taylor Van De Hey,F,SBD,R-HSJV,63,Raw,2002,,WI,61.30,90,95,-97.5,95.0,40,45,47.5,47.5,120,-135,-135,120.0,262.5
5,Adriana Domenech,F,SBD,R-HSJV,63,Raw,2002,Mauston High School,WI,61.10,77.5,82.5,90,90.0,32.5,-40,-40,32.5,115,122.5,130,130.0,252.5
6,Ashton Miller,F,SBD,R-HSJV,63,Raw,2002,,WI,58.40,87.5,-92.5,92.5,92.5,-50,50,-55,50.0,95,102.5,107.5,107.5,250
7,Brynn Zwiefelhofer,F,SBD,R-HSJV,63,Raw,2001,,WI,58.00,62.5,-70,72.5,72.5,37.5,40,-42.5,40.0,92.5,105,115,115.0,227.5
8,Isabelle Varga,F,SBD,R-HSJV,63,Raw,2001,,WI,62.70,77.5,85,-92.5,85.0,35,-40,-40,35.0,87.5,95,100,100.0,220
9,Julia Grabowski,F,SBD,R-HSJV,63,Raw,2001,,WI,59.00,-70,70,75,75.0,32.5,35,-37.5,35.0,85,90,95,95.0,205
10,Taylor Goldschmidt,F,SBD,R-HSJV,63,Raw,2002,Kasson-Mantorville High School,MN,61.80,42.5,50,-55,50.0,30,35,-37.5,35.0,72.5,87.5,-97.5,87.5,172.5
1,Elena Marquez,F,SBD,R-HSJV,72,Raw,2001,Necedah High School,WI,67.90,125,130,137.5,137.5,52.5,55,57.5,57.5,125,132.5,137.5,137.5,332.5
2,Somer Nolte,F,SBD,R-HSJV,72,Raw,2002,Necedah High School,WI,70.60,107.5,112.5,-117.5,112.5,57.5,60,65,65.0,115,120,125,125.0,302.5
3,Kortnee Halgren,F,SBD,R-HSJV,72,Raw,2001,Elk Mound High School,WI,68.30,92.5,100,-105,100.0,42.5,45,-47.5,45.0,130,137.5,142.5,142.5,287.5
4,Mackenzie Edgar,F,SBD,R-HSJV,72,Raw,2001,Kasson-Mantorville High School,MN,70.30,85,97.5,102.5,102.5,40,-45,45,45.0,120,-135,135,135.0,282.5
5,Hannah Jensen,F,SBD,R-HSJV,72,Raw,2001,,WI,66.00,100,-105,-105,100.0,45,47.5,-50,47.5,130,-132.5,132.5,132.5,280
6,Emma Dillon,F,SBD,R-HSJV,72,Raw,2001,,IN,67.80,92.5,100,105,105.0,50,55,-60,55.0,97.5,107.5,117.5,117.5,277.5
7,Cabria Zuehlke,F,SBD,R-HSJV,72,Raw,2003,,WI,69.20,80,87.5,95,95.0,47.5,50,-52.5,50.0,115,130,-142.5,130.0,275
8,Sierra Smith,F,SBD,R-HSJV,72,Raw,2003,Neenah High School,WI,71.50,82.5,90,95,95.0,42.5,45,-47.5,45.0,115,-125,125,125.0,265
9,Madison Daugherty,F,SBD,R-HSJV,72,Raw,2001,Ionia High School,MI,65.40,85,92.5,97.5,97.5,-47.5,47.5,55,55.0,92.5,102.5,107.5,107.5,260
10,Samantha Morgen,F,SBD,R-HSJV,72,Raw,2002,,WI,70.60,85,92.5,-95,92.5,40,45,-47.5,45.0,115,122.5,-135,122.5,260
11,Nevaeh Brewer,F,SBD,R-HSJV,72,Raw,2001,,WI,65.90,85,90,-95,90.0,-45,-45,45,45.0,112.5,117.5,-122.5,117.5,252.5
12,Kylie Yates,F,SBD,R-HSJV,72,Raw,2002,,WY,63.80,-92.5,92.5,97.5,97.5,42.5,-45,-45,42.5,92.5,102.5,-105,102.5,242.5
13,Maggie Amundson,F,SBD,R-HSJV,72,Raw,2002,,WI,65.10,85,-92.5,-92.5,85.0,40,45,-50,45.0,105,112.5,-117.5,112.5,242.5
14,Ashley Hallstrom,F,SBD,R-HSJV,72,Raw,2002,Kasson-Mantorville High School,MN,70.30,62.5,77.5,-82.5,77.5,30,37.5,40,40.0,95,100,105,105.0,222.5
15,Ariel Brinker,F,SBD,R-HSJV,72,Raw,2002,,OH,69.80,80,-87.5,-92.5,80.0,-40,42.5,-45,42.5,85,92.5,97.5,97.5,220
1,Lillii Armstrong,F,SBD,R-HSJV,84,Raw,2002,,MI,79.60,112.5,120,-125,120.0,62.5,67.5,70,70.0,150,-165,-165,150.0,340
2,Mikayla Zoellner,F,SBD,R-HSJV,84,Raw,2002,,IN,78.70,-105,107.5,115,115.0,57.5,62.5,67.5,67.5,120,130,140,140.0,322.5
3,Madison Grigg,F,SBD,R-HSJV,84,Raw,2002,,MI,79.00,-102.5,102.5,-110,102.5,52.5,57.5,-60,57.5,125,142.5,152.5,152.5,312.5
4,Brianne Wilson,F,SBD,R-HSJV,84,Raw,2002,Necedah High School,WI,76.50,115,120,125,125.0,45,50,55,55.0,100,107.5,112.5,112.5,292.5
5,Meghan Malisheske,F,SBD,R-HSJV,84,Raw,2003,Kasson-Mantorville High School,MN,82.10,85,95,102.5,102.5,35,42.5,-45,42.5,117.5,130,-140,130.0,275
6,Paige Dvorak,F,SBD,R-HSJV,84,Raw,2001,,WI,81.10,-95,95,107.5,107.5,-42.5,42.5,-47.5,42.5,107.5,120,-132.5,120.0,270
7,Alicia Suzda,F,SBD,R-HSJV,84,Raw,2002,Necedah High School,WI,78.60,-75,75,80,80.0,32.5,35,37.5,37.5,112.5,120,125,125.0,242.5
8,Hannah Guerrero,F,SBD,R-HSJV,84,Raw,2003,Calvary Baptist Academy,LA,75.90,80,87.5,-92.5,87.5,35,40,-42.5,40.0,85,-102.5,-102.5,85.0,212.5
1,Isabel Figueroa,F,SBD,R-HSJV,84+,Raw,2002,,IL,122.20,150,165,167.5,167.5,75,-80,80,80.0,167.5,175,-182.5,175.0,422.5
2,Megan Gibbs,F,SBD,R-HSJV,84+,Raw,2002,,GA,85.30,145,152.5,-155,152.5,72.5,-77.5,77.5,77.5,165,175,-182.5,175.0,405
3,Elvecia Najera,F,SBD,R-HSJV,84+,Raw,2001,Independence High School,WI,126.70,117.5,-130,-140,117.5,52.5,57.5,-60,57.5,135,142.5,155,155.0,330
4,Daniela Villagrana,F,SBD,R-HSJV,84+,Raw,2002,Kasson-Mantorville High School,MN,119.40,-100,102.5,-112.5,102.5,50,55,62.5,62.5,140,155,-157.5,155.0,320
5,Jenna Morris,F,SBD,R-HSJV,84+,Raw,2003,,WI,115.50,92.5,97.5,100,100.0,45,50,55,55.0,122.5,127.5,-132.5,127.5,282.5
6,Tiffany Hatfield,F,SBD,R-HSJV,84+,Raw,2002,Mauston High School,WI,130.10,-100,105,-110,105.0,40,45,52.5,52.5,105,117.5,-132.5,117.5,275
7,Adara Johnson,F,SBD,R-HSJV,84+,Raw,2003,,WI,128.00,87.5,95,105,105.0,-50,52.5,57.5,57.5,92.5,102.5,107.5,107.5,270
8,Lindsey Murlick,F,SBD,R-HSJV,84+,Raw,2003,Birch Run High School,MI,101.10,67.5,75,82.5,82.5,40,45,50,50.0,95,107.5,120,120.0,252.5
1,Yadira Ortiz,F,SBD,R-HSV,43,Raw,2003,,WI,42.60,57.5,62.5,-67.5,62.5,32.5,35,-37.5,35.0,77.5,85,-95,85.0,182.5
2,Alexandra Lazarus,F,SBD,R-HSV,43,Raw,2000,Calvary Baptist Academy,LA,41.20,57.5,62.5,67.5,67.5,30,32.5,35,35.0,72.5,77.5,-90,77.5,180
1,Kailey Brookshire,F,SBD,R-HSV,47,Raw,2002,Calvary Baptist Academy,LA,46.70,75,80,82.5,82.5,47.5,52.5,55,55.0,102.5,112.5,-117.5,112.5,250
2,Caralee Suchomel,F,SBD,R-HSV,47,Raw,2003,,WI,46.40,67.5,72.5,77.5,77.5,47.5,52.5,-55,52.5,100,107.5,-115,107.5,237.5
3,Madelyn Day,F,SBD,R-HSV,47,Raw,2000,Croswell Lexington High School,MI,46.40,62.5,67.5,72.5,72.5,40,-45,-45,40.0,92.5,105,-112.5,105.0,217.5
4,Kaylee Cochran,F,SBD,R-HSV,47,Raw,2000,,MI,46.30,57.5,62.5,77.5,77.5,-32.5,37.5,40,40.0,95,-115,-115,95.0,212.5
5,Jessica Mohan,F,SBD,R-HSV,47,Raw,2001,,WI,45.10,62.5,70,75,75.0,35,40,-42.5,40.0,80,87.5,90,90.0,205
1,Ariel Moris,F,SBD,R-HSV,52,Raw,2001,,WI,51.10,87.5,-95,95,95.0,47.5,-52.5,52.5,52.5,117.5,-122.5,122.5,122.5,270
2,Mari Stafslien,F,SBD,R-HSV,52,Raw,2002,,WI,51.70,82.5,87.5,92.5,92.5,45,47.5,-50,47.5,112.5,120,127.5,127.5,267.5
3,Sophia Salter,F,SBD,R-HSV,52,Raw,2001,,SD,51.00,77.5,82.5,85,85.0,42.5,45,-47.5,45.0,115,127.5,132.5,132.5,262.5
4,Jelly Barr,F,SBD,R-HSV,52,Raw,1999,Mauston High School,WI,51.30,90,100,105,105.0,35,37.5,40,40.0,100,110,-117.5,110.0,255
5,Laurel Shaw,F,SBD,R-HSV,52,Raw,2000,Croswell Lexington High School,MI,51.70,85,87.5,90,90.0,45,47.5,50,50.0,107.5,115,-125,115.0,255
6,Hayden Fitzgerald,F,SBD,R-HSV,52,Raw,2000,Birch Run High School,MI,47.50,75,85,90,90.0,42.5,47.5,-50,47.5,95,105,115,115.0,252.5
7,Emily Christian,F,SBD,R-HSV,52,Raw,2000,Croswell Lexington High School,MI,51.40,85,-90,92.5,92.5,40,42.5,-45,42.5,102.5,117.5,-122.5,117.5,252.5
8,Sarah Thorn,F,SBD,R-HSV,52,Raw,1999,,WI,49.30,67.5,-70,70,70.0,37.5,40,-42.5,40.0,95,105,110,110.0,220
9,Aubrey Mayo,F,SBD,R-HSV,52,Raw,2002,Calvary Baptist Academy,LA,49.60,82.5,87.5,90,90.0,37.5,-42.5,-42.5,37.5,-85,92.5,-100,92.5,220
10,Hanna Hollister,F,SBD,R-HSV,52,Raw,2001,Elk Mound High School,WI,51.80,67.5,72.5,-75,72.5,35,40,-42.5,40.0,97.5,102.5,-112.5,102.5,215
11,Olivia Biggiam,F,SBD,R-HSV,52,Raw,2000,Ridgeview,IL,50.60,60,62.5,-65,62.5,32.5,35,-37.5,35.0,-92.5,92.5,102.5,102.5,200
1,Kenzie Svoboda,F,SBD,R-HSV,57,Raw,2000,,WI,56.40,105,110,-115,110.0,57.5,62.5,65,65.0,127.5,132.5,140,140.0,315
2,Noelle Marinez,F,SBD,R-HSV,57,Raw,1999,Croswell Lexington High School,MI,56.30,102.5,107.5,-112.5,107.5,-47.5,47.5,-50,47.5,125,-132.5,-132.5,125.0,280
3,Anna Delao,F,SBD,R-HSV,57,Raw,2000,,WI,52.00,82.5,90,95,95.0,47.5,-52.5,52.5,52.5,115,122.5,127.5,127.5,275
4,Alannah Burke,F,SBD,R-HSV,57,Raw,2000,,WI,55.50,85,87.5,90,90.0,45,47.5,-50,47.5,127.5,132.5,135,135.0,272.5
5,Anna Maramonte,F,SBD,R-HSV,57,Raw,2000,,WI,56.10,87.5,92.5,95,95.0,42.5,45,47.5,47.5,110,117.5,125,125.0,267.5
6,Eva Boyum,F,SBD,R-HSV,57,Raw,2001,,SD,56.40,92.5,105,-110,105.0,35,40,42.5,42.5,120,-130,-132.5,120.0,267.5
7,Skylar Odom,F,SBD,R-HSV,57,Raw,2003,Calvary Baptist Academy,LA,56.60,80,85,87.5,87.5,40,42.5,45,45.0,92.5,102.5,122.5,122.5,255
8,Anastasia McCourt,F,SBD,R-HSV,57,Raw,2001,,WI,55.90,85,-90,-92.5,85.0,47.5,-50,-50,47.5,110,115,-120,115.0,247.5
9,Jennifer Chatwell,F,SBD,R-HSV,57,Raw,2000,,SD,52.00,75,-82.5,-82.5,75.0,50,-55,-55,50.0,95,100,-105,100.0,225
10,Mackenzie Nguyen,F,SBD,R-HSV,57,Raw,2000,Abbeville,LA,52.30,72.5,80,-82.5,80.0,37.5,42.5,-45,42.5,-97.5,97.5,100,100.0,222.5
DQ,Ellen Mills,F,SBD,R-HSV,57,Raw,1999,,WI,56.20,-75,-82.5,-82.5,,45,47.5,50,50.0,120,-125,-125,120.0,
1,Hannah Slater,F,SBD,R-HSV,63,Raw,2000,,WI,61.60,120,125,130,130.0,55,57.5,60,60.0,125,130,135,135.0,325
2,Katelyn Dundas,F,SBD,R-HSV,63,Raw,1999,,NC,61.10,92.5,-102.5,102.5,102.5,55,60,62.5,62.5,122.5,130,137.5,137.5,302.5
3,Jamie Hernandez,F,SBD,R-HSV,63,Raw,2000,Mauston High School,WI,61.60,-105,-105,105,105.0,52.5,55,-60,55.0,120,-127.5,127.5,127.5,287.5
5,Rylie Kolakovich,F,SBD,R-HSV,63,Raw,2000,Croswell Lexington High School,MI,61.80,90,92.5,-97.5,92.5,55,-57.5,-57.5,55.0,137.5,-145,-145,137.5,285
4,Shyla Dake,F,SBD,R-HSV,63,Raw,2000,,WI,61.80,97.5,102.5,-105,102.5,47.5,55,62.5,62.5,120,-137.5,-137.5,120.0,285
6,Rachel Folde,F,SBD,R-HSV,63,Raw,2001,,SD,62.60,-85,87.5,95,95.0,50,-52.5,-52.5,50.0,120,125,130,130.0,275
7,Francesca Sokolik,F,SBD,R-HSV,63,Raw,2000,,WI,61.30,87.5,-92.5,-92.5,87.5,47.5,-50,52.5,52.5,125,130,-135,130.0,270
8,Anna Sackett,F,SBD,R-HSV,63,Raw,2001,,WI,59.20,92.5,102.5,-110,102.5,-50,57.5,60,60.0,102.5,-112.5,-112.5,102.5,265
9,Cailey Erickson,F,SBD,R-HSV,63,Raw,1999,,WI,58.20,77.5,87.5,92.5,92.5,50,52.5,-55,52.5,105,115,-120,115.0,260
10,Allyson Mcdonald,F,SBD,R-HSV,63,Raw,2001,,SD,60.90,85,-90,-92.5,85.0,45,47.5,-50,47.5,107.5,112.5,117.5,117.5,250
11,Kaylin Little,F,SBD,R-HSV,63,Raw,2002,Calvary Baptist Academy,LA,62.40,-92.5,92.5,-97.5,92.5,45,50,52.5,52.5,85,95,105,105.0,250
12,Elly Bjork,F,SBD,R-HSV,63,Raw,2001,,WI,62.00,60,65,72.5,72.5,42.5,-47.5,47.5,47.5,102.5,-110,110,110.0,230
1,Abigail Joseph,F,SBD,R-HSV,72,Raw,2000,,MI,69.45,-112.5,112.5,125,125.0,70,-75,75,75.0,142.5,152.5,160,160.0,360
2,Brenna Zuehlke,F,SBD,R-HSV,72,Raw,2000,,WI,69.90,122.5,127.5,130,130.0,65,67.5,-72.5,67.5,140,150,157.5,157.5,355
3,Allison Lindquist,F,SBD,R-HSV,72,Raw,2000,Elk Mound High School,WI,67.00,130,135,137.5,137.5,57.5,60,-62.5,60.0,145,155,-160,155.0,352.5
4,Miranda Koehnke,F,SBD,R-HSV,72,Raw,2001,Mauston High School,WI,70.65,117.5,122.5,125,125.0,55,60,62.5,62.5,137.5,145,-147.5,145.0,332.5
5,Sophia Becerra,F,SBD,R-HSV,72,Raw,2000,Necedah High School,WI,68.55,110,117.5,122.5,122.5,52.5,55,57.5,57.5,127.5,135,140,140.0,320
6,Morgan Mayo,F,SBD,R-HSV,72,Raw,2000,Birch Run High School,MI,63.20,110,120,130,130.0,50,55,-57.5,55.0,110,122.5,132.5,132.5,317.5
7,Scout Zinniel,F,SBD,R-HSV,72,Raw,2000,,WI,70.35,92.5,97.5,100,100.0,50,52.5,-55,52.5,147.5,157.5,162.5,162.5,315
8,Hannah White,F,SBD,R-HSV,72,Raw,1999,,PA,67.55,100,105,-110,105.0,55,60,62.5,62.5,125,137.5,142.5,142.5,310
9,Madeline Jenson,F,SBD,R-HSV,72,Raw,2000,Elk Mound High School,WI,69.20,102.5,-107.5,-107.5,102.5,57.5,-60,60,60.0,125,132.5,135,135.0,297.5
10,Sophia Howard,F,SBD,R-HSV,72,Raw,2002,,WA,69.45,90,97.5,102.5,102.5,50,55,-60,55.0,120,130,137.5,137.5,295
11,Abagayle Kasper,F,SBD,R-HSV,72,Raw,2001,Elk Mound High School,WI,70.40,82.5,95,-97.5,95.0,57.5,60,-62.5,60.0,132.5,135,137.5,137.5,292.5
12,Rebecca Lee,F,SBD,R-HSV,72,Raw,2000,,WI,70.70,87.5,95,100,100.0,42.5,47.5,-50,47.5,115,127.5,137.5,137.5,285
13,Jayme Randolph,F,SBD,R-HSV,72,Raw,2001,Croswell Lexington High School,MI,71.30,-97.5,97.5,102.5,102.5,45,47.5,50,50.0,117.5,127.5,-140,127.5,280
14,Aliya Brown,F,SBD,R-HSV,72,Raw,1999,,WI,64.35,95,-102.5,-102.5,95.0,-57.5,60,65,65.0,100,107.5,112.5,112.5,272.5
15,Nadine Alberg,F,SBD,R-HSV,72,Raw,2000,Neenah High School,WI,70.20,92.5,97.5,-107.5,97.5,52.5,57.5,-60,57.5,107.5,115,-122.5,115.0,270
16,Hannah Cynor,F,SBD,R-HSV,72,Raw,2000,Elk Mound High School,WI,64.70,85,92.5,-95,92.5,47.5,-52.5,-52.5,47.5,115,-122.5,122.5,122.5,262.5
17,Arla Davis,F,SBD,R-HSV,72,Raw,2001,,PA,66.40,72.5,77.5,-82.5,77.5,45,47.5,50,50.0,115,122.5,127.5,127.5,255
18,Abigale Modesette,F,SBD,R-HSV,72,Raw,2001,,WI,64.90,85,87.5,90,90.0,37.5,42.5,-45,42.5,112.5,117.5,-132.5,117.5,250
1,Abbi Stafslien-Dumale,F,SBD,R-HSV,84,Raw,2000,,WI,83.40,-157.5,157.5,-160,157.5,72.5,-77.5,-77.5,72.5,157.5,167.5,172.5,172.5,402.5
2,Morgan Gilliam,F,SBD,R-HSV,84,Raw,2000,Birch Run High School,MI,81.00,130,140,147.5,147.5,65,70,-75,70.0,152.5,165,175,175.0,392.5
3,Sydney Krueger,F,SBD,R-HSV,84,Raw,2002,,WI,82.40,117.5,130,140,140.0,52.5,57.5,60,60.0,142.5,157.5,162.5,162.5,362.5
4,Lexxie Barr,F,SBD,R-HSV,84,Raw,1999,Mauston High School,WI,77.40,130,140,-145,140.0,-55,55,57.5,57.5,140,150,155,155.0,352.5
5,Makilie Paluch,F,SBD,R-HSV,84,Raw,2001,,SD,80.30,110,120,-125,120.0,60,65,-70,65.0,137.5,147.5,155,155.0,340
6,Cheyenne Banasik,F,SBD,R-HSV,84,Raw,1999,,WI,77.00,105,110,112.5,112.5,55,60,-65,60.0,150,155,157.5,157.5,330
7,Emily Nickolai,F,SBD,R-HSV,84,Raw,1999,Neenah High School,WI,79.50,105,112.5,122.5,122.5,57.5,60,62.5,62.5,125,137.5,-140,137.5,322.5
8,Marie Haase,F,SBD,R-HSV,84,Raw,2000,,WI,81.70,102.5,-110,-110,102.5,50,52.5,55,55.0,147.5,160,-162.5,160.0,317.5
9,Haley Harms,F,SBD,R-HSV,84,Raw,2000,,WI,82.20,-115,115,-125,115.0,62.5,-65,-65,62.5,115,127.5,-132.5,127.5,305
10,Elizabeth Lubeck,F,SBD,R-HSV,84,Raw,2001,,SD,82.60,110,117.5,-125,117.5,52.5,55,-57.5,55.0,125,132.5,-142.5,132.5,305
11,Kyla Egan,F,SBD,R-HSV,84,Raw,2000,Elk Mound High School,WI,73.70,97.5,102.5,-107.5,102.5,52.5,55,-57.5,55.0,135,142.5,-145,142.5,300
12,Michelle Steffens,F,SBD,R-HSV,84,Raw,2000,Mauston High School,WI,74.70,95,100,110,110.0,37.5,40,45,45.0,117.5,132.5,142.5,142.5,297.5
13,Virginia McMillan,F,SBD,R-HSV,84,Raw,2001,,WI,80.20,95,100,105,105.0,57.5,-62.5,-62.5,57.5,112.5,120,132.5,132.5,295
14,Nicole Heller,F,SBD,R-HSV,84,Raw,2000,,WI,74.20,102.5,107.5,112.5,112.5,47.5,50,52.5,52.5,-120,125,-132.5,125.0,290
15,Allison Stencil,F,SBD,R-HSV,84,Raw,2000,,WI,75.60,92.5,95,-100,95.0,55,60,-62.5,60.0,122.5,-132.5,132.5,132.5,287.5
16,Katherine Donovan,F,SBD,R-HSV,84,Raw,2001,,WI,80.90,100,-105,105,105.0,42.5,47.5,-50,47.5,125,135,-137.5,135.0,287.5
17,Hannah Hawkins,F,SBD,R-HSV,84,Raw,1999,Elk Mound High School,WI,78.00,-102.5,-102.5,102.5,102.5,47.5,-52.5,-52.5,47.5,120,130,-137.5,130.0,280
18,Madison Weigandt,F,SBD,R-HSV,84,Raw,2000,Birch Run High School,MI,81.70,95,-102.5,-110,95.0,52.5,57.5,60,60.0,115,125,-135,125.0,280
19,Faith Brooks,F,SBD,R-HSV,84,Raw,2000,,WI,82.90,-97.5,102.5,-107.5,102.5,47.5,52.5,-55,52.5,102.5,117.5,122.5,122.5,277.5
20,Hannah Caron,F,SBD,R-HSV,84,Raw,2000,Elk Mound High School,WI,82.00,92.5,95,-100,95.0,55,-57.5,-57.5,55.0,120,125,-130,125.0,275
21,Emma Scott,F,SBD,R-HSV,84,Raw,2002,,WI,73.20,90,-92.5,-92.5,90.0,50,52.5,-55,52.5,125,130,-135,130.0,272.5
22,Sara Erickson,F,SBD,R-HSV,84,Raw,1999,Mauston High School,WI,75.40,95,100,105,105.0,47.5,50,-55,50.0,115,117.5,-125,117.5,272.5
23,Abigail Mcnitt,F,SBD,R-HSV,84,Raw,1999,,WI,82.20,90,-97.5,97.5,97.5,47.5,-50,-50,47.5,117.5,125,-127.5,125.0,270
1,Hailee Markey,F,SBD,R-HSV,84+,Raw,2000,,WI,117.10,150,160,170,170.0,70,75,-80,75.0,167.5,180,185,185.0,430
2,Madison Hollingshead,F,SBD,R-HSV,84+,Raw,2000,,SD,107.10,152.5,170,-182.5,170.0,70,75,80,80.0,152.5,-160,-165,152.5,402.5
3,Jasmine Greer,F,SBD,R-HSV,84+,Raw,2002,,SD,108.70,-135,135,-155,135.0,70,77.5,-82.5,77.5,190,-205,-217.5,190.0,402.5
4,Miranda Rueter,F,SBD,R-HSV,84+,Raw,2000,,WI,133.30,142.5,150,155,155.0,90,92.5,95,95.0,147.5,152.5,-157.5,152.5,402.5
5,Sydney Regan,F,SBD,R-HSV,84+,Raw,2002,,WI,118.40,140,147.5,155,155.0,57.5,60,62.5,62.5,155,167.5,-172.5,167.5,385
6,Abbigayle Herman,F,SBD,R-HSV,84+,Raw,2000,,WI,105.40,127.5,-137.5,137.5,137.5,60,65,70,70.0,137.5,152.5,-177.5,152.5,360
7,Jenna Hayre,F,SBD,R-HSV,84+,Raw,2001,Croswell Lexington High School,MI,102.30,140,147.5,-155,147.5,70,-75,-75,70.0,140,,,140.0,357.5
8,Rachel Hare,F,SBD,R-HSV,84+,Raw,2000,Birch Run High School,MI,99.30,102.5,112.5,122.5,122.5,55,60,65,65.0,145,155,165,165.0,352.5
9,Coryn Davidson,F,SBD,R-HSV,84+,Raw,2001,,WI,117.20,-120,120,-130,120.0,60,62.5,-65,62.5,157.5,170,-180,170.0,352.5
10,Hailey Durand-Christianson,F,SBD,R-HSV,84+,Raw,1999,,WI,99.70,117.5,127.5,-140,127.5,67.5,-72.5,-75,67.5,132.5,142.5,152.5,152.5,347.5
11,Makayla Mattson,F,SBD,R-HSV,84+,Raw,1999,,WI,121.10,110,120,-132.5,120.0,70,75,80,80.0,132.5,137.5,-147.5,137.5,337.5
12,Sierra Keyes,F,SBD,R-HSV,84+,Raw,1999,,WI,92.50,112.5,117.5,122.5,122.5,60,67.5,-72.5,67.5,127.5,135,145,145.0,335
13,Alexis Lee,F,SBD,R-HSV,84+,Raw,2001,Elk Mound High School,WI,109.20,117.5,122.5,127.5,127.5,52.5,57.5,-60,57.5,135,140,142.5,142.5,327.5
14,Cora Bibeau,F,SBD,R-HSV,84+,Raw,2000,,WI,116.50,112.5,117.5,-122.5,117.5,37.5,45,50,50.0,120,130,135,135.0,302.5
15,Mackenzie Morrison,F,SBD,R-HSV,84+,Raw,2000,Croswell Lexington High School,MI,96.50,110,122.5,-135,122.5,52.5,-57.5,-57.5,52.5,110,117.5,125,125.0,300
16,Riley Schroeder,F,SBD,R-HSV,84+,Raw,2000,,WI,90.60,-87.5,-87.5,95,95.0,52.5,55,-57.5,55.0,135,142.5,-147.5,142.5,292.5
17,Erin DeLong,F,SBD,R-HSV,84+,Raw,2000,Elk Mound High School,WI,94.70,100,107.5,-110,107.5,57.5,60,-62.5,60.0,115,125,-130,125.0,292.5
18,Savannah Tunks,F,SBD,R-HSV,84+,Raw,2000,,WI,112.90,-110,110,112.5,112.5,47.5,50,-57.5,50.0,120,130,-137.5,130.0,292.5
19,Hannah Minke,F,SBD,R-HSV,84+,Raw,2000,,WI,85.60,107.5,110,112.5,112.5,50,52.5,-55,52.5,115,120,125,125.0,290
20,Camille Cieszynski,F,SBD,R-HSV,84+,Raw,2000,,WI,104.90,107.5,-115,115,115.0,55,-57.5,-57.5,55.0,107.5,112.5,-117.5,112.5,282.5
21,Hannah Chart,F,SBD,R-HSV,84+,Raw,2001,Waterford Union High School,WI,114.30,-105,-105,107.5,107.5,45,50,-55,50.0,120,125,-130,125.0,282.5
22,Anastasia Texley,F,SBD,R-HSV,84+,Raw,2000,Necedah High School,WI,104.00,87.5,-92.5,-92.5,87.5,42.5,47.5,50,50.0,122.5,132.5,-142.5,132.5,270
DQ,Brandon Orosco,M,SBD,G,120+,Single-ply,2000,Carrizo Springs High School,TX,121.20,,,,,,,,,,,,,
1,Corbin Weiss,M,SBD,HSJV,53,Single-ply,2003,Hershey High School,PA,51.80,107.5,-122.5,-122.5,107.5,55,62.5,-65,62.5,-117.5,117.5,130,130.0,300
2,Dawson Fornander,M,SBD,HSJV,53,Single-ply,2002,Necedah High School,WI,51.50,92.5,100,107.5,107.5,45,-50,50,50.0,92.5,102.5,117.5,117.5,275
1,Devon Davis,M,SBD,HSJV,59,Single-ply,2001,Hershey High School,PA,57.30,-142.5,142.5,-162.5,142.5,90,95,100,100.0,152.5,172.5,182.5,182.5,425
1,Ben Wallace,M,SBD,HSJV,66,Single-ply,2002,Woodward Academy,IA,63.30,172.5,190,200,200.0,77.5,85,90,90.0,170,185,195,195.0,485
2,Richard Munoz,M,SBD,HSJV,66,Single-ply,2001,Carrizo Springs High School,TX,64.90,150,-160,-160,150.0,92.5,97.5,102.5,102.5,150,157.5,165,165.0,417.5
3,Logan Ladwig,M,SBD,HSJV,66,Single-ply,2001,Necedah High School,WI,61.40,135,142.5,157.5,157.5,60,65,70,70.0,145,155,170,170.0,397.5
4,Jonas Cream,M,SBD,HSJV,66,Single-ply,2001,Hershey High School,PA,63.10,125,135,137.5,137.5,82.5,90,92.5,92.5,150,165,167.5,167.5,397.5
5,Matthew Youngs,M,SBD,HSJV,66,Single-ply,2002,,WI,63.60,137.5,145,155,155.0,62.5,67.5,72.5,72.5,142.5,152.5,167.5,167.5,395
6,Shyvez Ekanem,M,SBD,HSJV,66,Single-ply,2003,Woodward Academy,IA,64.60,122.5,140,150,150.0,82.5,-92.5,-92.5,82.5,132.5,147.5,162.5,162.5,395
7,Jack Schmucki,M,SBD,HSJV,66,Single-ply,2003,,WI,63.50,135,-147.5,152.5,152.5,67.5,75,-80,75.0,130,140,152.5,152.5,380
8,Clay Riehl,M,SBD,HSJV,66,Single-ply,2003,,WI,64.60,117.5,120,-150,120.0,72.5,-87.5,-92.5,72.5,127.5,137.5,150,150.0,342.5
1,Brandon Pierce,M,SBD,HSJV,74,Single-ply,2001,,WI,70.60,157.5,-170,175,175.0,77.5,85,-95,85.0,195,205,210,210.0,470
2,Benjamin Potvin,M,SBD,HSJV,74,Single-ply,2002,,WI,72.90,165,-177.5,-177.5,165.0,92.5,-102.5,-102.5,92.5,180,190,200,200.0,457.5
3,Tramale Pitchford,M,SBD,HSJV,74,Single-ply,2001,Woodward Academy,IA,71.30,150,170,-185,170.0,87.5,97.5,-107.5,97.5,170,187.5,-202.5,187.5,455
4,Paris Lane,M,SBD,HSJV,74,Single-ply,2002,Woodward Academy,IA,73.20,160,-182.5,-182.5,160.0,97.5,112.5,-120,112.5,155,170,-187.5,170.0,442.5
1,Joesiah Rogers,M,SBD,HSJV,83,Single-ply,2004,Woodward Academy,IA,82.10,175,192.5,-202.5,192.5,117.5,127.5,137.5,137.5,180,195,-210,195.0,525
2,Justin Hendricks,M,SBD,HSJV,83,Single-ply,2002,,WI,81.10,157.5,167.5,172.5,172.5,90,95,100,100.0,175,182.5,190,190.0,462.5
3,Jose Elias,M,SBD,HSJV,83,Single-ply,2001,Woodward Academy,IA,80.60,140,-157.5,-167.5,140.0,95,107.5,117.5,117.5,165,-185,-185,165.0,422.5
1,Cory Wood,M,SBD,HSJV,93,Single-ply,2001,,WI,87.80,192.5,205,215,215.0,97.5,-102.5,102.5,102.5,190,195,200,200.0,517.5
2,Isaac Franzke,M,SBD,HSJV,93,Single-ply,2002,Neenah High School,WI,89.30,172.5,187.5,197.5,197.5,90,95,112.5,112.5,167.5,177.5,187.5,187.5,497.5
3,Isaiah Banford,M,SBD,HSJV,93,Single-ply,2001,Woodward Academy,IA,90.80,170,-192.5,-192.5,170.0,97.5,112.5,122.5,122.5,182.5,200,-207.5,200.0,492.5
1,John Locks,M,SBD,HSJV,105,Single-ply,2001,Woodward Academy,IA,101.30,205,225,-240,225.0,112.5,122.5,130,130.0,217.5,240,-250,240.0,595
2,Robert Swenson,M,SBD,HSJV,105,Single-ply,2003,Necedah High School,WI,97.70,167.5,177.5,187.5,187.5,92.5,100,-105,100.0,-147.5,147.5,160,160.0,447.5
1,Mason Erickson,M,SBD,HSJV,120,Single-ply,2001,,LA,114.30,170,-180,185,185.0,97.5,107.5,115,115.0,195,210,-215,210.0,510
2,Carter Alton,M,SBD,HSJV,120,Single-ply,2002,,WI,111.10,187.5,-197.5,197.5,197.5,102.5,107.5,110,110.0,-162.5,162.5,172.5,172.5,480
3,Arnulfo Cordero,M,SBD,HSJV,120,Single-ply,2001,Woodward Academy,IA,118.00,142.5,-170,-170,142.5,112.5,127.5,-135,127.5,142.5,155,165,165.0,435
1,Jakhi Webb,M,SBD,HSJV,120+,Single-ply,2001,Woodward Academy,IA,122.30,142.5,170,177.5,177.5,90,97.5,105,105.0,185,202.5,-215,202.5,485
1,Trai Chatman,M,SBD,HSV,53,Single-ply,1998,Covington High school,LA,52.70,-190,190,-200,190.0,132.5,150,-162.5,150.0,185,200,-230,200.0,540
2,Brayden Londerville,M,SBD,HSV,53,Single-ply,2002,Neenah High School,WI,52.60,127.5,137.5,142.5,142.5,60,65,-70,65.0,150,160,167.5,167.5,375
3,Connor Oviedo,M,SBD,HSV,53,Single-ply,2000,,LA,52.60,125,137.5,-140,137.5,-82.5,82.5,85,85.0,135,142.5,150,150.0,372.5
4,Jonathan Vidrine,M,SBD,HSV,53,Single-ply,2001,Covington High school,LA,52.90,130,137.5,-150,137.5,82.5,95,-102.5,95.0,120,130,-137.5,130.0,362.5
5,Lex Frahm,M,SBD,HSV,53,Single-ply,2002,Neenah High School,WI,52.10,107.5,112.5,117.5,117.5,57.5,62.5,65,65.0,122.5,130,140,140.0,322.5
1,Charles Shuford,M,SBD,HSV,59,Single-ply,2002,Abbeville,LA,56.60,172.5,190,197.5,197.5,110,117.5,125,125.0,172.5,197.5,205,205.0,527.5
2,Logan Pennington,M,SBD,HSV,59,Single-ply,2000,Covington High school,LA,58.20,172.5,182.5,192.5,192.5,100,112.5,117.5,117.5,180,-197.5,-220,180.0,490
3,Mason Impastato,M,SBD,HSV,59,Single-ply,2001,,LA,58.90,167.5,-192.5,-192.5,167.5,92.5,100,-105,100.0,182.5,192.5,-197.5,192.5,460
4,Rodolfo Serna,M,SBD,HSV,59,Single-ply,2000,Cudahy High School,WI,57.30,167.5,170,175,175.0,85,-92.5,92.5,92.5,175,182.5,-185,182.5,450
5,Nicholas Johnson #1,M,SBD,HSV,59,Single-ply,2001,Neenah High School,WI,57.50,150,160,167.5,167.5,72.5,77.5,-85,77.5,165,175,-182.5,175.0,420
6,Kyle Clark,M,SBD,HSV,59,Single-ply,2002,,LA,58.00,-127.5,130,145,145.0,82.5,87.5,-92.5,87.5,155,170,-175,170.0,402.5
7,Nicholas Cordeiro,M,SBD,HSV,59,Single-ply,2001,,MA,57.50,140,150,-155,150.0,82.5,87.5,90,90.0,155,-162.5,-162.5,155.0,395
8,Justin Rife,M,SBD,HSV,59,Single-ply,2000,,WI,57.50,135,-147.5,-147.5,135.0,-77.5,80,87.5,87.5,157.5,-170,-170,157.5,380
9,Thomas Schell,M,SBD,HSV,59,Single-ply,2001,,WI,55.50,-142.5,142.5,150,150.0,77.5,82.5,-85,82.5,142.5,-157.5,-157.5,142.5,375
10,Nicholas Parks,M,SBD,HSV,59,Single-ply,2000,,LA,56.30,125,132.5,140,140.0,82.5,87.5,92.5,92.5,130,137.5,-140,137.5,370
1,Ian West,M,SBD,HSV,66,Single-ply,1999,Hershey High School,PA,65.20,197.5,202.5,-205,202.5,120,-125,-125,120.0,200,210,212.5,212.5,535
2,Philip Nicaud,M,SBD,HSV,66,Single-ply,2000,,LA,65.40,-182.5,182.5,-195,182.5,132.5,-140,140,140.0,190,202.5,210,210.0,532.5
3,Miles Priefer,M,SBD,HSV,66,Single-ply,1999,Waterford Union High School,WI,65.00,192.5,205,212.5,212.5,117.5,127.5,-135,127.5,162.5,175,185,185.0,525
4,Peter Piparo,M,SBD,HSV,66,Single-ply,2000,Cudahy High School,WI,65.10,195,200,-205,200.0,-85,85,92.5,92.5,195,207.5,-212.5,207.5,500
5,Timori Shipley,M,SBD,HSV,66,Single-ply,2000,Abbeville,LA,60.90,162.5,172.5,182.5,182.5,95,107.5,112.5,112.5,-177.5,177.5,192.5,192.5,487.5
6,Joseph Vidrine,M,SBD,HSV,66,Single-ply,1999,Covington High school,LA,61.30,-162.5,-162.5,162.5,162.5,112.5,120,125,125.0,165,175,-187.5,175.0,462.5
7,Nelson Comeaux,M,SBD,HSV,66,Single-ply,1998,Abbeville,LA,61.70,137.5,152.5,-160,152.5,97.5,107.5,115,115.0,147.5,167.5,175,175.0,442.5
1,Dante Citizen,M,SBD,HSV,74,Single-ply,1999,Abbeville,LA,73.50,227.5,-250,250,250.0,162.5,172.5,180,180.0,232.5,252.5,272.5,272.5,702.5
2,Mitchell Gibson,M,SBD,HSV,74,Single-ply,1999,,WI,72.80,255,267.5,272.5,272.5,125,-127.5,-127.5,125.0,245,252.5,255,255.0,652.5
3,Dawson Stroik,M,SBD,HSV,74,Single-ply,2001,,WI,72.40,-245,245,-257.5,245.0,-142.5,142.5,150,150.0,225,235,242.5,242.5,637.5
4,David Ricalde,M,SBD,HSV,74,Single-ply,1999,,LA,73.60,215,235,-245,235.0,132.5,137.5,-140,137.5,215,237.5,-245,237.5,610
5,Dillon Gitz,M,SBD,HSV,74,Single-ply,1999,Covington High school,LA,73.30,210,220,232.5,232.5,110,117.5,-125,117.5,215,222.5,-260,222.5,572.5
6,Christian Alvarez,M,SBD,HSV,74,Single-ply,2002,Abbeville,LA,73.40,187.5,202.5,210,210.0,122.5,135,145,145.0,197.5,217.5,-230,217.5,572.5
7,Nathaniel Ramsey,M,SBD,HSV,74,Single-ply,2000,,WI,72.00,195,207.5,217.5,217.5,97.5,-105,105,105.0,207.5,220,232.5,232.5,555
8,Brison Adams,M,SBD,HSV,74,Single-ply,2000,Covington High school,LA,72.20,170,182.5,195,195.0,135,147.5,157.5,157.5,182.5,197.5,-210,197.5,550
9,Zebadiah Johnson,M,SBD,HSV,74,Single-ply,2000,,SD,72.80,205,-215,-215,205.0,125,132.5,137.5,137.5,185,197.5,-205,197.5,540
10,Kyllian Harper,M,SBD,HSV,74,Single-ply,2000,Hershey High School,PA,73.20,-195,202.5,-215,202.5,117.5,125,-127.5,125.0,185,-202.5,-205,185.0,512.5
1,Noah Johnson,M,SBD,HSV,83,Single-ply,2000,,WI,82.00,270,280,290,290.0,142.5,152.5,160,160.0,277.5,287.5,-297.5,287.5,737.5
2,Sam Bassan,M,SBD,HSV,83,Single-ply,2001,,WI,80.80,267.5,-277.5,277.5,277.5,145,150,155,155.0,267.5,-280,-280,267.5,700
3,Braden Doucet,M,SBD,HSV,83,Single-ply,2000,,LA,82.20,235,252.5,-262.5,252.5,145,152.5,-160,152.5,222.5,237.5,252.5,252.5,657.5
4,James Schultz,M,SBD,HSV,83,Single-ply,2000,,WI,77.70,215,222.5,242.5,242.5,137.5,-150,155,155.0,227.5,245,-257.5,245.0,642.5
5,Ral''Vante Crandle,M,SBD,HSV,83,Single-ply,1999,Covington High school,LA,80.00,210,220,227.5,227.5,120,130,135,135.0,240,260,-282.5,260.0,622.5
6,Thomas Dugan,M,SBD,HSV,83,Single-ply,1999,,LA,82.50,215,227.5,-237.5,227.5,165,-170,170,170.0,207.5,225,-232.5,225.0,622.5
7,Eric Gonzalez,M,SBD,HSV,83,Single-ply,1999,Carrizo Springs High School,TX,81.20,207.5,222.5,-230,222.5,112.5,120,125,125.0,-210,222.5,230,230.0,577.5
8,Case Riehl,M,SBD,HSV,83,Single-ply,2000,,WI,82.90,-205,210,222.5,222.5,115,125,137.5,137.5,200,215,-227.5,215.0,575
9,Jeremy Celino,M,SBD,HSV,83,Single-ply,2000,,LA,76.10,-187.5,187.5,-192.5,187.5,127.5,132.5,137.5,137.5,220,-230,230,230.0,555
10,Addison Gaspard,M,SBD,HSV,83,Single-ply,2001,Abbeville,LA,82.20,182.5,192.5,202.5,202.5,112.5,122.5,127.5,127.5,195,215,-230,215.0,545
1,Thomas Annello III,M,SBD,HSV,93,Single-ply,1999,Covington High school,LA,84.30,-250,250,265,265.0,190,202.5,210,210.0,210,222.5,232.5,232.5,707.5
2,Luis Perales,M,SBD,HSV,93,Single-ply,1999,Carrizo Springs High School,TX,92.30,235,250,-255,250.0,195,207.5,215,215.0,227.5,-242.5,-245,227.5,692.5
3,Shane Kierstyn,M,SBD,HSV,93,Single-ply,2001,,WI,89.20,240,245,250,250.0,145,-152.5,152.5,152.5,255,272.5,-285,272.5,675
4,Allen Pennington,M,SBD,HSV,93,Single-ply,2000,Covington High school,LA,89.10,227.5,240,252.5,252.5,145,155,165,165.0,215,227.5,232.5,232.5,650
5,Zachary Tesch,M,SBD,HSV,93,Single-ply,2000,,WI,88.80,247.5,257.5,-265,257.5,-142.5,142.5,147.5,147.5,222.5,-232.5,232.5,232.5,637.5
6,Jerimyah Overton,M,SBD,HSV,93,Single-ply,2000,Abbeville,LA,91.30,217.5,237.5,250,250.0,150,165,172.5,172.5,175,195,207.5,207.5,630
7,Austin Payne,M,SBD,HSV,93,Single-ply,2000,,WI,90.40,222.5,-237.5,237.5,237.5,100,-127.5,127.5,127.5,245,260,-275,260.0,625
8,Nicholas Purcell,M,SBD,HSV,93,Single-ply,2001,,WI,90.40,210,225,237.5,237.5,-115,120,127.5,127.5,217.5,230,240,240.0,605
9,Devoni Albritton,M,SBD,HSV,93,Single-ply,2001,,WI,87.00,215,222.5,232.5,232.5,117.5,125,-132.5,125.0,230,-245,-245,230.0,587.5
10,Dylan Wysocky,M,SBD,HSV,93,Single-ply,2001,,WI,91.20,205,-222.5,222.5,222.5,-130,130,-137.5,130.0,215,-227.5,227.5,227.5,580
DQ,Joshua Edwards,M,SBD,HSV,93,Single-ply,1972,,WI,84.40,-240,-250,-250,,102.5,107.5,115,115.0,215,227.5,-232.5,227.5,
DQ,Hunter Burlingame,M,SBD,HSV,93,Single-ply,2000,Elk Mound High School,WI,91.60,-250,-250,-250,,117.5,-125,125,125.0,230,-247.5,-247.5,230.0,
1,Wesley Brown,M,SBD,HSV,105,Single-ply,2000,,LA,103.30,290,-305,305,305.0,155,165,172.5,172.5,265,275,-290,275.0,752.5
2,Mario Mendoza,M,SBD,HSV,105,Single-ply,2000,Carrizo Springs High School,TX,96.10,-252.5,252.5,-267.5,252.5,165,175,-180,175.0,215,217.5,-220,217.5,645
3,Marcos Chavez Jr,M,SBD,HSV,105,Single-ply,1999,,WI,101.40,215,222.5,-230,222.5,110,-115,115,115.0,222.5,232.5,237.5,237.5,575
4,Cedric Laird Jr,M,SBD,HSV,105,Single-ply,2002,Covington High school,LA,94.40,220,235,245,245.0,135,145,155,155.0,-155,155,-185,155.0,555
1,David Still,M,SBD,HSV,120,Single-ply,1999,Hershey High School,PA,119.40,260,282.5,-292.5,282.5,142.5,157.5,165,165.0,225,247.5,260,260.0,707.5
2,Owen Rozumalski,M,SBD,HSV,120,Single-ply,2000,,WI,115.90,-260,260,275,275.0,167.5,177.5,182.5,182.5,232.5,237.5,247.5,247.5,705
3,Andrew Nguyen,M,SBD,HSV,120,Single-ply,2000,Abbeville,LA,111.00,240,262.5,-272.5,262.5,137.5,152.5,160,160.0,230,267.5,-285,267.5,690
4,Alex Ochs,M,SBD,HSV,120,Single-ply,2001,Waterford Union High School,WI,115.80,230,-242.5,250,250.0,165,175,182.5,182.5,207.5,215,-222.5,215.0,647.5
5,Nicholas Coca,M,SBD,HSV,120,Single-ply,2000,,WI,117.70,-242.5,-242.5,242.5,242.5,-142.5,142.5,150,150.0,242.5,250,-257.5,250.0,642.5
6,Zachery Schaeve,M,SBD,HSV,120,Single-ply,1999,,WI,114.70,242.5,-252.5,-252.5,242.5,135,142.5,-145,142.5,237.5,247.5,-257.5,247.5,632.5
DQ,Blake Ensz,M,SBD,HSV,120,Single-ply,1999,,SD,117.50,-292.5,-302.5,-310,,195,-200,-200,195.0,212.5,-220,220,220.0,
1,Andrew Sien,M,SBD,HSV,120+,Single-ply,1999,,MD,150.10,297.5,-310,310,310.0,175,182.5,-190,182.5,230,240,-247.5,240.0,732.5
2,Oscalito Arroyo,M,SBD,HSV,120+,Single-ply,1999,Cudahy High School,WI,150.60,312.5,-332.5,335,335.0,142.5,150,160,160.0,205,212.5,-217.5,212.5,707.5
3,Niko Iglesias,M,SBD,HSV,120+,Single-ply,2000,Mauston High School,WI,160.10,257.5,-272.5,272.5,272.5,147.5,155,160,160.0,250,262.5,-277.5,262.5,695
4,Spencer Herrick,M,SBD,HSV,120+,Single-ply,2000,,WI,139.50,250,267.5,282.5,282.5,-142.5,145,155,155.0,227.5,240,245,245.0,682.5
5,Cody Turner,M,SBD,HSV,120+,Single-ply,1999,Covington High school,LA,122.60,230,240,-252.5,240.0,185,-197.5,-197.5,185.0,207.5,212.5,252.5,252.5,677.5
1,Vincent Kenyon,M,SBD,R-HSJV,53,Raw,2002,Ionia High School,MI,52.60,-100,105,115,115.0,50,57.5,65,65.0,122.5,132.5,-147.5,132.5,312.5
2,Billy Tay,M,SBD,R-HSJV,53,Raw,2003,Ridgeview,IL,47.60,85,-92.5,-92.5,85.0,55,60,-62.5,60.0,117.5,132.5,-135,132.5,277.5
3,Dylan Daly-Schreiner,M,SBD,R-HSJV,53,Raw,2002,,WI,51.10,65,72.5,-82.5,72.5,37.5,42.5,45,45.0,92.5,100,110,110.0,227.5
1,Coby Windle,M,SBD,R-HSJV,59,Raw,2002,Ridgeview,IL,57.90,-100,110,115,115.0,65,70,75,75.0,142.5,152.5,155,155.0,345
2,Anthony Hirst,M,SBD,R-HSJV,59,Raw,2001,Saint John's High School,MA,58.10,120,130,-140,130.0,70,75,77.5,77.5,120,-127.5,-127.5,120.0,327.5
3,Blake Burlingame,M,SBD,R-HSJV,59,Raw,2002,Elk Mound High School,WI,57.40,90,95,-100,95.0,55,57.5,60,60.0,127.5,135,145,145.0,300
4,Vaughn Zwiefelhofer,M,SBD,R-HSJV,59,Raw,2003,,WI,57.40,92.5,97.5,100,100.0,57.5,62.5,-67.5,62.5,120,127.5,135,135.0,297.5
5,Logan Holmes-Gertner,M,SBD,R-HSJV,59,Raw,2002,Kasson-Mantorville High School,MN,55.60,70,77.5,90,90.0,55,65,67.5,67.5,112.5,127.5,137.5,137.5,295
1,Jack Bond,M,SBD,R-HSJV,66,Raw,2001,,WI,64.80,115,122.5,127.5,127.5,82.5,85,-90,85.0,147.5,160,167.5,167.5,380
2,Logan Zyduck,M,SBD,R-HSJV,66,Raw,2002,,WI,65.60,127.5,135,-145,135.0,70,77.5,82.5,82.5,142.5,152.5,157.5,157.5,375
3,Alex Myszewski,M,SBD,R-HSJV,66,Raw,2002,,WI,64.20,102.5,112.5,125,125.0,62.5,70,-75,70.0,152.5,160,-177.5,160.0,355
4,Evan Bjorge,M,SBD,R-HSJV,66,Raw,2002,Waterford Union High School,WI,64.90,122.5,127.5,130,130.0,65,67.5,-70,67.5,152.5,-157.5,157.5,157.5,355
5,James Devereux,M,SBD,R-HSJV,66,Raw,2001,,PA,62.40,107.5,122.5,130,130.0,60,67.5,-70,67.5,142.5,155,-160,155.0,352.5
6,Markos Cash,M,SBD,R-HSJV,66,Raw,2002,,WI,64.00,110,115,125,125.0,75,80,-85,80.0,130,140,145,145.0,350
7,William Breunig,M,SBD,R-HSJV,66,Raw,2002,Mauston High School,WI,61.80,100,107.5,110,110.0,67.5,72.5,77.5,77.5,137.5,145,155,155.0,342.5
8,Hunter Coleman,M,SBD,R-HSJV,66,Raw,2002,,WY,62.80,100,112.5,-117.5,112.5,65,72.5,75,75.0,140,-145,145,145.0,332.5
9,Maysen Best,M,SBD,R-HSJV,66,Raw,2002,,WI,64.10,110,120,122.5,122.5,67.5,-72.5,-72.5,67.5,125,132.5,137.5,137.5,327.5
10,Troy Burkert,M,SBD,R-HSJV,66,Raw,2003,,WI,65.30,110,115,120,120.0,62.5,65,-67.5,65.0,130,142.5,-145,142.5,327.5
11,Colton Tay,M,SBD,R-HSJV,66,Raw,2001,Ridgeview,IL,59.00,92.5,100,-102.5,100.0,57.5,60,65,65.0,142.5,152.5,-155,152.5,317.5
12,Roger Daniels,M,SBD,R-HSJV,66,Raw,2002,Necedah High School,WI,63.20,92.5,97.5,-102.5,97.5,50,55,60,60.0,135,140,155,155.0,312.5
13,Sean Kane,M,SBD,R-HSJV,66,Raw,2002,,PA,64.30,105,117.5,-120,117.5,57.5,65,67.5,67.5,125,-132.5,-132.5,125.0,310
14,Payton Bendickson,M,SBD,R-HSJV,66,Raw,2002,Kasson-Mantorville High School,MN,63.80,-90,97.5,102.5,102.5,50,57.5,62.5,62.5,90,112.5,-117.5,112.5,277.5
DQ,Dylon Noon,M,SBD,R-HSJV,66,Raw,2001,,GA,63.20,125,132.5,-137.5,132.5,-90,-90,-90,,-160,-160,-160,,
1,Bryce Henrichs,M,SBD,R-HSJV,74,Raw,2003,Waterford Union High School,WI,70.00,135,142.5,152.5,152.5,85,-87.5,-87.5,85.0,160,172.5,177.5,177.5,415
2,Ethan Hahlbeck,M,SBD,R-HSJV,74,Raw,2002,,WI,68.70,145,155,-160,155.0,77.5,82.5,87.5,87.5,155,165,-170,165.0,407.5
3,Ari Kutin,M,SBD,R-HSJV,74,Raw,2003,,NJ,72.90,115,127.5,135,135.0,77.5,85,-92.5,85.0,160,172.5,182.5,182.5,402.5
4,Mitchell Belland,M,SBD,R-HSJV,74,Raw,2001,,MN,68.60,137.5,145,150,150.0,80,85,-90,85.0,152.5,-160,-160,152.5,387.5
5,Andrew Cargill #1,M,SBD,R-HSJV,74,Raw,2002,,GA,73.10,110,125,-130,125.0,-82.5,87.5,-92.5,87.5,155,175,-185,175.0,387.5
6,Braeden Bowman,M,SBD,R-HSJV,74,Raw,2001,,WI,71.40,122.5,127.5,130,130.0,77.5,82.5,-85,82.5,152.5,165,170,170.0,382.5
7,Ethan Ringold,M,SBD,R-HSJV,74,Raw,2002,,MN,73.10,102.5,110,115,115.0,-65,75,-77.5,75.0,142.5,150,157.5,157.5,347.5
1,Jonah Picasso,M,SBD,R-HSJV,83,Raw,2001,,SD,77.60,165,-172.5,-172.5,165.0,80,82.5,87.5,87.5,170,175,-182.5,175.0,427.5
2,Jordan Ankney,M,SBD,R-HSJV,83,Raw,2002,,IN,78.60,145,160,172.5,172.5,75,80,82.5,82.5,147.5,165,-170,165.0,420
3,Cody Sisaket,M,SBD,R-HSJV,83,Raw,2001,,MN,78.00,142.5,147.5,155,155.0,87.5,-92.5,-92.5,87.5,155,162.5,170,170.0,412.5
4,Brandon Easterly,M,SBD,R-HSJV,83,Raw,2001,,WI,82.30,135,142.5,-150,142.5,70,77.5,82.5,82.5,165,172.5,182.5,182.5,407.5
5,Benjamin Roussopoulos,M,SBD,R-HSJV,83,Raw,2002,,MN,79.50,-112.5,115,122.5,122.5,82.5,-85,-85,82.5,157.5,165,172.5,172.5,377.5
6,Liam Herrick,M,SBD,R-HSJV,83,Raw,2002,,WI,80.30,102.5,115,-120,115.0,72.5,77.5,-80,77.5,122.5,130,142.5,142.5,335
DQ,Eric Oliphant,M,SBD,R-HSJV,83,Raw,2002,,MN,81.60,-150,-150,-157.5,,85,-87.5,-87.5,85.0,155,165,170,170.0,
1,Reid Koeppel,M,SBD,R-HSJV,93,Raw,2002,Neenah High School,WI,90.90,175,187.5,-200,187.5,95,105,-110,105.0,175,197.5,205,205.0,497.5
2,Quinn Parker,M,SBD,R-HSJV,93,Raw,2002,Neenah High School,WI,90.50,165,175,-185,175.0,90,97.5,-100,97.5,175,200,-217.5,200.0,472.5
3,Brett Deschler,M,SBD,R-HSJV,93,Raw,2001,Waterford Union High School,WI,92.60,150,157.5,-165,157.5,92.5,97.5,102.5,102.5,182.5,-190,-215,182.5,442.5
4,Samuel Brouillet,M,SBD,R-HSJV,93,Raw,2002,,WI,90.90,102.5,117.5,-122.5,117.5,65,67.5,70,70.0,125,-137.5,137.5,137.5,325
1,Reese Worden,M,SBD,R-HSJV,105,Raw,2001,,MI,102.10,207.5,227.5,237.5,237.5,120,132.5,140,140.0,225,252.5,-272.5,252.5,630
2,Mac Strand,M,SBD,R-HSJV,105,Raw,2002,,WI,94.30,175,185,195,195.0,85,92.5,-97.5,92.5,210,225,-235,225.0,512.5
3,Robert Conde,M,SBD,R-HSJV,105,Raw,2002,,WI,101.60,167.5,180,-190,180.0,105,112.5,117.5,117.5,192.5,212.5,-227.5,212.5,510
4,Patrick Maloney,M,SBD,R-HSJV,105,Raw,2002,,PA,101.10,167.5,175,185,185.0,85,92.5,95,95.0,162.5,180,187.5,187.5,467.5
5,Even Mahlum,M,SBD,R-HSJV,105,Raw,2002,,WI,102.10,150,160,165,165.0,87.5,97.5,102.5,102.5,175,-182.5,187.5,187.5,455
6,Alex Ammerman,M,SBD,R-HSJV,105,Raw,2003,Ridgeview,IL,103.70,150,165,-167.5,165.0,92.5,97.5,-100,97.5,192.5,-210,-210,192.5,455
7,Calvin Harris,M,SBD,R-HSJV,105,Raw,2002,,MN,101.00,-140,142.5,-147.5,142.5,-92.5,97.5,-100,97.5,142.5,152.5,-160,152.5,392.5
1,Jackson Wemette,M,SBD,R-HSJV,120,Raw,2001,,WI,106.00,175,180,185,185.0,92.5,97.5,105,105.0,202.5,210,-215,210.0,500
2,Jared Litty,M,SBD,R-HSJV,120,Raw,2003,Mauston High School,WI,116.90,125,137.5,142.5,142.5,87.5,95,97.5,97.5,162.5,175,180,180.0,420
3,Cole Bjorge,M,SBD,R-HSJV,120,Raw,2002,Waterford Union High School,WI,109.30,-142.5,142.5,147.5,147.5,85,-90,-90,85.0,175,-185,-187.5,175.0,407.5
4,Devin Bennett,M,SBD,R-HSJV,120,Raw,2001,Mauston High School,WI,108.80,155,-160,-160,155.0,65,67.5,72.5,72.5,162.5,-175,-175,162.5,390
1,Trevor Pye,M,SBD,R-HSJV,120+,Raw,2001,Waterford Union High School,WI,130.60,220,227.5,-232.5,227.5,105,110,-115,110.0,185,190,210,210.0,547.5
2,Corbin Weaver,M,SBD,R-HSJV,120+,Raw,2002,,TN,133.90,-170,-175,175,175.0,105,110,117.5,117.5,230,242.5,255,255.0,547.5
1,Bodie Lacoe,M,SBD,R-HSV,53,Raw,2003,,PA,51.10,120,135,140,140.0,70,77.5,-82.5,77.5,170,182.5,190,190.0,407.5
2,Martavious Strowder,M,SBD,R-HSV,53,Raw,2002,Lake Cormorant High School,MS,51.50,125,-130,-130,125.0,75,80,-82.5,80.0,130,-140,-140,130.0,335
3,Brian Bauch,M,SBD,R-HSV,53,Raw,2000,Necedah High School,WI,50.40,107.5,115,-117.5,115.0,60,62.5,-67.5,62.5,122.5,130,140,140.0,317.5
4,Roydetric Harris,M,SBD,R-HSV,53,Raw,2003,Lake Cormorant High School,MS,48.30,110,-120,-125,110.0,72.5,77.5,80,80.0,110,117.5,125,125.0,315
5,Kylil Barnes,M,SBD,R-HSV,53,Raw,2000,Glen Mills Schools,PA,51.80,95,-102.5,-105,95.0,65,72.5,-77.5,72.5,100,122.5,132.5,132.5,300
6,Forest Thoreson,M,SBD,R-HSV,53,Raw,2001,,WI,52.80,95,100,102.5,102.5,60,67.5,-72.5,67.5,130,-137.5,-145,130.0,300
7,Lane Lee,M,SBD,R-HSV,53,Raw,2002,Elk Mound High School,WI,52.30,87.5,95,100,100.0,50,-52.5,-52.5,50.0,120,125,130,130.0,280
1,Cordarius Harris,M,SBD,R-HSV,59,Raw,2000,Lake Cormorant High School,MS,56.80,-152.5,-160,160,160.0,107.5,112.5,120,120.0,160,175,-180,175.0,455
2,Sebastian Ortiz,M,SBD,R-HSV,59,Raw,2000,,IL,58.40,140,145,150,150.0,100,102.5,-105,102.5,170,175,-180,175.0,427.5
3,Kolby Pierce,M,SBD,R-HSV,59,Raw,2001,Ionia High School,MI,56.30,135,-140,140,140.0,87.5,-92.5,92.5,92.5,135,140,145,145.0,377.5
4,Daveon Woods,M,SBD,R-HSV,59,Raw,2001,Glen Mills Schools,PA,58.30,102.5,112.5,115,115.0,60,67.5,77.5,77.5,145,152.5,162.5,162.5,355
5,Jayson Schraufnagel,M,SBD,R-HSV,59,Raw,2001,Neenah High School,WI,55.40,95,105,112.5,112.5,72.5,-77.5,77.5,77.5,130,140,150,150.0,340
6,Declan Gubrud,M,SBD,R-HSV,59,Raw,2001,,WI,58.90,112.5,117.5,120,120.0,75,80,85,85.0,125,130,135,135.0,340
7,Dylan Gostomski,M,SBD,R-HSV,59,Raw,2001,Cudahy High School,WI,57.20,90,102.5,107.5,107.5,62.5,70,77.5,77.5,110,137.5,145,145.0,330
8,Jerric Blair,M,SBD,R-HSV,59,Raw,2000,,WI,57.30,105,110,-115,110.0,62.5,67.5,70,70.0,140,147.5,-152.5,147.5,327.5
9,Maurice Limboc,M,SBD,R-HSV,59,Raw,2000,Glen Mills Schools,PA,58.00,85,-95,95,95.0,60,67.5,-77.5,67.5,145,152.5,162.5,162.5,325
10,Jorden Anderson,M,SBD,R-HSV,59,Raw,1999,,SD,58.00,-107.5,107.5,-115,107.5,62.5,-67.5,-67.5,62.5,140,142.5,-150,142.5,312.5
11,Mason Stangret,M,SBD,R-HSV,59,Raw,2001,,WI,57.90,-87.5,95,-97.5,95.0,72.5,77.5,-80,77.5,117.5,122.5,132.5,132.5,305
12,Cameron Fileccia,M,SBD,R-HSV,59,Raw,2001,Calvary Baptist Academy,LA,55.90,85,-97.5,97.5,97.5,57.5,60,-65,60.0,130,-137.5,137.5,137.5,295
13,Bobby Requena,M,SBD,R-HSV,59,Raw,2001,Ridgeview,IL,57.10,95,105,110,110.0,60,62.5,65,65.0,117.5,120,-130,120.0,295
14,Derrick Hess,M,SBD,R-HSV,59,Raw,2000,Waterford Union High School,WI,57.20,102.5,-105,-105,102.5,67.5,70,-75,70.0,112.5,122.5,-137.5,122.5,295
15,Dylan Hanson,M,SBD,R-HSV,59,Raw,2001,Elk Mound High School,WI,55.90,75,85,90,90.0,-52.5,52.5,-57.5,52.5,112.5,120,127.5,127.5,270
1,Jonas Kasten,M,SBD,R-HSV,66,Raw,2000,Neenah High School,WI,63.30,137.5,150,-160,150.0,90,97.5,105,105.0,182.5,195,-207.5,195.0,450
2,Brice Mcclay,M,SBD,R-HSV,66,Raw,1999,,WI,65.20,130,135,-142.5,135.0,80,85,-90,85.0,185,195,202.5,202.5,422.5
3,Dylan Hill,M,SBD,R-HSV,66,Raw,2000,Ionia High School,MI,64.40,135,145,155,155.0,90,97.5,100,100.0,165,-175,-175,165.0,420
4,Logan Forburger,M,SBD,R-HSV,66,Raw,2000,,IA,64.90,130,137.5,145,145.0,82.5,87.5,-90,87.5,167.5,177.5,187.5,187.5,420
5,Cooper Kastenschmidt,M,SBD,R-HSV,66,Raw,2001,,WI,64.60,137.5,142.5,-147.5,142.5,-70,70,-72.5,70.0,165,175,182.5,182.5,395
6,Sergio Jimenez,M,SBD,R-HSV,66,Raw,2001,,WI,59.10,140,145,-147.5,145.0,87.5,90,-92.5,90.0,142.5,147.5,-152.5,147.5,382.5
7,Devin Lang,M,SBD,R-HSV,66,Raw,2001,,WI,65.10,117.5,122.5,-127.5,122.5,-70,70,-75,70.0,165,172.5,180,180.0,372.5
8,Kolton Fiedler,M,SBD,R-HSV,66,Raw,1999,,WI,65.20,117.5,127.5,135,135.0,72.5,-82.5,-82.5,72.5,-165,165,-185,165.0,372.5
9,R'Keavis Morrison,M,SBD,R-HSV,66,Raw,2002,Glen Mills Schools,PA,66.00,95,100,110,110.0,70,80,-87.5,80.0,152.5,165,175,175.0,365
10,Alexander Gutierrez,M,SBD,R-HSV,66,Raw,2000,Mauston High School,WI,61.40,107.5,-117.5,120,120.0,62.5,67.5,70,70.0,157.5,-162.5,-162.5,157.5,347.5
11,Ike Kramschuster,M,SBD,R-HSV,66,Raw,1999,,WI,61.60,102.5,107.5,-112.5,107.5,65,70,72.5,72.5,147.5,155,165,165.0,345
12,Alex Sackett,M,SBD,R-HSV,66,Raw,2002,,WI,62.90,110,120,127.5,127.5,65,75,77.5,77.5,125,-132.5,140,140.0,345
13,Darren Reinagle,M,SBD,R-HSV,66,Raw,2001,Ridgeview,IL,63.60,95,110,-120,110.0,67.5,-70,70,70.0,150,162.5,165,165.0,345
14,Alexander McElmury,M,SBD,R-HSV,66,Raw,1999,Kasson-Mantorville High School,MN,63.50,107.5,-115,-115,107.5,62.5,70,72.5,72.5,160,-170,-170,160.0,340
15,Bryce Ploeckelman,M,SBD,R-HSV,66,Raw,2002,Elk Mound High School,WI,59.00,102.5,107.5,-110,107.5,57.5,-62.5,-62.5,57.5,132.5,140,145,145.0,310
16,Thomas Benz,M,SBD,R-HSV,66,Raw,2000,,SD,65.10,102.5,-110,-110,102.5,60,65,-67.5,65.0,142.5,-150,-160,142.5,310
DQ,Roderick Morton Jr,M,SBD,R-HSV,66,Raw,2001,Lake Cormorant High School,MS,64.30,-142.5,-142.5,-142.5,,75,77.5,-82.5,77.5,200,-215,-220,200.0,
DQ,Colton Steyer,M,SBD,R-HSV,66,Raw,2001,,WI,66.00,155,-165,-165,155.0,-110,-117.5,-117.5,,,,,,
1,Jalen Jordan,M,SBD,R-HSV,74,Raw,2000,Lake Cormorant High School,MS,73.85,187.5,-197.5,197.5,197.5,102.5,107.5,112.5,112.5,-232.5,240,250,250.0,560
2,Spencer Butke,M,SBD,R-HSV,74,Raw,2000,Neenah High School,WI,72.50,190,202.5,212.5,212.5,95,107.5,112.5,112.5,220,232.5,-240,232.5,557.5
3,Justin Choy,M,SBD,R-HSV,74,Raw,1999,,WI,73.80,192.5,202.5,-207.5,202.5,110,117.5,-120,117.5,205,215,-230,215.0,535
4,Daniel Byers,M,SBD,R-HSV,74,Raw,2000,Saint John's High School,MA,73.15,175,182.5,192.5,192.5,120,127.5,130,130.0,180,200,-212.5,200.0,522.5
5,Karter Brachear,M,SBD,R-HSV,74,Raw,1999,,IL,73.45,150,160,165,165.0,105,-110,-110,105.0,200,210,-215,210.0,480
6,Eric Schroeder,M,SBD,R-HSV,74,Raw,2000,,IN,73.65,160,175,182.5,182.5,90,95,100,100.0,167.5,182.5,-192.5,182.5,465
7,Logan Hayman,M,SBD,R-HSV,74,Raw,2001,,WI,72.70,152.5,-165,165,165.0,95,100,-102.5,100.0,187.5,-200,-200,187.5,452.5
8,Jonathan Boehnlein,M,SBD,R-HSV,74,Raw,2001,,WI,72.90,137.5,152.5,165,165.0,85,95,100,100.0,167.5,180,187.5,187.5,452.5
9,Jontay Poole,M,SBD,R-HSV,74,Raw,2001,Glen Mills Schools,PA,73.50,137.5,150,155,155.0,92.5,102.5,-107.5,102.5,182.5,195,-210,195.0,452.5
10,Austin Koch,M,SBD,R-HSV,74,Raw,2000,,WI,72.20,145,155,157.5,157.5,97.5,-100,-100,97.5,190,-192.5,192.5,192.5,447.5
11,Dustin Dziekan,M,SBD,R-HSV,74,Raw,1999,,WI,70.10,145,150,155,155.0,100,107.5,-110,107.5,170,175,182.5,182.5,445
12,Nathan Rather,M,SBD,R-HSV,74,Raw,2000,,WI,69.90,147.5,152.5,-160,152.5,90,-95,100,100.0,177.5,190,-195,190.0,442.5
13,Kadin Conradt,M,SBD,R-HSV,74,Raw,2001,,WI,71.00,145,-155,160,160.0,85,92.5,-95,92.5,167.5,187.5,-197.5,187.5,440
14,YuePing Vang,M,SBD,R-HSV,74,Raw,2000,Mauston High School,WI,73.25,150,152.5,-155,152.5,87.5,90,92.5,92.5,195,-210,-210,195.0,440
15,Parker Leisses,M,SBD,R-HSV,74,Raw,2000,,WI,70.00,140,145,-147.5,145.0,92.5,-97.5,-97.5,92.5,187.5,197.5,-207.5,197.5,435
16,Alex Turner,M,SBD,R-HSV,74,Raw,2000,,WI,72.95,157.5,-167.5,-167.5,157.5,90,95,97.5,97.5,165,175,-182.5,175.0,430
17,Trey Zwiefelhofer,M,SBD,R-HSV,74,Raw,2000,,WI,73.30,130,135,140,140.0,85,90,92.5,92.5,180,192.5,-197.5,192.5,425
18,Joel Burkert,M,SBD,R-HSV,74,Raw,2000,,WI,70.30,142.5,152.5,157.5,157.5,82.5,85,90,90.0,170,175,-180,175.0,422.5
19,Benjamin Carr,M,SBD,R-HSV,74,Raw,1999,Saint John's High School,MA,72.80,132.5,137.5,140,140.0,87.5,95,-100,95.0,175,182.5,-190,182.5,417.5
20,Andrew Wein,M,SBD,R-HSV,74,Raw,2001,,WI,73.40,137.5,142.5,150,150.0,75,80,87.5,87.5,165,180,-192.5,180.0,417.5
21,Jayson Brueggeman,M,SBD,R-HSV,74,Raw,2001,,WI,73.60,112.5,-132.5,132.5,132.5,72.5,87.5,-92.5,87.5,165,175,190,190.0,410
22,Kevin Chen,M,SBD,R-HSV,74,Raw,2000,,WI,72.90,135,147.5,-155,147.5,-92.5,92.5,-97.5,92.5,152.5,-170,-170,152.5,392.5
DQ,Ethan Kaanta,M,SBD,R-HSV,74,Raw,2001,Elk Mound High School,WI,70.60,150,155,157.5,157.5,87.5,92.5,-95,92.5,-160,-160,-160,,
1,Harol Molina,M,SBD,R-HSV,83,Raw,2000,,NE,82.20,-182.5,192.5,-197.5,192.5,127.5,135,140,140.0,215,225,232.5,232.5,565
2,Nicholas Grewe,M,SBD,R-HSV,83,Raw,2000,,WI,80.70,185,192.5,-200,192.5,115,127.5,130,130.0,205,217.5,-230,217.5,540
3,Rick Wilson,M,SBD,R-HSV,83,Raw,2000,Ionia High School,MI,81.50,175,187.5,197.5,197.5,112.5,-117.5,117.5,117.5,215,222.5,-227.5,222.5,537.5
4,Dalton Stike,M,SBD,R-HSV,83,Raw,2000,,PA,80.80,170,180,190,190.0,105,112.5,115,115.0,187.5,215,222.5,222.5,527.5
5,Abdullah Alsulaimawi,M,SBD,R-HSV,83,Raw,2000,,SD,81.30,-185,192.5,-205,192.5,107.5,112.5,120,120.0,200,215,-222.5,215.0,527.5
6,Anthony Maas,M,SBD,R-HSV,83,Raw,2000,,WI,81.70,-180,-182.5,182.5,182.5,105,110,115,115.0,222.5,-230,-230,222.5,520
7,Paul Boss,M,SBD,R-HSV,83,Raw,2000,,WY,75.90,160,165,170,170.0,120,122.5,-125,122.5,200,205,-207.5,205.0,497.5
8,Daniel Domenech,M,SBD,R-HSV,83,Raw,2000,Mauston High School,WI,81.00,155,165,170,170.0,92.5,100,-102.5,100.0,217.5,227.5,-250,227.5,497.5
9,Jason Walls,M,SBD,R-HSV,83,Raw,2000,,WI,79.50,165,175,182.5,182.5,112.5,117.5,-122.5,117.5,165,175,195,195.0,495
10,Maxwell Bidic,M,SBD,R-HSV,83,Raw,2001,,NJ,82.00,152.5,162.5,170,170.0,102.5,115,120,120.0,185,202.5,-217.5,202.5,492.5
11,Connor Mahlum,M,SBD,R-HSV,83,Raw,1999,,WI,81.90,162.5,172.5,182.5,182.5,90,95,-102.5,95.0,-205,205,-227.5,205.0,482.5
12,Jacob Kundert,M,SBD,R-HSV,83,Raw,1999,,WI,80.10,142.5,147.5,160,160.0,95,102.5,105,105.0,187.5,200,215,215.0,480
13,Thomas Van Eperen,M,SBD,R-HSV,83,Raw,2001,,WI,79.00,160,170,175,175.0,90,-95,-95,90.0,200,212.5,-215,212.5,477.5
14,Khanief Mcmillan,M,SBD,R-HSV,83,Raw,2000,Glen Mills Schools,PA,82.00,140,155,-175,155.0,97.5,112.5,-117.5,112.5,175,197.5,207.5,207.5,475
15,Adam Born,M,SBD,R-HSV,83,Raw,2001,Ridgeview,IL,77.20,170,180,185,185.0,92.5,-95,-95,92.5,195,-207.5,-207.5,195.0,472.5
16,Carter Franson,M,SBD,R-HSV,83,Raw,2001,,WI,81.10,147.5,-152.5,-152.5,147.5,-127.5,127.5,-132.5,127.5,-195,-195,195,195.0,470
17,Aric Jensen,M,SBD,R-HSV,83,Raw,1999,Elk Mound High School,WI,80.60,157.5,-165,165,165.0,102.5,107.5,112.5,112.5,167.5,180,-187.5,180.0,457.5
18,Luke Lynch,M,SBD,R-HSV,83,Raw,2000,,MI,78.10,145,-160,160,160.0,87.5,100,102.5,102.5,180,-192.5,192.5,192.5,455
19,Ethan Rausch,M,SBD,R-HSV,83,Raw,2001,,SD,80.20,165,-172.5,-182.5,165.0,105,110,-117.5,110.0,155,-167.5,167.5,167.5,442.5
20,Jamario Harris,M,SBD,R-HSV,83,Raw,2002,Lake Cormorant High School,MS,78.70,142.5,150,155,155.0,85,92.5,-107.5,92.5,155,167.5,-182.5,167.5,415
DQ,Jack Faulkner,M,SBD,R-HSV,83,Raw,2000,Ionia High School,MI,78.40,-160,-160,-160,,82.5,87.5,-92.5,87.5,-210,-210,-210,,
DQ,Hunter Koller,M,SBD,R-HSV,83,Raw,2000,,IL,80.30,-142.5,-147.5,-155,,115,-125,-125,115.0,192.5,200,-205,200.0,
DQ,Tanner Carver,M,SBD,R-HSV,83,Raw,2000,,WI,82.50,162.5,175,177.5,177.5,95,97.5,-100,97.5,-215,-215,-215,,
1,Matthew Weisberg,M,SBD,R-HSV,93,Raw,1999,,PA,89.00,250,260,-275,260.0,152.5,-160,-160,152.5,280,290,-297.5,290.0,702.5
2,Zachary Backauskas,M,SBD,R-HSV,93,Raw,2000,,PA,90.30,207.5,-227.5,227.5,227.5,130,137.5,-142.5,137.5,245,-272.5,-272.5,245.0,610
3,Luke Brinkman,M,SBD,R-HSV,93,Raw,1999,,WI,89.60,195,205,212.5,212.5,115,120,125,125.0,235,245,255,255.0,592.5
4,Bryce Kasper,M,SBD,R-HSV,93,Raw,2000,Elk Mound High School,WI,90.00,197.5,200,207.5,207.5,120,127.5,132.5,132.5,245,-252.5,-257.5,245.0,585
5,Brandon Haag,M,SBD,R-HSV,93,Raw,1999,,WI,86.00,-185,190,195,195.0,105,110,115,115.0,257.5,267.5,272.5,272.5,582.5
6,Jaden Rasmussen,M,SBD,R-HSV,93,Raw,2000,,WY,90.60,197.5,-205,-205,197.5,142.5,147.5,150,150.0,227.5,230,232.5,232.5,580
7,Brian Jackson,M,SBD,R-HSV,93,Raw,2000,Lake Cormorant High School,MS,88.60,205,-210,-210,205.0,117.5,122.5,127.5,127.5,210,217.5,230,230.0,562.5
8,Baxter Self,M,SBD,R-HSV,93,Raw,2000,,KS,92.10,185,195,-200,195.0,137.5,145,150,150.0,185,195,205,205.0,550
9,Drake Schafer,M,SBD,R-HSV,93,Raw,1999,,SD,91.60,187.5,197.5,-205,197.5,115,120,-125,120.0,207.5,217.5,-227.5,217.5,535
10,Colton Gruse,M,SBD,R-HSV,93,Raw,2000,,WI,88.50,190,200,-215,200.0,105,112.5,-122.5,112.5,200,212.5,-220,212.5,525
11,Julio Duran,M,SBD,R-HSV,93,Raw,2000,Glen Mills Schools,PA,83.00,147.5,165,190,190.0,85,97.5,102.5,102.5,175,205,227.5,227.5,520
12,Alex Prestholt,M,SBD,R-HSV,93,Raw,1999,,IA,92.70,172.5,-185,185,185.0,110,-115,-115,110.0,205,222.5,-232.5,222.5,517.5
13,Caleb Farris,M,SBD,R-HSV,93,Raw,1999,,TN,91.10,177.5,192.5,-200,192.5,100,-107.5,-107.5,100.0,192.5,205,222.5,222.5,515
14,Luke Miller,M,SBD,R-HSV,93,Raw,2000,,OH,87.00,170,182.5,-197.5,182.5,100,105,110,110.0,200,212.5,220,220.0,512.5
15,Joshua Schwartz,M,SBD,R-HSV,93,Raw,2001,Saint John's High School,MA,92.70,150,160,165,165.0,110,117.5,-120,117.5,205,220,227.5,227.5,510
16,Steven Agora,M,SBD,R-HSV,93,Raw,2000,Saint John's High School,MA,88.00,152.5,162.5,170,170.0,120,125,130,130.0,185,-195,200,200.0,500
17,Marcus Van Domelen,M,SBD,R-HSV,93,Raw,1999,,WI,89.40,170,180,-185,180.0,110,115,-120,115.0,177.5,187.5,200,200.0,495
18,Corde Fitzhugh,M,SBD,R-HSV,93,Raw,2000,Glen Mills Schools,PA,91.70,142.5,150,157.5,157.5,105,115,127.5,127.5,185,210,-235,210.0,495
19,Cole Hummel,M,SBD,R-HSV,93,Raw,2001,Ionia High School,MI,91.00,-155,-155,155,155.0,112.5,117.5,127.5,127.5,-192.5,192.5,210,210.0,492.5
20,Jack Heynen,M,SBD,R-HSV,93,Raw,2001,Ridgeview,IL,92.00,170,182.5,-187.5,182.5,92.5,95,100,100.0,192.5,205,-210,205.0,487.5
21,Cameron Green,M,SBD,R-HSV,93,Raw,2000,Ridgeview,IL,89.60,162.5,170,-172.5,170.0,95,97.5,-100,97.5,192.5,210,215,215.0,482.5
22,Elijah Prill,M,SBD,R-HSV,93,Raw,2000,,WI,87.60,-165,165,182.5,182.5,87.5,-92.5,-92.5,87.5,-197.5,205,-215,205.0,475
23,Erik Escalera,M,SBD,R-HSV,93,Raw,2001,,WI,91.40,140,-150,155,155.0,92.5,97.5,105,105.0,192.5,200,215,215.0,475
24,Hunter Bourque,M,SBD,R-HSV,93,Raw,1999,Abbeville,LA,92.00,152.5,162.5,-175,162.5,87.5,95,100,100.0,177.5,195,205,205.0,467.5
25,Travis Johnson,M,SBD,R-HSV,93,Raw,2000,Mauston High School,WI,88.70,145,-157.5,-157.5,145.0,80,85,87.5,87.5,-227.5,227.5,-245,227.5,460
26,Sean Lemkuil,M,SBD,R-HSV,93,Raw,2000,,WI,90.00,165,170,175,175.0,100,102.5,105,105.0,170,172.5,175,175.0,455
27,Seth Pecha,M,SBD,R-HSV,93,Raw,2000,,WI,90.90,142.5,157.5,-162.5,157.5,90,92.5,95,95.0,-165,165,195,195.0,447.5
DQ,Demareio Hester,M,SBD,R-HSV,93,Raw,2000,,SD,89.90,185,190,200,200.0,135,-142.5,-142.5,135.0,-227.5,,,,
DQ,Alex Soto,M,SBD,R-HSV,93,Raw,2000,,WI,90.60,-182.5,-187.5,-187.5,,97.5,105,-107.5,105.0,,,,,
1,Gabriel Overton,M,SBD,R-HSV,105,Raw,1999,,OH,102.50,250,267.5,-277.5,267.5,167.5,177.5,185,185.0,250,262.5,265,265.0,717.5
2,Davis Creach,M,SBD,R-HSV,105,Raw,2000,,PA,102.30,227.5,237.5,-245,237.5,157.5,167.5,-170.5,167.5,-227.5,227.5,240,240.0,645
3,Christian Stenberg,M,SBD,R-HSV,105,Raw,2000,,WI,102.80,225,-235,-235,225.0,155,165,170,170.0,215,230,240,240.0,635
4,Kayleb Bastien,M,SBD,R-HSV,105,Raw,2002,Ionia High School,MI,96.90,215,232.5,240,240.0,127.5,142.5,147.5,147.5,235.5,245,-252.5,245.0,632.5
5,Brett Gildenzoph,M,SBD,R-HSV,105,Raw,1999,,WI,103.40,225,235,-240,235.0,-137.5,137.5,-150,137.5,227.5,242.5,-252.5,242.5,615
6,Darren KeoKanlaya,M,SBD,R-HSV,105,Raw,2000,Lake Cormorant High School,MS,99.10,-210,215,227.5,227.5,115,122.5,-127.5,122.5,220,235,-237.5,235.0,585
7,Joseph Chau,M,SBD,R-HSV,105,Raw,1999,,MA,100.10,217.5,227.5,232.5,232.5,115,122.5,-125,122.5,-215,215,227.5,227.5,582.5
8,Alfredo Valdez,M,SBD,R-HSV,105,Raw,1999,Waterford Union High School,WI,99.40,190,200,-210,200.0,110,115,-120,115.0,230,245,252.5,252.5,567.5
9,Brandon Thurlby,M,SBD,R-HSV,105,Raw,2000,Ionia High School,MI,104.50,197.5,205,-212.5,205.0,125,135,-145,135.0,205,-217.5,225,225.0,565
10,Joseph Statz,M,SBD,R-HSV,105,Raw,2001,,WI,94.00,200,215,220,220.0,105,117.5,-120,117.5,205,220,-222.5,220.0,557.5
11,Nathan Bohman,M,SBD,R-HSV,105,Raw,2000,,WI,97.80,-170,175,185,185.0,137.5,147.5,-152.5,147.5,200,220,-227.5,220.0,552.5
12,Caleb Cihlar,M,SBD,R-HSV,105,Raw,2000,,WI,100.20,200,210,-222.5,210.0,110,120,-125,120.0,200,222.5,-232.5,222.5,552.5
13,Victor Statz,M,SBD,R-HSV,105,Raw,2000,,WI,95.20,165,185,195,195.0,105,120,127.5,127.5,200,222.5,-225,222.5,545
14,Juan Duncan,M,SBD,R-HSV,105,Raw,2000,Glen Mills Schools,PA,99.50,140,155,-175,155.0,-115,127.5,-132.5,127.5,217.5,250,-272.5,250.0,532.5
15,Wyatt Carper,M,SBD,R-HSV,105,Raw,2000,,WI,100.40,207.5,212.5,-227.5,212.5,110,112.5,-117.5,112.5,190,205,-215,205.0,530
16,Aaron Gotham,M,SBD,R-HSV,105,Raw,2001,,WI,104.10,200,-210,215,215.0,105,-107.5,-107.5,105.0,200,207.5,-210,207.5,527.5
17,Nazario Coleman,M,SBD,R-HSV,105,Raw,2000,Glen Mills Schools,PA,102.00,160,180,195,195.0,105,115,122.5,122.5,187.5,205,-235,205.0,522.5
18,Graham Paatela,M,SBD,R-HSV,105,Raw,1999,,MN,95.50,175,187.5,195,195.0,110,115,-120,115.0,190,205,-220,205.0,515
19,Quinton Morse,M,SBD,R-HSV,105,Raw,2000,Birch Run High School,MI,98.00,182.5,195,-205,195.0,97.5,105,110,110.0,185,195,205,205.0,510
20,Benjamin Zahn,M,SBD,R-HSV,105,Raw,2000,,WI,93.60,160,170,177.5,177.5,100,102.5,105,105.0,200,215,222.5,222.5,505
21,Jake Kerr,M,SBD,R-HSV,105,Raw,2000,Ionia High School,MI,102.80,167.5,177.5,185,185.0,95,102.5,107.5,107.5,202.5,212.5,-220,212.5,505
22,Jeffrey De Leon,M,SBD,R-HSV,105,Raw,2000,Carrizo Springs High School,TX,103.80,185,190,-200,190.0,100,-105,-105,100.0,215,-227.5,-227.5,215.0,505
23,Jaxonf Starr,M,SBD,R-HSV,105,Raw,1999,,SD,93.00,170,175,-185,175.0,95,-97.5,-100,95.0,200,215,-227.5,215.0,485
24,Trenton Kruger,M,SBD,R-HSV,105,Raw,2000,Kasson-Mantorville High School,MN,97.80,175,185,195,195.0,85,-90,-95,85.0,192.5,205,-225,205.0,485
25,Jack Dietzen,M,SBD,R-HSV,105,Raw,2000,,WI,100.70,165,175,185,185.0,85,92.5,97.5,97.5,182.5,200,-227.5,200.0,482.5
1,Reece Heyerdahl,M,SBD,R-HSV,120,Raw,2001,Neenah High School,WI,113.50,227.5,237.5,-242.5,237.5,135,142.5,-147.5,142.5,250,270,282.5,282.5,662.5
2,Carter Welch,M,SBD,R-HSV,120,Raw,2000,,WI,118.50,237.5,242.5,-245,242.5,145,150,-152.5,150.0,242.5,247.5,252.5,252.5,645
3,Luc Leszczynski,M,SBD,R-HSV,120,Raw,2000,,WI,108.50,195,212.5,227.5,227.5,135,147.5,155,155.0,227.5,247.5,260,260.0,642.5
4,Jordon Prondzinski,M,SBD,R-HSV,120,Raw,2000,,WI,119.10,237.5,252.5,-257.5,252.5,122.5,127.5,-130,127.5,245,255,-267.5,255.0,635
5,Kenneth Smith,M,SBD,R-HSV,120,Raw,2000,,MN,115.20,220,235,242.5,242.5,137.5,142.5,-150,142.5,220,232.5,242.5,242.5,627.5
6,Zachary Wagner,M,SBD,R-HSV,120,Raw,2000,,WI,119.60,205,215,217.5,217.5,132.5,140,-142.5,140.0,260,265,-267.5,265.0,622.5
7,Noah Stem,M,SBD,R-HSV,120,Raw,1999,Lake Cormorant High School,MS,119.50,227.5,-237.5,242.5,242.5,142.5,-150,-150,142.5,227.5,-240,-245,227.5,612.5
8,Michael Bidwell,M,SBD,R-HSV,120,Raw,2001,,WI,112.80,182.5,200,-210,200.0,102.5,110,112.5,112.5,247.5,270,275,275.0,587.5
9,Elijah Froemming,M,SBD,R-HSV,120,Raw,2000,,WI,115.00,192.5,202.5,210,210.0,115,122.5,130,130.0,232.5,247.5,-250,247.5,587.5
10,Jack Bronner,M,SBD,R-HSV,120,Raw,2000,Birch Run High School,MI,111.50,215,227.5,-240,227.5,115,122.5,130,130.0,215,227.5,-245,227.5,585
11,Benjamin Howard,M,SBD,R-HSV,120,Raw,1999,,WA,117.60,212.5,220,227.5,227.5,130,140,-147.5,140.0,217.5,-230,-232.5,217.5,585
12,Andrew Tompkins,M,SBD,R-HSV,120,Raw,2000,,WI,112.80,200,215,-227.5,215.0,105,112.5,117.5,117.5,210,225,235,235.0,567.5
13,Thomas Whitfield,M,SBD,R-HSV,120,Raw,2001,Birch Run High School,MI,106.20,-182.5,195,207.5,207.5,110,117.5,-120,117.5,210,225,237.5,237.5,562.5
14,Anthony Withrow,M,SBD,R-HSV,120,Raw,2002,Glen Mills Schools,PA,119.20,140,155,-175,155.0,122.5,135,145,145.0,202.5,232.5,-250,232.5,532.5
15,Aaron Carpenter,M,SBD,R-HSV,120,Raw,1999,,WI,120.00,187.5,-195,-195,187.5,122.5,132.5,-140,132.5,187.5,195,202.5,202.5,522.5
16,Austin Nichifor,M,SBD,R-HSV,120,Raw,2001,,SD,118.30,-195,-195,195,195.0,-110,-110,110,110.0,200,-220,-220,200.0,505
17,Brian White,M,SBD,R-HSV,120,Raw,2000,,PA,112.80,142.5,152.5,165,165.0,102.5,112.5,115,115.0,175,190,212.5,212.5,492.5
1,Jaden Burgess-Eisch,M,SBD,R-HSV,120+,Raw,1999,,WI,131.80,257.5,280,300,300.0,170,180,187.5,187.5,255,-280,-285,255.0,742.5
2,Logan Cleaary,M,SBD,R-HSV,120+,Raw,2002,,WI,153.90,255,265,277.5,277.5,165,175,182.5,182.5,255,265,282.5,282.5,742.5
3,Houston Wentzel,M,SBD,R-HSV,120+,Raw,1999,,SD,135.50,252.5,272.5,280,280.0,132.5,140,147.5,147.5,227.5,247.5,-255,247.5,675
4,Trevor Marquardt,M,SBD,R-HSV,120+,Raw,2000,Neenah High School,WI,150.70,227.5,242.5,255,255.0,117.5,125,130,130.0,217.5,237.5,252.5,252.5,637.5
5,Mason Amato,M,SBD,R-HSV,120+,Raw,2001,,SD,166.20,227.5,-237.5,242.5,242.5,-135,135,-137.5,135.0,-240,240,260,260.0,637.5
6,Jerome Chemelli,M,SBD,R-HSV,120+,Raw,2000,,PA,125.90,215,227.5,237.5,237.5,125,137.5,145,145.0,227.5,252.5,-275,252.5,635
7,Brandon Haag,M,SBD,R-HSV,120+,Raw,2000,,WI,148.50,230,245,255,255.0,130,135,140,140.0,230,235,-240,235.0,630
8,Randy Mcdonald,M,SBD,R-HSV,120+,Raw,2001,Lake Cormorant High School,MS,126.10,192.5,207.5,222.5,222.5,-127.5,135,142.5,142.5,225,240,-252.5,240.0,605
9,Kevin Karras,M,SBD,R-HSV,120+,Raw,1999,,WI,141.80,192.5,207.5,215,215.0,127.5,132.5,-137.5,132.5,205,227.5,-232.5,227.5,575
10,Timothy Rothbauer,M,SBD,R-HSV,120+,Raw,2000,,WI,140.70,190,205,212.5,212.5,102.5,112.5,-117.5,112.5,202.5,212.5,-217.5,212.5,537.5
11,Jackie Roberts,M,SBD,R-HSV,120+,Raw,2003,Glen Mills Schools,PA,142.20,175,197.5,210,210.0,92.5,102.5,115,115.0,175,197.5,207.5,207.5,532.5
12,Luke Seljeseth,M,SBD,R-HSV,120+,Raw,2001,Kasson-Mantorville High School,MN,143.30,162.5,182.5,192.5,192.5,95,105,112.5,112.5,220,227.5,-235,227.5,532.5
13,Kade Bratzel,M,SBD,R-HSV,120+,Raw,2000,,SD,150.50,170,180,-190,180.0,117.5,122.5,-130,122.5,215,-230,-230,215.0,517.5
14,Jon Sena,M,SBD,R-HSV,120+,Raw,1999,Ionia High School,MI,123.90,165,170,182.5,182.5,100,105,107.5,107.5,185,207.5,-215,207.5,497.5
15,Brandon Gilbertson,M,SBD,R-HSV,120+,Raw,2000,Elk Mound High School,WI,125.70,165,167.5,172.5,172.5,87.5,90,-92.5,90.0,210,215,-220,215.0,477.5
