Place,Name,State,WeightClassKg,BodyweightKg,Age,Best3SquatKg,Best3BenchKg,Best3DeadliftKg,TotalKg,Sex,Division,Equipment,Event,Squat4Kg,Bench4Kg,BirthDate,Country
1,Maria Ramos,Argentina,48,47,28,165,82.5,180,427.5,F,Open,Wraps,SBD,,,,Argentina
2,Melissa Grix,FL,48,46.6,28,100,65,125,290,F,Open,Wraps,SBD,,,,
1,Samyra Abweh,NM,52,51.8,20,140,100,182.5,422.5,F,Open,Wraps,SBD,,,,
DQ,Jenn Rotsinger,FL,52,51,40,,,,,F,Open,Wraps,SBD,,,,
1,Stefanie Cohen,FL,56,54.2,26,200,97.5,235,532.5,F,Open,Wraps,SBD,,,,
2,Jessica Brown #1,NC,56,56,29,207.5,102.5,207.5,517.5,F,Open,Wraps,SBD,,,,
3,Samantha Bechard,Canada,56,55.4,24,170,102.5,187.5,460,F,Open,Wraps,SBD,,,,Canada
4,Kaylie Klitzing,OR,56,55.4,26,127.5,90,152.5,370,F,Open,Wraps,SBD,,,,
5,Esther Lee,CA,56,55.1,24,130,67.5,130,327.5,F,Open,Wraps,SBD,,,,
1,Marianna Gasparyan,Kazakhstan,60,58.2,29,240,127.5,195,562.5,F,Open,Wraps,SBD,,,,Kazakhstan
2,Susan Salazar,CA,60,60,42,207.5,92.5,227.5,527.5,F,Open,Wraps,SBD,,,,
3,Suzanne Davis,AZ,60,59.1,46,192.5,100,225,517.5,F,Open,Wraps,SBD,,,,
4,Blanca Villoch,FL,60,59.6,34,200,105,210,515,F,Open,Wraps,SBD,,,,
5,Caterine González,Colombia,60,59.8,20,185,105,205,495,F,Open,Wraps,SBD,,,,Colombia
6,Alora Griffiths,Canada,60,58.8,26,177.5,95,200,472.5,F,Open,Wraps,SBD,,,,Canada
7,Jamie Christenson,CA,60,59.7,,147.5,97.5,195,440,F,Open,Wraps,SBD,,,1984-11-11,
8,Van Nguyen,TX,60,59.7,31,162.5,65,165,392.5,F,Open,Wraps,SBD,,,,
1,Stacy Burr,SC,67.5,65.9,26,235,142.5,220,597.5,F,Open,Wraps,SBD,,,,
2,Mariia Panferova,Russia,67.5,66.8,41,230,132.5,200,562.5,F,Open,Wraps,SBD,,,,Russia
3,Erika Hipwell,CA,67.5,67.4,29,192.5,115,200,507.5,F,Open,Wraps,SBD,,,,
4,Lillian Mayo,LA,67.5,66.8,20,202.5,102.5,187.5,492.5,F,Open,Wraps,SBD,,105,,
5,Tasha Whelan,WA,67.5,65.3,33,167.5,97.5,210,475,F,Open,Wraps,SBD,,,,
6,Ashley Contorno,CA,67.5,67.2,29,170,102.5,170,442.5,F,Open,Wraps,SBD,,,,
7,Jennessa Labbate,CA,67.5,66.8,23,165,87.5,182.5,435,F,Open,Wraps,SBD,,,,
8,Margarita Delgado,CA,67.5,67.5,23,167.5,67.5,192.5,427.5,F,Open,Wraps,SBD,,,,
1,Gina Aversa,WA,75,74.8,25,210,100,237.5,547.5,F,Open,Wraps,SBD,,,,
2,Rhiannon Keith,Australia,75,72.2,25,200,112.5,220,532.5,F,Open,Wraps,SBD,,,,Australia
3,Terrian Ashley,CA,75,74.2,35,202.5,90,215,507.5,F,Open,Wraps,SBD,,,,
4,Lacey Mesley,Canada,75,74.1,32,202.5,110,190,502.5,F,Open,Wraps,SBD,,,,Canada
5,Laurie Smith,CA,75,73.3,46,192.5,92.5,190,475,F,Open,Wraps,SBD,,,,
6,Michelle Sothen,FL,75,74.2,47,170,102.5,170,442.5,F,Open,Wraps,SBD,,,,
7,Karen Guo,OH,75,73.5,27,157.5,87.5,172.5,417.5,F,Open,Wraps,SBD,,,,
8,Julia Moller,CA,75,72.7,20,142.5,70,172.5,385,F,Open,Wraps,SBD,,,,
1,Chakera Holcomb,TX,82.5,78.7,23,280,165,275,720,F,Open,Wraps,SBD,,,,
2,Ashley Lepcin,IL,82.5,82,28,210,120,215,545,F,Open,Wraps,SBD,,,,
3,Karina Mosqueda,CA,82.5,80.8,22,215,100,207.5,522.5,F,Open,Wraps,SBD,,,,
4,Victoria Sukar,VA,82.5,78.6,31,195,122.5,200,517.5,F,Open,Wraps,SBD,,,,
1,Marisa Leblanc,CA,90,89.6,37,190,105,220,515,F,Open,Wraps,SBD,,,,
DQ,Katrina Bielomyza,MA,90,88.7,38,,,,,F,Open,Wraps,SBD,,,,
1,Morgan Turner #1,MD,90+,90.8,35,230,117.5,250.5,598,F,Open,Wraps,SBD,238,,,
2,Valerie Dew,CA,90+,115.1,36,215,127.5,250,592.5,F,Open,Wraps,SBD,,,,
3,Carina Davis,CA,90+,117.1,35,227.5,142.5,200,570,F,Open,Wraps,SBD,,,,
4,Ana Perez #1,VA,90+,97.6,34,195,107.5,222.5,525,F,Open,Wraps,SBD,,,,
5,Claudia Garcia,IL,90+,115.9,27,62.5,37.5,120,220,F,Open,Raw,SBD,,,,
1,Gerald Dionio,CA,67.5,66.2,24,252.5,172.5,280,705,M,Open,Wraps,SBD,,,,
2,Keith Correa,CA,67.5,67.4,22,230,147.5,302.5,680,M,Open,Wraps,SBD,,,,
3,Vincent Falzetta,MI,67.5,66.1,20,225,140,275,640,M,Open,Wraps,SBD,,,,
4,Sami Vaskelainen,Finland,67.5,67.2,34,240,132.5,260,632.5,M,Open,Wraps,SBD,,,,Finland
5,Richard Navarra,CA,67.5,66.7,27,245,147.5,227.5,620,M,Open,Wraps,SBD,,,,
1,Rostislav Petkov,NV,75,74.1,29,305,195,335,835,M,Open,Wraps,SBD,,,,
2,Josh Hyaduck,CO,75,74.8,30,270,180,302.5,752.5,M,Open,Wraps,SBD,,,,
3,Robert Axselle,NC,75,74.9,24,265,172.5,275,712.5,M,Open,Wraps,SBD,,,,
4,Joao Lazarin,FL,75,74.2,28,242.5,172.5,290,705,M,Open,Wraps,SBD,,,,
5,Nick Henwood,OH,75,75,23,250,160,250,660,M,Open,Wraps,SBD,,,,
1,Kody Blazek,IA,82.5,80.4,31,312.5,212.5,340,865,M,Open,Wraps,SBD,,,,
2,Erbol Nauanov,Kazakhstan,82.5,81.8,28,317.5,225,320,862.5,M,Open,Wraps,SBD,,,,Kazakhstan
3,Anthony Hobaica,SC,82.5,81.7,31,330,210,295,835,M,Open,Wraps,SBD,,,,
4,Maliek Derstine,PA,82.5,81.9,29,327.5,220,285,832.5,M,Open,Wraps,SBD,,,,
5,Kevin Torres,CA,82.5,82.1,24,315,192.5,310,817.5,M,Open,Wraps,SBD,,,,
6,Patrick Morrison #1,Australia,82.5,81.7,28,325,160,320,805,M,Open,Wraps,SBD,,,,Australia
7,Roy Glenn,CA,82.5,81.4,27,295,175,290,760,M,Open,Wraps,SBD,,,,
8,Nick Israel,FL,82.5,82,29,280,195,275,750,M,Open,Wraps,SBD,,,,
DQ,Eddie Ryckman,FL,82.5,81.4,26,300,,,,M,Open,Wraps,SBD,,,,
DQ,John Haack,WI,82.5,82.3,25,,,,,M,Open,Raw,SBD,,,,
1,Ben Pollack,TX,90,87.6,30,350,187.5,332.5,870,M,Open,Wraps,SBD,,,,
2,Blaze Alpha,CA,90,86.5,24,290,200,330,820,M,Open,Wraps,SBD,,,,
DQ,Ashton Rouska,TX,90,88,21,327.5,175,,,M,Open,Wraps,SBD,,,,
DQ,Carlos Moran,MA,90,89.8,28,,,,,M,Open,Wraps,SBD,,,,
1,Carlos Reyes #1,CT,100,97.9,26,347.5,220,320,887.5,M,Open,Wraps,SBD,,,1992-02-27,
2,Damien Pezzuti,SC,100,98,31,332.5,210,327.5,870,M,Open,Wraps,SBD,,,,
3,Thomas Van Boven,WA,100,98.8,28,340,202.5,312.5,855,M,Open,Wraps,SBD,,,,
4,Garrett Fear,IN,100,98.1,20,320,172.5,340,832.5,M,Open,Wraps,SBD,,,,
G,Mohamad Arnaout,Canada,100,97.6,24,320,210,300,830,M,Open,Wraps,SBD,,,,Canada
5,Blaine Houck,FL,100,98.7,26,265,227.5,295,787.5,M,Open,Wraps,SBD,,,,
6,Killian Carolan,Ireland,100,98.6,22,310,187.5,287.5,785,M,Open,Wraps,SBD,,,,Ireland
1,Yury Belkin,Russia,110,105.7,27,380,240,405,1025,M,Open,Wraps,SBD,,,,Russia
2,Andrew Herbert,CA,110,107.7,36,413,197.5,385,995.5,M,Open,Wraps,SBD,,,,
3,Chris Bridgeford,WA,110,109.5,23,370,222.5,380,972.5,M,Open,Wraps,SBD,,,,
4,Ogden J Myklebust III,TX,110,105.8,31,345,235,385,965,M,Open,Wraps,SBD,,,,
5,Vladimir Dergunov,Russia,110,106.6,27,320,217.5,365,902.5,M,Open,Wraps,SBD,,,,Russia
6,János Rajmund Nagy,Hungary,110,108.8,24,335,205,355,895,M,Open,Wraps,SBD,,,,Hungary
7,Daniel Clancy,CA,110,108.9,32,330,210,355,895,M,Open,Wraps,SBD,,,,
8,Jordan Wong,FL,110,109.9,27,362.5,207.5,302.5,872.5,M,Open,Wraps,SBD,,,,
9,Travis Nelson,TN,110,106.9,24,325,215,300,840,M,Open,Wraps,SBD,,,,
10,Joel McCaughan,WA,110,106.7,30,300,205,322.5,827.5,M,Open,Wraps,SBD,,,,
DQ,Kevin Oak,NY,110,100.1,33,,,,,M,Open,Wraps,SBD,,,,
DQ,Tony Montgomery,OR,110,108.9,32,,,,,M,Open,Wraps,SBD,,,,
1,Andy Huang #1,CA,125,122.6,33,395,227.5,385,1007.5,M,Open,Wraps,SBD,,,,
2,Foster Parnell,NV,125,124.1,28,365,227.5,352.5,945,M,Open,Raw,SBD,,,,
3,Adam Leidigh,CA,125,122.8,30,337.5,232.5,357.5,927.5,M,Open,Wraps,SBD,,,,
4,Tyler Cummings,GA,125,121.3,26,342.5,235,335,912.5,M,Open,Wraps,SBD,,,,
5,Zach Wittusen,UT,125,119.8,26,320,220,310,850,M,Open,Wraps,SBD,,,,
6,Ryan Sylva,MO,125,122.4,33,315,192.5,295,802.5,M,Open,Wraps,SBD,,,,
DQ,Perseus Black,AL,125,119.7,35,,,,,M,Open,Wraps,SBD,,,,
1,Larry Williams #1,NY,140,125.4,23,372.5,267.5,400,1040,M,Open,Raw,SBD,,,,
2,Dennis Cornelius,OK,140,130.2,37,432.5,265,342.5,1040,M,Open,Wraps,SBD,,,,
3,Robb Philippus,IA,140,139.5,35,435,227.5,350,1012.5,M,Open,Wraps,SBD,,,,
4,Jake Johns,CA,140,140,31,365,247.5,307.5,920,M,Open,Wraps,SBD,,,,
5,Cooper Wage,WI,140,139.5,30,362.5,217.5,322.5,902.5,M,Open,Wraps,SBD,,,,
1,Brandon Allen,NV,140+,146.9,29,442.5,257.5,382.5,1082.5,M,Open,Wraps,SBD,,,,
2,JP Price,MO,140+,179.8,33,432.5,285,332.5,1050,M,Open,Wraps,SBD,,,,
3,David Douglas,CA,140+,156.3,31,392.5,267.5,350,1010,M,Open,Wraps,SBD,,,,
4,Brandis Dew,CA,140+,190.3,31,375,250,355,980,M,Open,Wraps,SBD,,,,
5,Bruce Leaupepe,CA,140+,163.7,27,337.5,262.5,290,890,M,Open,Wraps,SBD,,,,
DQ,Nick Fisher,AK,140+,144.2,23,365,240,,,M,Open,Wraps,SBD,,,,
DQ,Shawn Doyle,OR,140+,154.6,32,405,260,,,M,Open,Wraps,SBD,,,,
