Name,BirthYear,WeightClassKg,Division,Sex,Best3BenchKg,TotalKg,Event,Equipment,Place
K. Major,,50,Teen 14-15,F,40,40,B,Single-ply,1
I. Szpulak,,63,Teen 14-15,F,32.5,32.5,B,Single-ply,1
S. Baron,,70,Teen 14-15,F,65,65,B,Single-ply,1
N. Peujffe,,55,Teen 16-17,F,50,50,B,Single-ply,1
M. Maj,,63,Teen 16-17,F,55,55,B,Single-ply,1
M. Surowiec,,53,Teen 16-17,F,25,25,B,Single-ply,1
M. Plajzler,,53,Teen 16-17,F,25,25,B,Single-ply,2
I. Wasiak,,47.5,Teen 18-19,F,35,35,B,Single-ply,1
M. Nowicka,,50,Teen 18-19,F,47.5,47.5,B,Single-ply,2
L.Trebeoolle,,50,Teen 18-19,F,85,85,B,Single-ply,1
K. Sidor,,70,Teen 18-19,F,60,60,B,Single-ply,1
J. Przemyslaw,,56,Teen 14-15,M,57.5,57.5,B,Single-ply,1
G. Marcin,,60,Teen 14-15,M,80,80,B,Single-ply,1
G. Tomasz,,60,Teen 14-15,M,65,65,B,Single-ply,2
M. Przemyslaw,,75,Teen 14-15,M,105,105,B,Single-ply,1
Z. Piotr,,75,Teen 14-15,M,80,80,B,Single-ply,2
J. Piotr,,52,Teen 16-17,M,80,80,B,Single-ply,1
L. Daniel,,56,Teen 16-17,M,65,65,B,Single-ply,1
M. Kamil,,60,Teen 16-17,M,102.5,102.5,B,Single-ply,1
T. Tomasz,,60,Teen 16-17,M,97.5,97.5,B,Single-ply,2
B. Marcin,,60,Teen 16-17,M,65,65,B,Single-ply,3
G. Wieslaw,,67.5,Teen 16-17,M,97.5,97.5,B,Single-ply,3
B. Marcin,,67.5,Teen 16-17,M,65,65,B,Single-ply,5
G. Wieslaw,,67.5,Teen 16-17,M,107.5,107.5,B,Single-ply,1
Z. Jaroslaw,,67.5,Teen 16-17,M,105,105,B,Single-ply,2
M. Ratal,,67.5,Teen 16-17,M,90,90,B,Single-ply,4
U. Adam,,75,Teen 16-17,M,97.5,97.5,B,Single-ply,1
B. Adam,,82.5,Teen 16-17,M,100,100,B,Single-ply,1
G. Bernard,,82.5,Teen 16-17,M,95,95,B,Single-ply,2
S. Dariusz,,90,Teen 16-17,M,110,110,B,Single-ply,1
B. Andrzej,,90,Teen 16-17,M,85,85,B,Single-ply,2
R. Bartlomiej,,56,Teen 18-19,M,110,110,B,Single-ply,1
B. Miroslaw,,60,Teen 18-19,M,97.5,97.5,B,Single-ply,1
W. Pawel,,60,Teen 18-19,M,90,90,B,Single-ply,2
K. Mariusz,,67.5,Teen 18-19,M,152.5,152.5,B,Single-ply,1
D. Tomasz,,67.5,Teen 18-19,M,110,110,B,Single-ply,2
S. Dariusz,,75,Teen 18-19,M,140,140,B,Single-ply,1
T. Tomasz,,75,Teen 18-19,M,117.5,117.5,B,Single-ply,2
S. Jacek,,82.5,Teen 18-19,M,165,165,B,Single-ply,1
G. Rafal,,82.5,Teen 18-19,M,165,165,B,Single-ply,2
F. Dariusz,,82.5,Teen 18-19,M,157.5,157.5,B,Single-ply,3
B. Piotr,,90,Teen 18-19,M,165,165,B,Single-ply,1
N. Zbigniew,,90,Teen 18-19,M,165,165,B,Single-ply,2
M. Robert,,90,Teen 18-19,M,160,160,B,Single-ply,3
M. Adam,,100,Teen 18-19,M,160,160,B,Single-ply,1
N. Tomasz,,100,Teen 18-19,M,130,130,B,Single-ply,2
P. Tyberiusz,,100,Teen 18-19,M,120,120,B,Single-ply,3
P. Jaidelski,,52,Open,M,62.5,62.5,B,Single-ply,1
B. Radke,,56,Open,M,110,110,B,Single-ply,1
M. Kosior,,56,Open,M,107.5,107.5,B,Single-ply,2
M. Suchodolski,,60,Open,M,107.5,107.5,B,Single-ply,1
K. Mzur,,60,Open,M,100,100,B,Single-ply,2
M. Herok,,60,Open,M,75,75,B,Single-ply,3
E. LaRiboler,,67.5,Open,M,155,155,B,Single-ply,1
Marius Kuczera,,67.5,Open,M,150,150,B,Single-ply,2
A. Jasinksi,,67.5,Open,M,140,140,B,Single-ply,3
B. Regis,,67.5,Open,M,135,135,B,Single-ply,4
K. Roika,,75,Open,M,170,170,B,Single-ply,1
J. Wegiera,,75,Open,M,165,165,B,Single-ply,2
P. LeBlelenec,,75,Open,M,147.5,147.5,B,Single-ply,3
M. Duhem,,75,Open,M,145,145,B,Single-ply,4
D. Sowinski,,75,Open,M,145,145,B,Single-ply,5
J. Luka,,82.5,Open,M,170,170,B,Single-ply,1
G. Philippe,,82.5,Open,M,170,170,B,Single-ply,2
M. Lalko,,82.5,Open,M,167.5,167.5,B,Single-ply,3
R. Golla,,82.5,Open,M,165,165,B,Single-ply,4
V. Nikiszine,,82.5,Open,M,162.5,162.5,B,Single-ply,5
M. Bacha,,82.5,Open,M,155,155,B,Single-ply,6
M. Marie-Sainte,,90,Open,M,195,195,B,Single-ply,1
M. Koziol,,90,Open,M,185,185,B,Single-ply,2
W. Hirsz,,90,Open,M,167.5,167.5,B,Single-ply,3
R. Mitana,,90,Open,M,165,165,B,Single-ply,4
A. Rigby,,100,Open,M,205,205,B,Single-ply,1
A. Jablonski,,100,Open,M,192.5,192.5,B,Single-ply,2
Z. Nadolski,,100,Open,M,165,165,B,Single-ply,3
H. Mieczek,,100,Open,M,165,165,B,Single-ply,4
L. Gaspar,,110,Open,M,190,190,B,Single-ply,1
D. Urbanczyk,,110,Open,M,187.5,187.5,B,Single-ply,2
D. Sobczak,,110,Open,M,180,180,B,Single-ply,3
F. Bustrycki,,110,Open,M,160,160,B,Single-ply,4
P. Szpak,,125,Open,M,190,190,B,Single-ply,1
S. Gorecki,,125,Open,M,185,185,B,Single-ply,2
W. Mironow,,145,Open,M,225,225,B,Single-ply,1
H. Rowlands,,145,Open,M,195,195,B,Single-ply,2
Stefan Piotr Koziol,,145+,Open,M,220,220,B,Single-ply,1
I. Wasiak,,44,Open,M,35,35,B,Single-ply,1
M. Dominike,,47.5,Open,M,60,60,B,Single-ply,1
M. Nowicka,,50,Open,M,47.5,47.5,B,Single-ply,1
T. Vwashuez,,50,Open,M,,,B,Single-ply,DQ
K. Lancevin,,53,Open,M,65,65,B,Single-ply,1
B. Noworytz,,53,Open,M,47.5,47.5,B,Single-ply,2
B. Samson,,55,Open,M,70,70,B,Single-ply,1
G. Koziol,,55,Open,M,55,55,B,Single-ply,2
C. Jeanvoine,,58.5,Open,M,85,85,B,Single-ply,1
A. Rekas,,58.5,Open,M,55,55,B,Single-ply,2
J. Koziol,,58.5,Open,M,50,50,B,Single-ply,3
M. Poinleau,,63,Open,M,75,75,B,Single-ply,1
E. Heyns,,63,Open,M,70,70,B,Single-ply,2
M. Baranska,,63,Open,M,65,65,B,Single-ply,3
C. Kazbarian,,70,Open,M,120,120,B,Single-ply,1
Ina-Wladimirona,,70,Open,M,100,100,B,Single-ply,2
M. VanDenBerg,,70,Open,M,90,90,B,Single-ply,3
N. Elorus,,80,Open,M,97.5,97.5,B,Single-ply,1
K. Sidor,,80,Open,M,57.5,57.5,B,Single-ply,2
M. Bilska,,80,Open,M,45,45,B,Single-ply,3
M. Brzoskowska,,90,Open,M,35,35,B,Single-ply,5
I. Wesierska,,90+,Open,M,60,60,B,Single-ply,1
H. Ubman,1948,53,Masters 1,F,72.5,72.5,B,Single-ply,1
P. Smith,1943,63,Masters 1,F,50,50,B,Single-ply,1
A. Jasinski,1951,67.5,Masters 1,M,135,135,B,Single-ply,1
J. Jaeurucoine,1950,67.5,Masters 1,M,130,130,B,Single-ply,2
J. Novikow,1950,75,Masters 1,M,150,150,B,Single-ply,1
J. Bulski,1949,75,Masters 1,M,140,140,B,Single-ply,2
R. Recko,1951,75,Masters 1,M,105,105,B,Single-ply,3
J. Luka,1949,82.5,Masters 1,M,160,160,B,Single-ply,1
Stachnialek,1951,82.5,Masters 1,M,140,140,B,Single-ply,2
Maciewjcwski,1952,82.5,Masters 1,M,130,130,B,Single-ply,3
R. Lordelot,1952,90,Masters 1,M,175,175,B,Single-ply,1
W. Gilbert,1953,90,Masters 1,M,150,150,B,Single-ply,2
VanDenBlifh,1951,90,Masters 1,M,147.5,147.5,B,Single-ply,3
M. Rybinski,1951,90,Masters 1,M,140,140,B,Single-ply,4
A. Baron,1952,100,Masters 1,M,180,180,B,Single-ply,1
W. Hirsz,1952,100,Masters 1,M,165,165,B,Single-ply,2
G. Kutycki,1952,100,Masters 1,M,157.5,157.5,B,Single-ply,3
Wilamowski,1953,100,Masters 1,M,145,145,B,Single-ply,4
S. Krawczyk,,100,Masters 1,M,140,140,B,Single-ply,5
R. Loziniski,1950,125,Masters 1,M,170,170,B,Single-ply,1
K. Krysscsuk,1952,125,Masters 1,M,130,130,B,Single-ply,2
L.Sprints,,145,Masters 1,M,150,150,B,Single-ply,1
M. Koziol,,145+,Masters 1,M,170,170,B,Single-ply,1
M. Treboulle,1948,60,Masters 2,M,110,110,B,Single-ply,1
R. Kasprzak,1946,60,Masters 2,M,80,80,B,Single-ply,2
R. Doubet,1945,75,Masters 2,M,140,140,B,Single-ply,1
Kloslergaard,1948,82.5,Masters 2,M,170,170,B,Single-ply,1
Nicolean,1948,82.5,Masters 2,M,160,160,B,Single-ply,2
G. Larwe,1945,90,Masters 2,M,150,150,B,Single-ply,1
J. Pajak,1947,90,Masters 2,M,142.5,142.5,B,Single-ply,2
C. Malik,1947,90,Masters 2,M,130,130,B,Single-ply,3
J. Trouiller,1945,100,Masters 2,M,180,180,B,Single-ply,1
M. Figaro,1948,100,Masters 2,M,175,175,B,Single-ply,2
J. Cisak,1945,100,Masters 2,M,140,140,B,Single-ply,3
Ivanee Georgr,1945,110,Masters 2,M,185,185,B,Single-ply,1
Lamareaux,1942,60,Masters 3,M,105,105,B,Single-ply,1
G. Lambert,1939,75,Masters 3,M,132.5,132.5,B,Single-ply,1
C Musso,1942,82.5,Masters 3,M,150,150,B,Single-ply,1
J. Leouemec,1941,90,Masters 3,M,142.5,142.5,B,Single-ply,1
N. Valle,1940,90,Masters 3,M,135,135,B,Single-ply,2
K. Smith,1941,90,Masters 3,M,130,130,B,Single-ply,3
L.Volnin,1936,75,Masters 4,M,127.5,127.5,B,Single-ply,1
D. Brigss,1937,75,Masters 4,M,120,120,B,Single-ply,2
L.Michowicz,1935,75,Masters 4,M,85,85,B,Single-ply,3
B. Leemoine,1936,90,Masters 4,M,135,135,B,Single-ply,1
R. Toms,1935,125,Masters 4,M,142.5,142.5,B,Single-ply,1
T. Vincenzo,1930,60,Masters 5,M,105,105,B,Single-ply,1
A. Myers,1930,82.5,Masters 5,M,105,105,B,Single-ply,1
J. Deyris,1932,110,Masters 5,M,135,135,B,Single-ply,1
J. Fulton,1926,90,Masters 6,M,125,125,B,Single-ply,1
