Place,Sex,Name,Event,Division,WeightClassKg,Equipment,Team,State,BodyweightKg,Squat1Kg,Squat2Kg,Squat3Kg,Best3SquatKg,Bench1Kg,Bench2Kg,Bench3Kg,Best3BenchKg,Deadlift1Kg,Deadlift2Kg,Deadlift3Kg,Best3DeadliftKg,TotalKg,BirthYear
DQ,F,Hannah Opfer,SBD,R-JR,72,Raw,UNL,NE,72,,,,,-47.5,-52.5,-52.5,,70,80,92.5,92.5,,1993
1,M,Scott Bryant,B,R-M1b,120+,Raw,,NE,131.2,,,,,157.5,-175,-175,157.5,,,,,157.5,1969
1,M,Beau Moore #1,B,R-M2a,120+,Raw,,IA,169.4,,,,,227.5,-235,-235,227.5,,,,,227.5,1965
2,M,Beau Moore #1,B,R-M2a,120+,Raw,,IA,169.4,,,,,227.5,-235,-235,227.5,,,,,227.5,1965
3,M,Dave Walker,B,R-M2a,120+,Raw,,IA,121.3,,,,,177.5,-187.5,-187.5,177.5,,,,,177.5,1966
4,M,Clint Jensen,B,R-M2a,120+,Raw,,NE,144.5,,,,,160,165,170,170.0,,,,,170,1964
1,M,Wayne Hammes,B,R-M2b,120+,Raw,,IA,130.7,,,,,177.5,185,-187.5,185.0,,,,,185,1958
1,M,David Sneen,B,R-M3a,120,Raw,,SD,119.2,,,,,-125,170,175,175.0,,,,,175,1955
1,F,Grace Krupa,B,R-JR,52,Raw,,CO,51.4,,,,,32.5,37.5,-42.5,37.5,,,,,37.5,1995
1,F,Katherine Bianchi,B,R-JR,72,Raw,,NE,67.6,,,,,42.5,47.5,-52.5,47.5,,,,,47.5,1994
1,F,Jacquelyn Frost,B,R-O,84,Raw,,NE,73.2,,,,,60,65,72.5,72.5,,,,,72.5,1988
2,F,Brie Frank,B,R-O,84,Raw,,NE,73.5,,,,,57.5,65,-72.5,65.0,,,,,65,1992
1,M,Zachary May,SBD,JR,74,Single-ply,,IA,73.5,207.5,217.5,225,225.0,117.5,127.5,-135,127.5,217.5,227.5,237.5,237.5,590,1994
1,M,David Brown,SBD,M2b,105,Single-ply,,NE,94.2,110,130,140,140.0,70,80,90,90.0,70,82.5,92.5,92.5,322.5,1995
1,M,Daniel Baxter,SBD,O,74,Single-ply,,NE,73.9,175,190,197.5,197.5,110,120,-122.5,120.0,202.5,215,-230,215.0,532.5,1988
1,M,Jared Weers,SBD,O,105,Single-ply,,NE,96.5,217.5,-230,230,230.0,122.5,130,132.5,132.5,215,227.5,230,230.0,592.5,1987
1,M,Nathan Feliciano-Williams,SBD,R-JR,66,Raw,,NE,64.7,-115,115,130,130.0,85,97.5,-102.5,97.5,140,147.5,160,160.0,387.5,1994
1,M,Troy Becker,SBD,R-JR,74,Raw,,NE,73,175,182.5,190,190.0,117.5,125,-130,125.0,230,240,250,250.0,565,1994
2,M,Kevin Carlson,SBD,R-JR,74,Raw,UNL,NE,71,147.5,157.5,165,165.0,125,130,-135,130.0,195,200,205,205.0,500,1995
1,M,Nic Steffl,SBD,R-JR,83,Raw,,NE,82,225,-235,235,235.0,125,130,-132.5,130.0,252.5,265,-272.5,265.0,630,1994
2,M,Nic Steffl,SBD,R-JR,83,Raw,,NE,82,225,-235,235,235.0,125,130,-132.5,130.0,252.5,265,-272.5,265.0,630,1994
3,M,Dominic Pedersen,SBD,R-JR,83,Raw,,NE,82.3,167.5,177.5,182.5,182.5,125,132.5,-137.5,132.5,220,227.5,232.5,232.5,547.5,1992
4,M,Griffin Nuzzo,SBD,R-JR,83,Raw,UNL,NE,80.1,167.5,175,180,180.0,127.5,135,-140,135.0,220,230,-235,230.0,545,1994
1,M,Jared Pelzer,SBD,R-JR,93,Raw,,NE,87.7,185,200,212.5,212.5,120,130,137.5,137.5,232.5,245,260,260.0,610,1994
2,M,Tyson Chromy,SBD,R-JR,93,Raw,,NE,86.3,200,-207.5,,200.0,150,152.5,-157.5,152.5,215,230,-240,230.0,582.5,1995
3,M,Royce Kempnich,SBD,R-JR,93,Raw,,NE,90.2,152.5,160,170,170.0,-125,-125,125,125.0,192.5,205,227.5,227.5,522.5,1994
4,M,Chandler Thompson,SBD,R-JR,93,Raw,UNL,NE,91.3,180,-187.5,-192.5,180.0,102.5,112.5,-125,112.5,182.5,190,197.5,197.5,490,1994
1,M,Steven Milos,SBD,R-JR,105,Raw,,NE,98,230,240,247.5,247.5,155,-165,-165,155.0,230,-237.5,,230.0,632.5,1992
2,M,Steven Milos,SBD,R-JR,105,Raw,,NE,98,230,240,247.5,247.5,155,-165,-165,155.0,230,-237.5,,230.0,632.5,1992
3,M,Samuel Steffl,SBD,R-JR,105,Raw,,SD,101,225,237.5,-247.5,237.5,105,112.5,-117.5,112.5,225,242.5,255,255.0,605,1993
4,M,Nick Petersen,SBD,R-JR,105,Raw,UNL,NE,101.4,185,192.5,200,200.0,115,120,-130,120.0,207.5,225,232.5,232.5,552.5,1995
1,M,Lucas Tobler,SBD,R-M1a,120,Raw,,NE,118.6,210,225,232.5,232.5,135,-145,145,145.0,220,235,250,250.0,627.5,1975
1,M,Scott Bryant,SBD,R-M1b,120+,Raw,,NE,131.2,192.5,210,,210.0,157.5,-175,-175,157.5,207.5,217.5,227.5,227.5,595,1969
1,M,Michael Pruss,SBD,R-M2a,93,Raw,,NE,87.4,110,120,-127.5,120.0,110,-112.5,,110.0,180,190,-192.5,190.0,420,1962
2,M,Dan Chromy,SBD,R-M2a,93,Raw,,NE,89.7,-127.5,127.5,132.5,132.5,105,107.5,-110,107.5,165,167.5,-172.5,167.5,407.5,1962
1,M,Monte Lofing,SBD,R-M2b,74,Raw,,NE,66.7,122.5,137.5,145,145.0,80,85,87.5,87.5,142.5,155,162.5,162.5,395,1958
1,M,Wayne Hammes,SBD,R-M2b,120+,Raw,,IA,130.7,227.5,250,255,255.0,177.5,185,-187.5,185.0,257.5,267.5,-275.5,267.5,707.5,1958
1,M,Joe Noble,SBD,R-M3b,74,Raw,,NE,69.3,102.5,107.5,112.5,112.5,-57.5,60,62.5,62.5,137.5,147.5,,147.5,322.5,1948
1,M,Eric Landau,SBD,R-O,74,Raw,,IA,73.1,157.5,162.5,165,165.0,130,-137.5,137.5,137.5,-190,190,-192.5,190.0,492.5,1986
1,M,Isaac Holscher,SBD,R-O,83,Raw,,NE,81.7,160,170,-185,170.0,-140,145,150,150.0,180,200,227.5,227.5,547.5,1991
2,M,Tyler Guzzo,SBD,R-O,83,Raw,,NE,80.6,150,155,162.5,162.5,107.5,112.5,120,120.0,172.5,182.5,192.5,192.5,475,1991
DQ,M,Jacob Gieselman,SBD,R-O,83,Raw,Capital City Clash 2016 Rev7-Results.xlsx,NE,82.1,167.5,-175,175,175.0,142.5,-145,145,145.0,-205,-205,-205,,,1991
1,M,Bobby Bright,SBD,R-O,93,Raw,,NE,91.2,195,210,-215,210.0,165,-170,172.5,172.5,-232.5,240,-255,240.0,622.5,1986
2,M,Reed Kaus,SBD,R-O,93,Raw,,NE,91.1,202.5,212.5,-217.5,212.5,140,147.5,-152.5,147.5,215,222.5,227.5,227.5,587.5,1989
3,M,Tyler Tostenson,SBD,R-O,93,Raw,,KS,85.7,182.5,192.5,200,200.0,112.5,115,117.5,117.5,202.5,215,220,220.0,537.5,1986
4,M,Jaremy Wagner,SBD,R-O,93,Raw,,NE,90.9,145,-165,-170,145.0,110,-125,-125,110.0,200,227.5,-250,227.5,482.5,1987
5,M,Alex Dominguez,SBD,R-O,93,Raw,,NE,92.5,125,137.5,142.5,142.5,70,80,85,85.0,170,182.5,190,190.0,417.5,1991
1,M,Andrew Beckmann,SBD,R-O,105,Raw,,NE,103,-250,270,-280,270.0,145,150,157.5,157.5,262.5,275,282.5,282.5,710,1983
2,M,Casey Jahns,SBD,R-O,105,Raw,,NE,104,222.5,-232.5,-232.5,222.5,185,190,195,195.0,230,252.5,272.5,272.5,690,1990
3,M,Jacob Hurley,SBD,R-O,105,Raw,,NE,102.8,180,195,-202.5,195.0,135,145,155,155.0,225,252.5,265,265.0,615,1985
4,M,Sean O'Neill,SBD,R-O,105,Raw,,NE,100,212.5,220,-227.5,220.0,130,-140,-140,130.0,232.5,-242.5,-242.5,232.5,582.5,1991
1,M,Josh Ruppert,SBD,R-O,120,Raw,,NE,115.6,240,-255,255,255.0,150,160,-167.5,160.0,260,287.5,-295,287.5,702.5,1985
2,M,Adam Hike,SBD,R-O,120,Raw,,NE,115.3,227.5,237.5,-250,237.5,135,145,-152.5,145.0,235,245,255,255.0,637.5,1986
3,M,Brandon Berry,SBD,R-O,120,Raw,,NE,110.9,180,-192.5,-192.5,180.0,100,105,112.5,112.5,182.5,190,200,200.0,492.5,1981
1,M,Ryan Risner,SBD,R-O,120+,Raw,,OH,148.3,272.5,287.5,295,295.0,195,212.5,-220,212.5,262.5,275,292.5,292.5,800,1983
2,M,Mike Kracl,SBD,R-O,120+,Raw,,NE,123.3,255,-257.5,257.5,257.5,167.5,-170,-170,167.5,255,-260,260,260.0,685,1988
3,M,Zach Zoubek,SBD,R-O,120+,Raw,,NE,126.2,187.5,202.5,217.5,217.5,-142.5,157.5,-175,157.5,-205,205,235,235.0,610,1982
1,M,Tyler Wright,SBD,R-T1,66,Raw,,NE,64.8,-75,75,82.5,82.5,42.5,47.5,-52.5,47.5,107.5,117.5,-137.5,117.5,247.5,1990
1,M,Ira Lampert,SBD,R-T1,83,Raw,COC,NE,79,-125,-125,125,125.0,72.5,80,-82.5,80.0,137.5,147.5,160,160.0,365,2001
1,M,Zane Herley,SBD,R-T1,120,Raw,COC,NE,114.7,92.5,102.5,112.5,112.5,60,65,-67.5,65.0,137.5,-140,-140,137.5,315,2000
1,M,Cade Mlnarik,SBD,R-T2,59,Raw,COC,NE,54.9,52.5,55,-57.5,55.0,35,37.5,40,40.0,97.5,102.5,105,105.0,200,1999
1,M,Ben Cooney,SBD,R-T2,66,Raw,,NE,65.6,135,150,167.5,167.5,85,92.5,-97.5,92.5,165,192.5,-205,192.5,452.5,1998
2,M,Kyle Sisavanh,SBD,R-T2,66,Raw,,NE,65.4,115,137.5,147.5,147.5,87.5,100,-107.5,100.0,175,190,200,200.0,447.5,1998
3,M,Brandon DeBower,SBD,R-T2,66,Raw,,NE,63.9,165,-170,-170,165.0,97.5,100,102.5,102.5,165,170,172.5,172.5,440,1999
1,M,John Apala,SBD,R-T2,93,Raw,,NE,89.1,115,152.5,170,170.0,82.5,-100,105,105.0,157.5,180,195,195.0,470,1998
1,M,Runin Garcia,SBD,R-T3,53,Raw,COC,NE,51.3,72.5,77.5,82.5,82.5,50,55,-57.5,55.0,102.5,110,115,115.0,252.5,1996
1,M,Tate Tobiason,SBD,R-T3,74,Raw,UNL,NE,72.3,160,170,175,175.0,-85,-85,90,90.0,200,215,-227.5,215.0,480,1997
1,M,Alexander Cristobal,SBD,R-T3,93,Raw,UNL,IL,91.8,175,187.5,-197.5,187.5,110,115,-120,115.0,207.5,215,-227.5,215.0,517.5,1996
1,M,Lee Landrum,SBD,R-T3,105,Raw,,NE,95.3,142.5,-152.5,170,170.0,87.5,117.5,-127.5,117.5,142.5,167.5,190,190.0,477.5,1996
1,M,Wyatt Shabram,SBD,R-Y1,30,Raw,COC,NE,29,30,35,-37.5,35.0,20,22.5,25,25.0,45,50,55,55.0,115,2006
1,M,Gunnar Shabram,SBD,R-Y2,59,Raw,COC,NE,57.5,50,55,57.5,57.5,30,32.5,-35,32.5,62.5,70,-80,70.0,160,2004
1,M,Zayne Francis,SBD,R-Y3,93,Raw,,SD,87.4,100,110,-115,110.0,57.5,60,-65,60.0,142.5,160,170,170.0,340,2002
1,M,Michael Nichols,SBD,T1,59,Single-ply,WWA,IA,59,135,-150,-150,135.0,-92.5,92.5,-105,92.5,135,150,160,160.0,387.5,1945
2,M,Jordan Sloan,SBD,T1,59,Single-ply,WWA,IA,53.1,67.5,77.5,-87.5,77.5,42.5,47.5,-55,47.5,100,110,-117.5,110.0,235,2001
1,M,Jabari Walls,SBD,T1,74,Single-ply,WWA,IA,66.6,-112.5,112.5,130,130.0,80,-90,90,90.0,167.5,180,-195,180.0,400,2000
1,M,Edmond Gonzales,SBD,T2,53,Single-ply,WWA,IA,51.2,150,170,-182.5,170.0,115,-130,-130,115.0,177.5,185,200,200.0,485,1999
2,M,Jonathan McClain,SBD,T2,53,Single-ply,WWA,IA,48.7,77.5,87.5,-95,87.5,47.5,52.5,-57.5,52.5,92.5,-127.5,-127.5,92.5,232.5,1999
1,M,Jarius Penn,SBD,T2,66,Single-ply,,IA,62.8,97.5,-112.5,-112.5,97.5,77.5,-87.5,-87.5,77.5,145,160,-200,160.0,335,1999
1,M,James Johnson,SBD,T2,83,Single-ply,WWA,IA,78.9,157.5,177.5,195,195.0,107.5,-117.5,117.5,117.5,155,167.5,182.5,182.5,495,1990
2,M,Trey Fucaloro,SBD,T2,83,Single-ply,WWA,IA,80.1,142.5,162.5,-175,162.5,100,112.5,-125,112.5,157.5,170,182.5,182.5,457.5,1999
1,M,Asa Campbell,SBD,T2,93,Single-ply,,IA,85.7,120,135,-152.5,135.0,97.5,110,-120,110.0,157.5,-187.5,187.5,187.5,432.5,1999
1,M,Walker Julious,SBD,T2,120,Single-ply,WWA,IA,108.8,280,300,315,315.0,147.5,167.5,-177.5,167.5,262.5,285,-295,285.0,767.5,1999
1,M,James Allen,SBD,T2,120+,Single-ply,WWA,IA,136.4,157.5,177.5,182.5,182.5,117.5,132.5,-142.5,132.5,157.5,-177.5,177.5,177.5,492.5,1995
1,M,Justin Allemang,SBD,T3,74,Single-ply,COC,NE,66.3,117.5,-125,-125,117.5,75,77.5,-82.5,77.5,175,182.5,-185,182.5,377.5,1997
1,F,Katey Dodge,SBD,O,84+,Single-ply,,NE,104.7,165,-177.5,177.5,177.5,120,125,-130,125.0,160,-175,175,175.0,477.5,1981
1,F,Grace Krupa,SBD,R-JR,52,Raw,,CO,51.4,35,40,45,45.0,32.5,37.5,-42.5,37.5,55,62.5,-67.5,62.5,145,1995
1,F,Jessica Halligan,SBD,R-JR,84,Raw,,NE,73.8,87.5,95,-100,95.0,-42.5,45,-50,45.0,107.5,112.5,122.5,122.5,262.5,1992
1,F,Megan Martin,SBD,R-M1b,72,Raw,,NE,70.5,90,-107.5,-107.5,90.0,52.5,-60,-60,52.5,127.5,140,150,150.0,292.5,1967
1,F,Marni Frandson,SBD,R-O,47,Raw,,NE,46.9,65,72.5,77.5,77.5,35,40,-45,40.0,77.5,87.5,95,95.0,212.5,1980
1,F,Sadie Oppegard,SBD,R-O,63,Raw,,NE,57.5,92.5,97.5,105,105.0,55,60,-62.5,60.0,117.5,127.5,132.5,132.5,297.5,1988
1,F,Lilly Adams,SBD,R-O,72,Raw,,MD,63.1,90,95,100,100.0,57.5,-60,-60,57.5,115,122.5,127.5,127.5,285,1987
1,F,Jacquelyn Frost,SBD,R-O,84,Raw,,NE,73.2,-95,105,-112.5,105.0,60,65,72.5,72.5,110,120,130,130.0,307.5,1988
1,F,Amanda Pospisil,SBD,R-O,84+,Raw,,NE,119.9,180,190,200,200.0,97.5,102.5,107.5,107.5,175,-182.5,182.5,182.5,490,1986
DQ,F,Ashley Hustad,SBD,R-O,84+,Raw,,NE,101,-100,-100,-105,,52.5,55,-60,55.0,115,125,-137.5,125.0,,1981
1,F,Samee Kaus,SBD,R-T2,84+,Raw,,NE,85.9,-127.5,130,-137.5,130.0,60,67.5,-70,67.5,140,150,-157.5,150.0,347.5,1999
1,F,Faith Vawter,SBD,R-T3,84,Raw,UNL,NE,72.7,67.5,75,-80,75.0,50,55,-60,55.0,92.5,102.5,107.5,107.5,237.5,1996
1,F,JoBeth Humphries,SBD,R-T3,84+,Raw,COC,NE,109.3,-50,50,-55,50.0,42.5,-47.5,-47.5,42.5,-102.5,102.5,-107.5,102.5,195,1997
DQ,F,Abbie Leschinsky,SBD,R-T3,84+,Raw,UNL,NE,92.4,-127.5,-127.5,-127.5,,77.5,80,85,85.0,135,140,145,145.0,,1997
1,F,Faith Woslager,SBD,T2,63,Single-ply,COC,NE,59.1,42.5,45,47.5,47.5,30,-32.5,,30.0,77.5,,,77.5,155,1999
1,M,Mathew Peter,BD,R-O,120+,Raw,,NE,148,,,,,170,-182.5,-182.5,170.0,265,,,265.0,435,1989
