Name,Team,Division,Sex,Equipment,Event,BodyweightKg,WeightClassKg,Squat1Kg,Squat2Kg,Squat3Kg,Best3SquatKg,Bench1Kg,Bench2Kg,Bench3Kg,Best3BenchKg,Deadlift1Kg,Deadlift2Kg,Deadlift3Kg,Best3DeadliftKg,TotalKg,Place,Age
Jenny Hunter,East Midlands,F-C,F,Raw,SBD,52.6,57,65,75,80,80,50,57.5,62.5,62.5,100,110,120,120,262.5,2,60
Jackie Blasbery,East Midlands,F-C,F,Raw,SBD,89,84+,70,90,110,110,60,70,80,80,100,125,150,150,340,2,55
Paula Gentle,East Midlands,F-C,F,Raw,SBD,64.6,72,105,110,112.5,112.5,52.5,55,-57.5,55,132.5,142.5,-145,142.5,310,2,48
Sarah Marsden,East Midlands,F-C,F,Raw,SBD,83.9,84,127.5,135,-140,135,65,70,75,75,130,140,145,145,355,2,46
Mona Holm Furulund Smith,South Midlands,F-C,F,Raw,SBD,68,72,65,67.5,70,70,35,37.5,40,40,85,90,95,95,205,3,50
Galit Goldschmid,South Midlands,F-C,F,Raw,SBD,61.5,63,95,102.5,105,105,75,80,-85,80,135,145,155,155,340,3,41
Denise Westbrook,South Midlands,F-C,F,Raw,SBD,74.7,84,50,55,-60,55,37.5,40,42.5,42.5,90,95,100,100,197.5,3,45
Helen Hughes #1,South Midlands,F-C,F,Raw,SBD,56,57,105,112.5,117.5,117.5,-75,77.5,80,80,125,130,135,135,332.5,3,42
Michelle Franklin,North Midlands,F-C,F,Raw,SBD,55.7,57,85,92.5,95,95,47.5,52.5,55,55,115,122.5,130,130,280,2,52
Christine Tempest,North Midlands,F-C,F,Raw,SBD,85.6,84+,60,-62.5,-62.5,60,37.5,40,42.5,42.5,80,85,92.5,92.5,195,2,55
Wendie Kirkland,North Midlands,F-C,F,Raw,SBD,71.3,72,110,115,120,120,62.5,67.5,72.5,72.5,125,132.5,140,140,332.5,2,46
Nicola Maycock,North Midlands,F-C,F,Raw,SBD,83.1,84,90,-100,100,100,50,55,57.5,57.5,110,120,127.5,127.5,285,2,46
Sue Giles,North Midlands,F-C,F,Raw,SBD,74.8,84,90,100,107.5,107.5,55,60,-62.5,60,105,115,-122.5,115,282.5,2,58
Allen Ottolangui,East Midlands,M-C,M,Raw,SBD,73.9,74,150,160,170,170,90,95,100,100,175,190,-200,190,460,1,58
Andrew Rodney,East Midlands,M-C,M,Raw,SBD,119.9,120,160,200,,200,130,140,150,150,220,250,,250,600,1,53
Tony Wightman,East Midlands,M-C,M,Raw,SBD,84.6,93,130,135,137.5,137.5,80,85,-87.5,85,165,172.5,175,175,397.5,1,66
Chris Gladding,East Midlands,M-C,M,Raw,SBD,108.7,120,125,130,135,135,100,105,110,110,145,155,162.5,162.5,407.5,1,77
Neil Butler,East Midlands,M-C,M,Raw,SBD,85.6,93,150,155,160,160,95,100,105,105,180,190,200,200,465,1,53
Roger H Smith,South Midlands,M-C,M,Raw,SBD,67.6,74,160,167.5,172.5,172.5,105,112.5,115,115,210,220,225,225,512.5,2,43
David Purkiss,South Midlands,M-C,M,Raw,SBD,89.1,93,45,-55,65,65,-65,70,75,75,-80,-80,80,80,220,2,73
David Horne,South Midlands,M-C,M,Raw,SBD,83,83,120,125,135,135,80,90,97.5,97.5,160,180,200,200,432.5,2,51
Philip Varcas,South Midlands,M-C,M,Raw,SBD,95.9,105,150,155,160,160,115,120,125,125,170,175,180,180,465,2,43
Mick James,South Midlands,M-C,M,Raw,SBD,64.8,66,60,-100,100,100,95,100,-102.5,100,135,155,165,165,365,2,69
Richard Gough,North Midlands,M-C,M,Raw,SBD,139.4,120+,95,105,-110,105,77.5,82.5,-85,82.5,130,135,137.5,137.5,325,3,43
Glyn Belsher,North Midlands,M-C,M,Raw,SBD,91.8,93,115,-120,,115,85,95,105,105,130,140,,140,360,3,60
Richard Scott,North Midlands,M-C,M,Raw,SBD,90.6,93,150,157.5,-162.5,157.5,95,100,105,105,170,180,185,185,447.5,3,56
Marc Giles,North Midlands,M-C,M,Raw,SBD,104.1,105,120,,,120,155,-172.5,-172.5,155,160,190,210,210,485,3,54
