Place,Name,Sex,Event,Division,WeightClassKg,Equipment,BirthYear,State,BodyweightKg,Squat1Kg,Squat2Kg,Squat3Kg,Best3SquatKg,Bench1Kg,Bench2Kg,Bench3Kg,Best3BenchKg,Deadlift1Kg,Deadlift2Kg,Deadlift3Kg,Best3DeadliftKg,TotalKg
1,Skiera Rockey,F,SBD,R-JR,43,Raw,1997,OH,42.55,55,60,62.5,62.5,25,27.5,30,30,75,85,90,90,182.5
1,Ashley Jerue,F,SBD,R-JR,63,Raw,1995,OH,61.55,100,-107.5,-107.5,100,70,-77.5,-82.5,70,120,130,137.5,137.5,307.5
2,Iman Qamar,F,SBD,R-JR,63,Raw,1995,OH,59.5,75,-80,82.5,82.5,42.5,47.5,50,50,92.5,97.5,105,105,237.5
1,Kodi Humphrey,F,SBD,R-JR,72,Raw,1995,MI,71.15,130,137.5,147.5,147.5,70,75,80,80,145,155,162.5,162.5,390
1,Wendy Shoemaker,F,SBD,R-M2,84+,Raw,1959,IN,101.15,-110,110,-120,110,67.5,-75,75,75,130,140,-150,140,325
1,Jeannie Ward,F,SBD,R-O,57,Raw,1983,OH,56.2,67.5,75,-80,75,37.5,42.5,45,45,70,80,87.5,87.5,207.5
1,Cailah Brock,F,SBD,R-O,63,Raw,1987,OH,60.8,97.5,102.5,-107.5,102.5,55,60,62.5,62.5,-122.5,125,130,130,295
1,Hattie McDaniel,F,SBD,R-O,72,Raw,1993,IN,70.7,137.5,142.5,-147.5,142.5,75,-80,-80,75,140,150,155,155,372.5
1,Katie Burkhardt,F,SBD,R-O,84,Raw,1981,OH,81.7,105,107.5,-110,107.5,60,62.5,65,65,107.5,112.5,117.5,117.5,290
1,Chris Yi,M,SBD,R-JR,66,Raw,1999,OH,65.75,-127.5,127.5,-135,127.5,92.5,97.5,100,100,155,160,165,165,392.5
1,Shibo Zhuo,M,SBD,R-JR,74,Raw,1997,OH,70.25,160,,,160,100,105,110,110,170,,,170,440
1,Ciaran Deyoe,M,SBD,R-JR,83,Raw,1998,OH,80.95,190,195,200,200,115,120,-125,120,227.5,237.5,-247.5,237.5,557.5
2,Connor Mckenney,M,SBD,R-JR,83,Raw,1997,OH,81.8,132.5,140,147.5,147.5,90,97.5,-102.5,97.5,180,192.5,-197.5,192.5,437.5
1,Joseph Stanek,M,SBD,R-JR,93,Raw,1994,PA,92.05,205,217.5,227.5,227.5,130,137.5,142.5,142.5,237.5,-250,-250,237.5,607.5
2,Joseph Ludewig,M,SBD,R-JR,93,Raw,1997,OH,91.6,-185,-185,185,185,117.5,122.5,-125,122.5,227.5,-235,,227.5,535
3,PT Yager,M,SBD,R-JR,93,Raw,1996,OH,83.1,165,175,182.5,182.5,120,127.5,135,135,185,200,207.5,207.5,525
4,Zachary Fritz,M,SBD,R-JR,93,Raw,1996,OH,92.95,160,167.5,172.5,172.5,122.5,-127.5,127.5,127.5,175,-185,-192.5,175,475
1,Brandon Payne,M,SBD,R-JR,105,Raw,1995,OH,103.8,250,267.5,-285,267.5,142.5,160,175,175,295,317.5,335,335,777.5
2,Nicholas Rakich,M,SBD,R-JR,105,Raw,1995,OH,104.5,210,225,237.5,237.5,152.5,160,-172.5,160,237.5,262.5,-272.5,262.5,660
1,Alex Logsdon,M,SBD,R-JR,120,Raw,1995,OH,119.65,192.5,,,192.5,130,-137.5,,130,215,-230,,215,537.5
1,Robert Wilson,M,SBD,R-JR,120+,Raw,1997,OH,149.7,237.5,257.5,272.5,272.5,170,177.5,187.5,187.5,240,260,-272.5,260,720
2,Dakota Drescher,M,SBD,R-JR,120+,Raw,1996,OH,134.05,257.5,272.5,285,285,167.5,175,185,185,227.5,-247.5,-255,227.5,697.5
1,Jeffrey Nill,M,SBD,R-M1,93,Raw,1970,OH,92.2,125,135,137.5,137.5,80,82.5,85,85,160,165,-170,165,387.5
1,Brian Fitzharris,M,SBD,R-M1,105,Raw,1977,OH,103.45,192.5,215,227.5,227.5,135,147.5,-155,147.5,210,227.5,235,235,610
1,Michael Feldhaus,M,SBD,R-M2,74,Raw,1966,OH,70.85,137.5,142.5,155,155,127.5,140,-142.5,140,147.5,162.5,172.5,172.5,467.5
1,Kirk Wiley,M,SBD,R-M2,105,Raw,1965,MI,103.9,152.5,170,187.5,187.5,-102.5,107.5,110,110,172.5,187.5,195,195,492.5
1,Bruce Steingass,M,SBD,R-M3,83,Raw,1957,OH,79.35,105,112.5,125,125,125,-130,-130,125,150,165,-170,165,415
1,Taylor Schneider,M,SBD,R-O,66,Raw,1992,OH,62.8,157.5,165,172.5,172.5,97.5,107.5,112.5,112.5,185,190,197.5,197.5,482.5
1,Christian Hupp,M,SBD,R-O,74,Raw,2000,OH,73.5,170,180,-182.5,180,-102.5,107.5,-110,107.5,175,190,200,200,487.5
1,Jason Welch,M,SBD,R-O,83,Raw,1991,OH,82.9,-222.5,230,-232.5,230,112.5,-117.5,117.5,117.5,225,-232.5,-232.5,225,572.5
2,Ryan Bunker,M,SBD,R-O,83,Raw,1990,OH,82.65,202.5,215,220,220,135,142.5,-147.5,142.5,205,-217.5,-217.5,205,567.5
3,Matthew Baumer,M,SBD,R-O,83,Raw,2001,KY,81.1,185,190,195,195,120,127.5,-130,127.5,227.5,235,-245,235,557.5
4,Arlie Turner,M,SBD,R-O,83,Raw,1993,OH,79.45,177.5,187.5,-192.5,187.5,107.5,117.5,-127.5,117.5,217.5,227.5,235,235,540
5,Adam Rubin,M,SBD,R-O,83,Raw,1993,OH,78.8,167.5,180,182.5,182.5,110,115,117.5,117.5,202.5,215,-217.5,215,515
1,Carlos Pantoja,M,SBD,R-O,93,Raw,1994,IN,85.1,-220,220,237.5,237.5,160,-165,165,165,267.5,272.5,277.5,277.5,680
2,Justin Frazier,M,SBD,R-O,93,Raw,1993,IN,87.3,210,220,227.5,227.5,135,140,142.5,142.5,242.5,-255,257.5,257.5,627.5
3,Shane O'Mara,M,SBD,R-O,93,Raw,1990,MI,90.35,177.5,187.5,200,200,-122.5,127.5,135,135,230,245,257.5,257.5,592.5
4,Eric Montealegre,M,SBD,R-O,93,Raw,1987,OH,92.65,-185,185,200,200,-137.5,-142.5,142.5,142.5,227.5,235,-252.5,235,577.5
5,Greg Barber,M,SBD,R-O,93,Raw,1981,KY,90.95,162.5,-170,-170,162.5,147.5,-155,-155,147.5,200,212.5,-227.5,212.5,522.5
6,John Baumann,M,SBD,R-O,93,Raw,1994,OH,90.4,165,170,182.5,182.5,102.5,107.5,-112.5,107.5,185,195,197.5,197.5,487.5
1,Derek Mortensen,M,SBD,R-O,120+,Raw,1985,OH,124.1,240,255,257.5,257.5,172.5,185,192.5,192.5,262.5,277.5,-282.5,277.5,727.5
1,Scott Enzweiler,M,SBD,R-T2,66,Raw,2001,OH,63.4,107.5,117.5,122.5,122.5,70,77.5,-82.5,77.5,162.5,175,182.5,182.5,382.5
1,Jacob Finn,M,SBD,R-T2,93,Raw,2002,OH,86.4,122.5,140,-150,140,77.5,92.5,-97.5,92.5,140,157.5,-177.5,157.5,390
1,Clay Cotman,M,SBD,R-T3,83,Raw,2000,OH,82.2,165,175,-182.5,175,100,105,-112.5,105,210,220,227.5,227.5,507.5
2,Mason Montgomery,M,SBD,R-T3,83,Raw,2000,IN,81.6,160,167.5,172.5,172.5,95,97.5,-100,97.5,190,200,210,210,480
