Name,Age,Event,Sex,Division,Equipment,BodyweightKg,WeightClassKg,Squat1Kg,Squat2Kg,Squat3Kg,Best3SquatKg,Bench1Kg,Bench2Kg,Bench3Kg,Best3BenchKg,Deadlift1Kg,Deadlift2Kg,Deadlift3Kg,Best3DeadliftKg,TotalKg,Place
Bonnie Meerschaert,41,SBD,F,Masters 1,Wraps,58.38,60,100,110,-117.5,110,52.5,-60,-60,52.5,105,112.5,115,115,277.5,1
Brittany Demmer,19,SBD,F,Teen 3-AD,Wraps,77.38,82.5,142.5,152.5,-165,152.5,72.5,82.5,-87.5,82.5,165,182.5,195,195,430,1
Brittany Hammond,35,SBD,F,Open-AD,Wraps,51.71,52,72.5,87.5,-97.5,87.5,52.5,-57.5,-57.5,52.5,100,110,120,120,260,1
Ashley Woods,27,SBD,F,Open-AD,Wraps,84.01,90,107.5,112.5,-120,112.5,70,75,-82.5,75,120,130,-137.5,130,317.5,1
Jennifer Gimmell,30,SBD,F,Open,Multi-ply,95.62,90+,-200,200,227.5,227.5,55,110,-122.5,110,150,162.5,-172.5,162.5,500,1
Rob Buchla,47,SBD,M,Masters 2,Wraps,95.8,100,60,,,60,125,-155,-155,125,70,,,70,255,1
Korey Pfeiffer,40,SBD,M,Masters 1,Wraps,89.22,90,230,245,-252.5,245,185,195,202.5,202.5,232.5,250,272.5,272.5,720,1
Mark Willing,44,SBD,M,Masters 1,Wraps,98.2,100,205,-222.5,230,230,150,165,-172.5,165,227.5,245,,245,640,1
Ernie Lillibridge Sr,39,SBD,M,Submasters,Wraps,139.71,140,300,320,327.5,327.5,200,215,,215,300,325,-345,325,867.5,1
Jordan Lentz,20,SBD,M,Juniors,Wraps,81.01,82.5,207.5,220,227.5,227.5,142.5,152.5,-157.5,152.5,235,257.5,-260,257.5,637.5,1
Bobby Hickson,22,SBD,M,Juniors,Wraps,85.41,90,147.5,167.5,-175,167.5,75,-77.5,-77.5,75,187.5,212.5,-217.5,212.5,455,1
Ernie Lilliebridge Jr,23,SBD,M,Juniors,Wraps,99.2,100,250,275,287.5,287.5,165,182.5,-190,182.5,300,322.5,-327.5,322.5,792.5,1
Dave Nelson,22,SBD,M,Juniors,Wraps,93.98,100,247.5,265,272.5,272.5,167.5,182.5,-190,182.5,257.5,,,257.5,712.5,2
Brandon Cunningham,20,SBD,M,Juniors,Wraps,93.39,100,142.5,162.5,-170,162.5,95,105,-110,105,165,185,195,195,462.5,3
Adam Windschitl,21,SBD,M,Juniors,Wraps,104.6,110,170,182.5,195,195,102.5,110,120,120,207.5,232.5,240,240,555,1
Spencer Behne,19,SBD,M,Teen 3,Wraps,89.81,90,207.5,220,230,230,137.5,145,152.5,152.5,237.5,255,-272.5,255,637.5,1
Chris Hickson,19,SBD,M,Teen 3,Wraps,124.74,125,-272.5,-282.5,282.5,282.5,137.5,147.5,-155,147.5,320,350,-372.5,350,780,1
Kevin Heitz,49,SBD,M,Masters 2-AD,Wraps,98.2,100,157.5,167.5,182.5,182.5,110,117.5,-125,117.5,165,175,185,185,485,1
Andy Siar,23,SBD,M,Juniors-AD,Wraps,98.61,100,247.5,262.5,275,275,160,-167.5,,160,242.5,260,-275,260,695,1
Cody Treft,20,SBD,M,Juniors-AD,Wraps,95.62,100,205,-220,220,220,127.5,140,-145,140,285,-310,310,310,670,2
Tyrel Detweiler,22,SBD,M,Juniors-AD,Wraps,124.78,125,185,195,212.5,212.5,-115,120,-130,120,212.5,222.5,232.5,232.5,565,1
Colton Magers,17,SBD,M,Teen 1-AD,Wraps,68.81,82.5,187.5,-200,-200,187.5,95,-102.5,-102.5,95,182.5,-192.5,192.5,192.5,475,1
A.J. Kneppers,28,SBD,M,Open-AD,Wraps,73.8,82.5,-175,175,-197.5,175,102.5,110,-115,110,207.5,230,235,235,520,1
Jason Eggers,30,SBD,M,Open-AD,Wraps,88.81,90,227.5,240,-260,240,137.5,-147.5,-152.5,137.5,240,250,-260,250,627.5,1
Steve Sass,35,SBD,M,Open-AD,Wraps,97.2,100,205,217.5,,217.5,147.5,155,-160,155,245,265,275,275,647.5,1
Drew Strube,28,SBD,M,Open-AD,Wraps,109.18,110,247.5,-267.5,-272.5,247.5,155,,,155,242.5,267.5,-277.5,267.5,670,1
Carlo Brewster,38,SBD,M,Open-AD,Wraps,124.19,125,-250,272.5,285,285,185,200,-215,200,227.5,260,280,280,765,1
James Cahill,38,SBD,M,Open-AD,Wraps,137.8,140,265,290,300,300,180,190,195,195,280,315,337.5,337.5,832.5,1
Brad Madvig,37,SBD,M,Open-AD,Wraps,161.62,140+,292.5,315,335,335,205,215,225,225,295,315,325,325,885,1
Erv Domanski,40,SBD,M,Open-AD,Multi-ply,88.99,90,285,305,-327.5,305,175,-185,-195,175,247.5,265,-282.5,265,745,1
Wes Keith,31,SBD,M,Open,Wraps,74.62,82.5,-192.5,192.5,202.5,202.5,150,155,-160,155,227.5,230,272.5,272.5,630,1
Wille Albert,31,SBD,M,Open,Wraps,80.38,82.5,260,275,282.5,282.5,-155,155,165,165,295,-325,-325,295,742.5,1
Tony Runde,30,SBD,M,Open,Wraps,88.59,90,277.5,-295,-310,277.5,152.5,167.5,180,180,257.5,270,275,275,732.5,1
Justin Heimer,25,SBD,M,Open,Wraps,89.58,90,232.5,-255,255,255,-142.5,-147.5,147.5,147.5,250,272.5,-287.5,272.5,675,2
Kyle Messerly,25,SBD,M,Open,Wraps,89.58,90,-300,-330,-330,,,,,,,,,,,DQ
Ernie Lilliebridge Jr,23,SBD,M,Open,Wraps,99.2,100,250,275,287.5,287.5,165,182.5,-190,182.5,300,322.5,-327.5,322.5,792.5,1
Patrick Warren,25,SBD,M,Open,Wraps,98.38,100,190,202.5,215,215,137.5,-147.5,-152.5,137.5,235,257.5,267.5,267.5,620,2
Ben Goyette,29,SBD,M,Open,Wraps,99.61,100,-220,220,-227.5,220,147.5,-165,-165,147.5,207.5,230,-255,230,597.5,3
Mark Boland,33,SBD,M,Open,Wraps,95.8,100,130,137.5,142.5,142.5,110,115,-117.5,115,197.5,212.5,227.5,227.5,485,4
Abe Weins,25,SBD,M,Open,Wraps,109.77,110,227.5,250,265,265,160,-175,175,175,282.5,295,305,305,745,1
Tim Filus,29,SBD,M,Open,Wraps,106.59,110,262.5,275,-285,275,162.5,170,-177.5,170,272.5,282.5,-295,282.5,727.5,2
Jesse Brill,30,SBD,M,Open,Wraps,109.77,110,227.5,-237.5,-255,227.5,157.5,160,-167.5,160,210,227.5,-245,227.5,615,3
Eric Lilliebridge,21,SBD,M,Juniors,Wraps,118.8,125,-320,347.5,365,365,205,227.5,237.5,237.5,320,345,365,365,967.5,1
Cameron Richler,30,SBD,M,Open,Wraps,119.2,125,285,-300,-300,285,167.5,177.5,-187.5,177.5,255,265,275,275,737.5,3
Matt Fredericks,34,SBD,M,Open,Wraps,130,140,227.5,-237.5,-237.5,227.5,155,162.5,167.5,167.5,207.5,222.5,-227.5,222.5,617.5,2
Bret Oswald,25,SBD,M,Open,Wraps,149.01,140+,285,310,325,325,165,182.5,-192.5,182.5,295,-320,330,330,837.5,1
John Wood,58,SBD,M,Masters 4,Multi-ply,108.41,110,-302.5,302.5,-317.5,302.5,217.5,227.5,232.5,232.5,227.5,,,227.5,762.5,1
Brad Saunders,48,SBD,M,Masters 2,Multi-ply,115.21,125,-290,-290,-322.5,,,,,,,,,,,DQ
Tony Chirico,41,SBD,M,Masters 1,Multi-ply,108,110,-350,-350,,,,,,,,,,,,DQ
Dwayne Warren,21,SBD,M,Juniors,Multi-ply,108.18,110,352.5,370,372.5,372.5,250,267.5,275,275,275,287.5,-300,287.5,935,1
Jeff Adkins,29,SBD,M,Open,Multi-ply,89.81,90,-347.5,347.5,365,365,267.5,280,-285,280,272.5,292.5,-310,292.5,937.5,1
Kyle Nadrchal,28,SBD,M,Open,Multi-ply,99.2,100,310,332.5,347.5,347.5,-227.5,227.5,240,240,237.5,257.5,265,265,852.5,1
Justin Graalfs,32,SBD,M,Open,Multi-ply,109.18,110,437.5,465,-477.5,465,-280,280,-290,280,347.5,-365,365,365,1110,1
Josh Beauregard,26,SBD,M,Open,Multi-ply,108,110,335,-350,-350,335,,,,,,,,,,DQ
Tony Chirico,41,SBD,M,Open,Multi-ply,108,110,-350,-350,,,,,,,,,,,,DQ
Marshall Johnson,28,SBD,M,Open,Multi-ply,123.51,125,-442.5,442.5,472.5,472.5,277.5,297.5,-320,297.5,-352.5,-352.5,-352.5,,,DQ
Anthony Carlquist,32,SBD,M,Open,Multi-ply,121.38,125,-442.5,-455,-455,,,,,,,,,,,DQ
Jim Grandick,42,SBD,M,Open,Multi-ply,123.2,125,-425,425,440,440,-332.5,-332.5,-332.5,,,,,,,DQ
Mike Neuendorf,21,SBD,M,Open,Multi-ply,125.6,140,365,-375,375,375,257.5,-262.5,-262.5,257.5,287.5,307.5,-320,307.5,940,1
Neil Heisick,28,SBD,M,Open,Multi-ply,126.42,140,-365,-365,365,365,252.5,267.5,-272.5,267.5,272.5,-282.5,-282.5,272.5,905,2
Wally Hayward,57,D,M,Masters 4,Raw,83.2,90,,,,,,,,,,,,,,DQ
Adam Becker,22,D,M,Juniors,Raw,81.2,82.5,,,,,,,,,215,227.5,235,235,235,1
Marcus DeVore,23,D,M,Juniors,Raw,139.2,140,,,,,,,,,282.5,-317.5,-317.5,282.5,282.5,1
Frankie Santoro,18,D,M,Teen 3,Multi-ply,109.8,110,,,,,,,,,295,-320,-320,295,295,1
Wally Hayward,57,D,M,Masters 4,Raw,83.2,90,,,,,,,,,145,162.5,172.5,172.5,172.5,1
Jennifer Foster,27,BD,F,Open-AD,Raw,58.6,60,,,,,52.5,60,-62.5,60,130,-145,145,145,205,1
Katie Highland,32,BD,F,Open-AD,Raw,58.2,60,,,,,52.5,-60,60,60,102.5,112.5,120,120,180,2
Don Gulling,45,BD,M,Masters 2-AD,Raw,116.8,125,,,,,140,147.5,155,155,220,232.5,242.5,242.5,397.5,1
Sean Pua,21,BD,M,Juniors,Raw,52.62,56,,,,,-110,-110,-110,,155,175,-182.5,175,,DQ
Alex Baldwin,22,BD,M,Juniors,Raw,68.22,82.5,,,,,92.5,-97.5,-97.5,92.5,127.5,-142.5,-142.5,127.5,220,1
Joey Welsh,18,BD,M,Teen 3,Raw,87,90,,,,,142.5,-147.5,-147.5,142.5,232.5,247.5,-255,247.5,390,1
Josh Lopez,16,BD,M,Teen 2,Raw,72.98,82.5,,,,,92.5,-97.5,-97.5,92.5,175,190,-200,190,282.5,1
Andrew Fraczek,16,BD,M,Teen 2,Raw,75.8,82.5,,,,,72.5,82.5,-87.5,82.5,-147.5,152.5,-170,152.5,235,1
Quentin Septer,16,BD,M,Teen 2,Raw,86.59,90,,,,,117.5,-122.5,-122.5,117.5,227.5,-245,-245,227.5,345,1
Sam Wilson,15,BD,M,Teen 1,Raw,63.59,67.5,,,,,67.5,75,-85,75,102.5,115,125,125,200,1
Sam Fuentes,15,BD,M,Teen 1,Raw,87.18,90,,,,,85,-100,-100,85,125,140,145,145,230,1
Adam Cornelis,26,BD,M,Open,Raw,88.59,90,,,,,142.5,155,-165,155,227.5,250,275,275,430,1
Ryan Feuerhammer,31,BD,M,Open,Raw,97.39,100,,,,,157.5,-165,-170,157.5,255,275,-292.5,275,432.5,1
Jacob Prater,31,BD,M,Open,Raw,98.38,100,,,,,125,137.5,-142.5,137.5,237.5,255,-265,255,392.5,2
Paul Gonzalez,28,BD,M,Open,Raw,97.79,100,,,,,137.5,142.5,-150,142.5,222.5,235,245,245,387.5,3
Jason Weipert,28,BD,M,Open,Raw,99.79,100,,,,,115,120,-130,120,242.5,255,-265,255,375,4
Ryan Murphy,39,BD,M,Submasters,Multi-ply,135.81,140,,,,,182.5,200,-207.5,200,227.5,260,272.5,272.5,472.5,1
Phil Schultz,45,BD,M,Open,Multi-ply,105.19,110,,,,,267.5,-300,-300,267.5,290,-305,-305,290,557.5,1
Frank Tekautz,40,BD,M,Open,Multi-ply,105.78,110,,,,,175,187.5,-192.5,187.5,287.5,322.5,-327.5,322.5,510,2
Byron Hicks,34,BD,M,Open,Multi-ply,121.79,125,,,,,-250,250,-272.5,250,275,,,275,525,1
Wiley Rung,30,BD,M,Open,Multi-ply,133.81,140,,,,,262.5,-285,-285,262.5,257.5,272.5,-280,272.5,535,1
Peter Cade,50,B,M,Masters 3-AD,Raw,85.41,90,,,,,-150,-150,-150,,,,,,,DQ
Mark Hauschildt,34,B,M,Submasters-AD,Raw,111.9,125,,,,,227.5,-235,-235,227.5,,,,,227.5,1
Karl Heille,45,B,M,Masters 2,Raw,87.41,90,,,,,130,-135,-135,130,,,,,130,1
Dan Banwarth,48,B,M,Masters 2,Raw,135.99,140,,,,,167.5,-182.5,182.5,182.5,,,,,182.5,1
Shawn Berneman,41,B,M,Masters 1,Raw,112.99,125,,,,,160,165,-172.5,165,,,,,165,1
Scott Marsiglio,38,B,M,Submasters,Raw,89.58,90,,,,,140,145,147.5,147.5,,,,,147.5,1
Jace Beauchaine,21,B,M,Juniors,Raw,73.21,82.5,,,,,125,132.5,-137.5,132.5,,,,,132.5,1
Andrew Bahr,22,B,M,Juniors,Raw,108,110,,,,,192.5,200,205,205,,,,,205,1
Brandon Baumann,17,B,M,Teen 2,Raw,96.8,100,,,,,125,135,-142.5,135,,,,,135,1
Dylan Heille,15,B,M,Teen 1,Raw,72.62,82.5,,,,,112.5,120,-125,120,,,,,120,1
Jay Baltierra,15,B,M,Teen 1,Multi-ply,82.01,82.5,,,,,170,182.5,-187.5,182.5,,,,,182.5,1
Corey Lyon,28,B,M,Open,Raw,79.2,82.5,,,,,165,170,-175,170,,,,,170,1
Tom Waldrep,47,B,M,Masters 2,Raw,99.02,100,,,,,200,210,-217.5,210,,,,,210,1
Jamie Weldin,36,B,M,Open,Raw,108.41,110,,,,,207.5,-215,-215,207.5,,,,,207.5,1
T.J. Reck,30,B,M,Open,Raw,114.99,125,,,,,190,200,-210,200,,,,,200,1
Kevin Crock,32,B,M,Open,Raw,123.2,125,,,,,185,197.5,-207.5,197.5,,,,,197.5,2
Josh Vondran,29,B,M,Open,Raw,127.01,140,,,,,207.5,217.5,-227.5,217.5,,,,,217.5,1
W.T. Franklin,34,B,M,Open,Raw,133.81,140,,,,,207.5,-227.5,-227.5,207.5,,,,,207.5,2
Cozy Cozine,55,B,M,Masters 4-AD,Multi-ply,119.2,125,,,,,227.5,-242.5,-250,227.5,,,,,227.5,1
Mike Olmstead,31,B,M,Open-AD,Multi-ply,128,140,,,,,187.5,-195,-195,187.5,,,,,187.5,1
Stan Mingus,62,B,M,Masters 5,Multi-ply,97.2,100,,,,,170,187.5,,187.5,,,,,187.5,1
Clay Barnett,62,B,M,Masters 5,Multi-ply,117.21,125,,,,,185,-200,-200,185,,,,,185,1
Andy Olson,59,B,M,Masters 4,Multi-ply,66.18,67.5,,,,,105,115,-120,115,,,,,115,1
Steve Egli,56,B,M,Masters 4,Multi-ply,81.19,82.5,,,,,-152.5,-152.5,,,,,,,,DQ
David Harrison,43,B,M,Masters 1,Multi-ply,119.79,125,,,,,252.5,-265,-265,252.5,,,,,252.5,1
Chad Truitt,37,B,M,Submasters,Multi-ply,106.59,110,,,,,190,197.5,-205,197.5,,,,,197.5,1
Dan Grauerholz,35,B,M,Submasters,Multi-ply,124.6,125,,,,,285,-300,-300,285,,,,,285,1
Rudy Hillyard,36,B,M,Open,Multi-ply,81.42,82.5,,,,,-185,192.5,200,200,,,,,200,1
Chris Dejongh,27,B,M,Open,Multi-ply,81.6,82.5,,,,,-325,-330,-335,,,,,,,DQ
Brad Colman,24,B,M,Open,Multi-ply,87.18,90,,,,,157.5,-172.5,-172.5,157.5,,,,,157.5,1
Jake Prazak,34,B,M,Open,Multi-ply,99.61,100,,,,,-412.5,412.5,-415,412.5,,,,,412.5,1
Dylan Hanson,30,B,M,Open,Multi-ply,108.18,110,,,,,-295,295,-302.5,295,,,,,295,1
Paul Harris,39,B,M,Open,Multi-ply,128.41,140,,,,,325,337.5,365,365,,,,,365,1
